"year","state","adopt.rate","adopt.rate_se","prop_bulbs","prop_bulbs_se"
2014,"Aguascalientes",0.747741504267502,0.02627172091439,0.589797853017538,0.0247994125479771
2014,"Baja California",0.845224124034043,0.017932353243447,0.729108264879112,0.0189016378088593
2014,"Baja California Sur",0.781809102985651,0.0262898434860971,0.623049706968557,0.0271184452643466
2014,"Campeche",0.850232071369923,0.0237389180622866,0.754084208203221,0.0258692172953026
2014,"Chiapas",0.581471580796135,0.0413088769170068,0.468167002392737,0.0393830306851343
2014,"Chihuahua",0.68102203890395,0.0320028267274785,0.5338505423667,0.0237905570849901
2014,"Coahuila",0.735295089929384,0.0289113399052824,0.547634709124425,0.0286589344317659
2014,"Colima",0.831220721278969,0.019583480180609,0.68625119716994,0.0207793767170658
2014,"Durango",0.659707255067695,0.0301429147920683,0.483448216146319,0.0276580355409055
2014,"Guanajuato",0.691415737882689,0.0342829058554984,0.532834598942451,0.0321428136591239
2014,"Guerrero",0.697617944480173,0.0387506678163856,0.560517796499163,0.0349505655835382
2014,"Hidalgo",0.606826703676999,0.0331860640119295,0.478553883845122,0.0301214551587324
2014,"Jalisco",0.754328590409374,0.0303748193126804,0.586587665127273,0.0308247104564771
2014,"Mexico",0.70304509780059,0.027045262832853,0.566456170957205,0.0255924792780346
2014,"Mexico City",0.781554855724203,0.0202737889370287,0.690770334630193,0.0203178336587405
2014,"Michoacan",0.647622915350166,0.038048184138438,0.509014738700743,0.0326673200341173
2014,"Morelos",0.779639445032134,0.0273361254706358,0.644652808167661,0.0257400562717433
2014,"Nayarit",0.69624553127735,0.0263813705565901,0.523321179634487,0.0275991039212444
2014,"Nuevo Leon",0.822585134196345,0.0219049692361748,0.669062745156503,0.0242329855723559
2014,"Oaxaca",0.619782270861441,0.046160596191786,0.491731537768584,0.0430715170893846
2014,"Puebla",0.701602578368203,0.0352667502903089,0.572684718909307,0.0349500445013424
2014,"Queretaro",0.734158687446566,0.0300055510392514,0.584826047045069,0.0322908899049332
2014,"Quintana Roo",0.891476400613968,0.0258134890318898,0.844517487597437,0.0214272490045485
2014,"San Luis Potosi",0.732457121524517,0.0294768316129712,0.58392351999307,0.0273962298807697
2014,"Sinaloa",0.663992233465547,0.0322449405662252,0.533068027097849,0.0307908557633538
2014,"Sonora",0.76945837130192,0.0304985067052413,0.571648220171161,0.0272009823666383
2014,"Tabasco",0.749918197242808,0.0158507253220544,0.620686934132863,0.0167545237495277
2014,"Tamaulipas",0.71461179147616,0.0312209589926981,0.576737850959521,0.0300165063378319
2014,"Tlaxcala",0.744386663193196,0.0259689359639645,0.63789630589534,0.0276145407161855
2014,"Veracruz",0.727820958021066,0.0273010915958609,0.58051783800415,0.0278050019440704
2014,"Yucatan",0.904228494193905,0.0203264173038628,0.839880675609601,0.0203498995493893
2014,"Zacatecas",0.579083338201598,0.0313195552416563,0.408910771267989,0.0293948827579939
2016,"Aguascalientes",0.888138274498316,0.00808169047030672,0.7390907044146,0.00926892945302304
2016,"Baja California",0.880066292571725,0.00979977354463582,0.772581078945594,0.0111772523187901
2016,"Baja California Sur",0.914570760362524,0.00835733634091246,0.829898350824971,0.00960756930313213
2016,"Campeche",0.932191232533625,0.00869947044876743,0.8694585065193,0.0108152919073831
2016,"Chiapas",0.75104652298079,0.0244242268342236,0.646019980794043,0.0249756710165861
2016,"Chihuahua",0.790627205371571,0.0103181321702091,0.66520521886811,0.0107463162001351
2016,"Coahuila",0.835409064098356,0.00859079525514566,0.688828403911061,0.00949767220130295
2016,"Colima",0.90224374585415,0.00731184681343457,0.779863497801776,0.00893341439547574
2016,"Durango",0.872789119884371,0.0100407101189275,0.722150036599636,0.0111898915116051
2016,"Guanajuato",0.860385275223756,0.0109903594402406,0.71214257293704,0.0127135027049188
2016,"Guerrero",0.825979733706824,0.0186630789142432,0.747272325727323,0.0186132228583883
2016,"Hidalgo",0.811155729066622,0.0147126395741289,0.718387559152738,0.0161840126817995
2016,"Jalisco",0.865366291414457,0.00970628798601484,0.713897218169137,0.0125570899166653
2016,"Mexico",0.898529937587554,0.00920842884149628,0.819450864502009,0.0100636091700223
2016,"Mexico City",0.932578146544567,0.00641894122970885,0.874449581535107,0.00736966701307251
2016,"Michoacan",0.861910285481253,0.0114716964353807,0.732898564614594,0.0122151067046084
2016,"Morelos",0.92691411782189,0.00775819899322771,0.856784345699659,0.00940872567957167
2016,"Nayarit",0.857635426110607,0.0122113607469247,0.716060229220744,0.0106178191091436
2016,"Nuevo Leon",0.902412751897502,0.00856114286270154,0.783582641939997,0.00958649263575242
2016,"Oaxaca",0.877453211820754,0.0107561485218425,0.79114086161795,0.0125170840798062
2016,"Puebla",0.872265292973535,0.0127184948408301,0.782436810442976,0.0142142449886069
2016,"Queretaro",0.915555813776149,0.00714070709370838,0.827267389445911,0.00831198728272146
2016,"Quintana Roo",0.957449798989262,0.00544772697505825,0.909835132206179,0.00724470189666942
2016,"San Luis Potosi",0.885918893720333,0.00938834034867065,0.758520236160538,0.0104751862441781
2016,"Sinaloa",0.861841814891645,0.0103813970339706,0.722583960282401,0.010893958743407
2016,"Sonora",0.873813421575424,0.00872543536745403,0.754969763361775,0.00951857907408695
2016,"Tabasco",0.847795655871526,0.0140585136684022,0.732482718855492,0.0164741174561997
2016,"Tamaulipas",0.806305135535952,0.0136168969791668,0.684878599318681,0.014602888932532
2016,"Tlaxcala",0.913175868756617,0.00860289391376298,0.818603763603046,0.00914545969920876
2016,"Veracruz",0.875634734111859,0.0121302707578099,0.784461893897286,0.0119605289369869
2016,"Yucatan",0.975344834388578,0.00362927696895716,0.921102497891231,0.00590011635128194
2016,"Zacatecas",0.836491148956359,0.0111352964968293,0.676830979189762,0.0127000781177578
2018,"Aguascalientes",0.887778243470572,0.00832634033206592,0.753603374639219,0.0101901014041097
2018,"Baja California",0.88314550690881,0.00963352582421249,0.787310576643548,0.0111159554899184
2018,"Baja California Sur",0.92370778906628,0.0082802266791509,0.843303574547432,0.0091754145185454
2018,"Campeche",0.896422723462265,0.0141600373207815,0.825573911870602,0.0162447311602561
2018,"Chiapas",0.73045673141991,0.023889505824978,0.616585712189042,0.024101687618737
2018,"Chihuahua",0.780263296215627,0.00933731712893342,0.664482441342241,0.00966582953969972
2018,"Coahuila",0.870456649255212,0.00807038645180307,0.734902014754586,0.00868989439036633
2018,"Colima",0.914506652287968,0.00686668979839024,0.81297374068541,0.0083940827872957
2018,"Durango",0.793014664726296,0.0118012679327326,0.656277700546134,0.0123513707242172
2018,"Guanajuato",0.86252606718754,0.0101202380263034,0.742427364165213,0.0114958817920086
2018,"Guerrero",0.820208550866089,0.0165611257913935,0.727656961198411,0.0165025222016727
2018,"Hidalgo",0.817167457802801,0.0140477138610165,0.708751001945197,0.0165825551211783
2018,"Jalisco",0.852197334945111,0.0107544286512334,0.706266683103417,0.0122064596862339
2018,"Mexico",0.870152980683677,0.00942034498164857,0.787173693511204,0.0104157159892087
2018,"Mexico City",0.913080493168341,0.00803523072365025,0.852427985124102,0.00922570873754568
2018,"Michoacan",0.86521690369508,0.0109625845884693,0.745376456324705,0.0122655329513415
2018,"Morelos",0.920169094409856,0.00725834671266344,0.841261134835712,0.0100025995436434
2018,"Nayarit",0.847723231937425,0.0158097224715339,0.70004998903798,0.0130702809767869
2018,"Nuevo Leon",0.908368343363234,0.00692174231380525,0.797320118270374,0.00894584858230909
2018,"Oaxaca",0.88123123018012,0.0122056838840287,0.797392906666375,0.0128701227477552
2018,"Puebla",0.873880035565283,0.0111406059692055,0.791074792659199,0.0137299883429196
2018,"Queretaro",0.894865939855733,0.00770090623544334,0.813635894910386,0.00959704029077127
2018,"Quintana Roo",0.951544365944436,0.00738257505563521,0.914940081662641,0.00870661900175129
2018,"San Luis Potosi",0.85262685897915,0.0105036975424643,0.739856142159681,0.011113907323482
2018,"Sinaloa",0.836364413801711,0.011327189976861,0.686937194148897,0.0131285926257242
2018,"Sonora",0.879231287256574,0.00988256226383842,0.750284396538901,0.0111787884162039
2018,"Tabasco",0.819501079572539,0.0150652056216988,0.711744035104697,0.0167096505934238
2018,"Tamaulipas",0.790475964118264,0.0114532071605476,0.649090065415139,0.0116538498763682
2018,"Tlaxcala",0.908564280718251,0.00827677383907851,0.826742131160147,0.0096210976596405
2018,"Veracruz",0.860075367294306,0.0123418528594754,0.761196690882202,0.0132084950230357
2018,"Yucatan",0.964386654484984,0.00397661165165542,0.912249493314212,0.00521615461009757
2018,"Zacatecas",0.774548406831741,0.012339357255838,0.597589295762928,0.0122069580962921
