"houseage","year","adopt.rate","se","total.households"
"11 to 20","2014",0.737502353402345,0.00971405130063251,7637878
"21 to 30","2014",0.764483987494258,0.0116486368294409,5309881
"3 to 6","2014",0.721498850671863,0.0158274536201935,3312805
"31 to 50","2014",0.765272886785953,0.0135072278727782,4008787
"50+","2014",0.660726857058042,0.0286258218300765,970177
"7 to 10","2014",0.706233594565425,0.014193057317741,3771997
"less than 3","2014",0.665816007065624,0.0169293891991333,2427528
"11 to 20","2016",0.885800021778547,0.00392263696175163,8209914
"21 to 30","2016",0.892881431956843,0.0047960488704846,5359547
"3 to 6","2016",0.8576311646413,0.00731617939355471,2891328
"31 to 50","2016",0.902648476397715,0.00461692735222442,4523884
"50+","2016",0.89163663580707,0.00861754427827655,959291
"7 to 10","2016",0.858540557909911,0.00635921125160183,3669087
"less than 3","2016",0.836399975662591,0.00823671179683636,2070886
"11 to 20","2018",0.868605172866715,0.0037449816773298,8732566
"21 to 30","2018",0.87773973828714,0.00470391285973537,5726505
"3 to 6","2018",0.835071049151756,0.00804347264303383,2572726
"31 to 50","2018",0.886984872886198,0.00454041775360247,5329437
"50+","2018",0.877605457007895,0.0088288273896067,1089828
"7 to 10","2018",0.845351745730989,0.00653925171282907,3462160
"less than 3","2018",0.822220140071539,0.00929006264473852,1942436
