"year","climate","adopt.rate","adopt.rate_se","total.households","focos_tot","total_bulbs_se","focos_prop","prop_bulbs_se"
2014,"Arid",0.748278406197818,0.0103839887545442,7506126,56673130,2206547.78672045,0.595533372467653,0.00982197658659617
2014,"Temperate",0.7172013327717,0.00944947648228973,19303231,133521153,4491947.39077609,0.579438528802754,0.00916168030509256
2014,"Tropical",0.707725677214194,0.0170562626103784,4861645,28091235,1493525.81176551,0.596853020826391,0.0165317325712987
2016,"Arid",0.855040277836862,0.00367871264211993,7804292,58245334,1046652.92974751,0.730492803824262,0.00399802438002492
2016,"Temperate",0.885333376935612,0.00327120294913547,20304749,142145613,2594872.87252298,0.784056228805684,0.00366181027275445
2016,"Tropical",0.853841660787398,0.00766148999543258,5353557,30432409,855503.595718574,0.768952827554498,0.00807060132078908
2018,"Arid",0.850082185513942,0.00346144702933293,8183924,60933206,1122327.26683612,0.727225462017847,0.0039202022184309
2018,"Temperate",0.870200908990084,0.00338980438216096,21044454,146246954,2675403.67663167,0.770467390213171,0.0038382387752594
2018,"Tropical",0.842563863651195,0.00809242178655148,5516440,31967387,937506.652812635,0.7554970717883,0.00863048248561817
