"houseage","year","adopt.rate","se","total.households"
"11 to 20","2014",0.733194502908723,0.00980708181970983,7682754
"21 to 30","2014",0.761436309798253,0.0119060481309682,5331134
"3 to 6","2014",0.710988563488893,0.0161186692845902,3361777
"31 to 50","2014",0.761080739929961,0.0135294027712754,4030868
"50+","2014",0.654740114887115,0.0284470415679427,979048
"7 to 10","2014",0.696301142531385,0.0143364784668318,3825803
"less than 3","2014",0.65291625210211,0.0167767554924309,2475489
"11 to 20","2016",0.882766327495761,0.00393964500589941,8238128
"21 to 30","2016",0.890618140102476,0.0048264721977007,5373167
"3 to 6","2016",0.849991807532545,0.00732143050000811,2917314
"31 to 50","2016",0.899836712927665,0.00463863001062919,4538020
"50+","2016",0.888087216093446,0.00868293334928514,963125
"7 to 10","2016",0.853642871892596,0.00645083295612486,3690138
"less than 3","2016",0.823623366687098,0.00852390638603913,2103011
"11 to 20","2018",0.865823750582008,0.0037714029729828,8760619
"21 to 30","2018",0.874805137393692,0.00474841400301011,5745715
"3 to 6","2018",0.825503430489552,0.00811798656662825,2602544
"31 to 50","2018",0.884737270015811,0.0045560229334813,5342976
"50+","2018",0.872787550052745,0.00895631537390799,1095844
"7 to 10","2018",0.838446626195006,0.00660301911144801,3490673
"less than 3","2018",0.811371835194652,0.00952768037585114,1968407
