"year","est_socio","tam_loc","adopt.rate","se","total.households"
"2014","high","<2.5K",0.899561787905346,0.0719609098221568,17115
"2014","high",">=100K",0.921014016328543,0.0103537884844225,2978098
"2014","high","15K-100K",0.885639557836557,0.0537752061627854,202640
"2014","high","2.5K-15K",0.944903948772679,0.0542924887042499,14992
"2014","low","<2.5K",0.436016868027195,0.0224559228683386,4418774
"2014","low",">=100K",0.639460799474693,0.0752041767952185,210163
"2014","low","15K-100K",0.639428585559668,0.0522630847007642,121313
"2014","low","2.5K-15K",0.656486282072667,0.0332737300789635,875278
"2014","medium-high",">=100K",0.833415407730321,0.0101306828134745,5888966
"2014","medium-high","15K-100K",0.843216737568744,0.0254738593736793,897717
"2014","medium-high","2.5K-15K",0.898646821490768,0.0540561661088878,92449
"2014","medium-low","<2.5K",0.634935990824712,0.0256469310944161,2529403
"2014","medium-low",">=100K",0.733296695115107,0.0113460835726908,6688826
"2014","medium-low","15K-100K",0.753446142318367,0.0151324101391285,3453862
"2014","medium-low","2.5K-15K",0.723882384563203,0.0177559466960874,3281406
"2016","high","<2.5K",0.811294491946709,0.0779740531192315,10058
"2016","high",">=100K",0.96181554866506,0.00401846324098262,3143138
"2016","high","2.5K-15K",0.923878527662239,0.0437778113258962,22359
"2016","low","<2.5K",0.750158178519517,0.0100246578671536,4673517
"2016","low",">=100K",0.812493368887883,0.0229657566291349,282758
"2016","low","2.5K-15K",0.842782537928941,0.0168378396758836,948616
"2016","medium-high",">=100K",0.924778209816885,0.00376707922397922,6228860
"2016","medium-high","2.5K-15K",0.945897878002091,0.0136212107705301,147314
"2016","medium-low","<2.5K",0.852912924711291,0.00621267840238796,2585992
"2016","medium-low",">=100K",0.868047698428853,0.00467508484525122,7035368
"2016","medium-low","2.5K-15K",0.870749485815764,0.00949640512930598,3531808
"2018","high","<2.5K",0.930369909853901,0.0638784729399594,12868
"2018","high",">=100K",0.958172091053884,0.00555769300636347,3249768
"2018","high","15K-100K",0.951127272727273,0.0223203360825153,206250
"2018","high","2.5K-15K",0.958969187080337,0.0201456715691038,37679
"2018","low","<2.5K",0.715003640721203,0.00862605766602896,5117118
"2018","low",">=100K",0.836199959030785,0.0210569441680337,273376
"2018","low","15K-100K",0.863787474027901,0.0367270636645357,134760
"2018","low","2.5K-15K",0.819632025063129,0.0206374174405119,965881
"2018","medium-high",">=100K",0.924287149845435,0.00386806074660731,6211614
"2018","medium-high","15K-100K",0.917937275198468,0.00912434806278099,1026739
"2018","medium-high","2.5K-15K",0.925389916325784,0.0241990142029398,144967
"2018","medium-low","<2.5K",0.838139026489149,0.00628914466216995,2894657
"2018","medium-low",">=100K",0.853630838990866,0.00565792579104196,7000696
"2018","medium-low","15K-100K",0.881078174783644,0.00697879100181202,3740247
"2018","medium-low","2.5K-15K",0.871411067759813,0.0076737525065688,3728198
