date,avg_temperature,min_temperature,max_temperature,humidity,sunrise_time,sunset_time,time_zone,gmt_zone
2014-01-01,13.76416666666667,8.44,19.27,0.81,18:25:00,18:25:00,America/Mexico_City, GMT-06
2014-01-02,14.162500000000001,6.14,23.45,0.73,18:26:00,18:26:00,America/Mexico_City, GMT-06
2014-01-03,13.836250000000005,8.53,21.09,0.68,18:26:00,18:26:00,America/Mexico_City, GMT-06
2014-01-04,13.599166666666667,4.41,24.08,0.67,18:27:00,18:27:00,America/Mexico_City, GMT-06
2014-01-05,14.139583333333334,4.02,23.22,0.63,18:28:00,18:28:00,America/Mexico_City, GMT-06
2014-01-06,14.170416666666668,8.26,21.35,0.66,18:28:00,18:28:00,America/Mexico_City, GMT-06
2014-01-07,14.260833333333338,9.42,22.31,0.64,18:29:00,18:29:00,America/Mexico_City, GMT-06
2014-01-08,13.092916666666667,4.1,25.08,0.66,18:30:00,18:30:00,America/Mexico_City, GMT-06
2014-01-09,13.88666666666667,3.3,25.08,0.57,18:30:00,18:30:00,America/Mexico_City, GMT-06
2014-01-10,13.323478260869566,2.53,23.59,0.57,18:31:00,18:31:00,America/Mexico_City, GMT-06
2014-01-11,13.148333333333335,9.52,18.42,0.77,18:32:00,18:32:00,America/Mexico_City, GMT-06
2014-01-12,13.979166666666671,8.39,21.35,0.76,18:32:00,18:32:00,America/Mexico_City, GMT-06
2014-01-13,13.02375,6.32,23.32,0.69,18:33:00,18:33:00,America/Mexico_City, GMT-06
2014-01-14,12.720833333333333,2.3,23.38,0.59,18:34:00,18:34:00,America/Mexico_City, GMT-06
2014-01-15,13.400416666666667,4.47,23.08,0.57,18:34:00,18:34:00,America/Mexico_City, GMT-06
2014-01-16,11.950000000000003,3.35,21.28,0.55,18:35:00,18:35:00,America/Mexico_City, GMT-06
2014-01-17,12.545833333333334,2.39,22.36,0.58,18:36:00,18:36:00,America/Mexico_City, GMT-06
2014-01-18,12.193333333333335,1.31,23.26,0.53,18:36:00,18:36:00,America/Mexico_City, GMT-06
2014-01-19,13.570833333333335,4.17,24.2,0.59,18:37:00,18:37:00,America/Mexico_City, GMT-06
2014-01-20,14.55666666666667,4.53,25.26,0.6,18:38:00,18:38:00,America/Mexico_City, GMT-06
2014-01-21,15.158333333333333,5.06,25.84,0.6,18:38:00,18:38:00,America/Mexico_City, GMT-06
2014-01-22,13.965833333333336,4.07,25.12,0.55,18:39:00,18:39:00,America/Mexico_City, GMT-06
2014-01-23,15.779583333333335,6.5,26.15,0.58,18:40:00,18:40:00,America/Mexico_City, GMT-06
2014-01-24,16.483750000000004,8.43,25.27,0.66,18:40:00,18:40:00,America/Mexico_City, GMT-06
2014-01-25,16.583750000000006,8.25,26.28,0.62,18:41:00,18:41:00,America/Mexico_City, GMT-06
2014-01-26,16.97791666666667,7.37,26.28,0.6,18:42:00,18:42:00,America/Mexico_City, GMT-06
2014-01-27,16.91541666666667,7.15,26.24,0.57,18:42:00,18:42:00,America/Mexico_City, GMT-06
2014-01-28,16.002500000000005,5.38,25.12,0.52,18:43:00,18:43:00,America/Mexico_City, GMT-06
2014-01-29,14.805000000000001,4.21,24.16,0.58,18:43:00,18:43:00,America/Mexico_City, GMT-06
2014-01-30,14.367916666666668,3.19,25.09,0.59,18:44:00,18:44:00,America/Mexico_City, GMT-06
2014-01-31,15.41125,5.06,25.59,0.55,18:45:00,18:45:00,America/Mexico_City, GMT-06
2014-02-01,15.196666666666673,6.41,25.27,0.51,18:45:00,18:45:00,America/Mexico_City, GMT-06
2014-02-02,14.675416666666669,4.09,27.26,0.5,18:46:00,18:46:00,America/Mexico_City, GMT-06
2014-02-03,16.113333333333333,5.34,27.09,0.51,18:47:00,18:47:00,America/Mexico_City, GMT-06
2014-02-04,16.23,5.41,27.07,0.55,18:47:00,18:47:00,America/Mexico_City, GMT-06
2014-02-05,17.35727272727273,5.19,26.16,0.51,18:48:00,18:48:00,America/Mexico_City, GMT-06
2014-02-06,16.89791666666667,6.3,26.19,0.54,18:48:00,18:48:00,America/Mexico_City, GMT-06
2014-02-07,16.86041666666667,7.38,26.26,0.57,18:49:00,18:49:00,America/Mexico_City, GMT-06
2014-02-08,16.503333333333337,6.08,27.14,0.52,18:49:00,18:49:00,America/Mexico_City, GMT-06
2014-02-09,16.333333333333336,4.94,28.22,0.44,18:50:00,18:50:00,America/Mexico_City, GMT-06
2014-02-10,17.763333333333335,6.53,28.2,0.41,18:51:00,18:51:00,America/Mexico_City, GMT-06
2014-02-11,17.744583333333335,7.18,27.23,0.37,18:51:00,18:51:00,America/Mexico_City, GMT-06
2014-02-12,15.672916666666671,3.32,27.24,0.41,18:52:00,18:52:00,America/Mexico_City, GMT-06
2014-02-13,16.051666666666666,4.08,29.09,0.4,18:52:00,18:52:00,America/Mexico_City, GMT-06
2014-02-14,16.967916666666667,5.21,28.13,0.42,18:53:00,18:53:00,America/Mexico_City, GMT-06
2014-02-15,17.82375,6.98,28.17,0.37,18:53:00,18:53:00,America/Mexico_City, GMT-06
2014-02-16,18.255833333333335,5.94,29.38,0.37,18:54:00,18:54:00,America/Mexico_City, GMT-06
2014-02-17,18.48541666666667,6.03,30.28,0.32,18:54:00,18:54:00,America/Mexico_City, GMT-06
2014-02-18,18.73541666666667,7.33,28.77,0.45,18:55:00,18:55:00,America/Mexico_City, GMT-06
2014-02-19,18.87,9.19,28.25,0.45,18:55:00,18:55:00,America/Mexico_City, GMT-06
2014-02-20,17.412500000000005,8.21,25.37,0.38,18:55:00,18:55:00,America/Mexico_City, GMT-06
2014-02-21,16.51130434782609,4.37,27.4,0.45,18:56:00,18:56:00,America/Mexico_City, GMT-06
2014-02-22,18.15791666666667,8.17,27.33,0.42,18:56:00,18:56:00,America/Mexico_City, GMT-06
2014-02-23,18.52541666666667,9.11,27.07,0.46,18:57:00,18:57:00,America/Mexico_City, GMT-06
2014-02-24,18.36916666666667,8.17,28.09,0.49,18:57:00,18:57:00,America/Mexico_City, GMT-06
2014-02-25,17.743750000000002,8.47,26.27,0.51,18:58:00,18:58:00,America/Mexico_City, GMT-06
2014-02-26,18.50916666666667,8.49,28.43,0.46,18:58:00,18:58:00,America/Mexico_City, GMT-06
2014-02-27,18.06434782608696,6.38,28.18,0.37,18:58:00,18:58:00,America/Mexico_City, GMT-06
2014-02-28,18.31125,6.52,29.2,0.42,18:59:00,18:59:00,America/Mexico_City, GMT-06
2014-03-01,19.18791666666667,7.94,29.45,0.44,18:59:00,18:59:00,America/Mexico_City, GMT-06
2014-03-02,19.66826086956522,8.53,30.17,0.41,19:00:00,19:00:00,America/Mexico_City, GMT-06
2014-03-03,19.671250000000004,8.52,30.08,0.45,19:00:00,19:00:00,America/Mexico_City, GMT-06
2014-03-04,18.324545454545454,6.47,27.59,0.46,19:00:00,19:00:00,America/Mexico_City, GMT-06
2014-03-05,17.14,5.28,27.59,0.44,19:01:00,19:01:00,America/Mexico_City, GMT-06
2014-03-06,17.419583333333335,5.38,28.02,0.44,19:01:00,19:01:00,America/Mexico_City, GMT-06
2014-03-07,18.09166666666667,7.36,26.28,0.48,19:01:00,19:01:00,America/Mexico_City, GMT-06
2014-03-08,17.584583333333335,8.52,26.32,0.55,19:02:00,19:02:00,America/Mexico_City, GMT-06
2014-03-09,17.91083333333334,8.52,25.11,0.54,19:02:00,19:02:00,America/Mexico_City, GMT-06
2014-03-10,17.48416666666667,8.27,26.22,0.58,19:02:00,19:02:00,America/Mexico_City, GMT-06
2014-03-11,16.442500000000003,5.16,27.13,0.46,19:03:00,19:03:00,America/Mexico_City, GMT-06
2014-03-12,16.855416666666667,4.52,29.21,0.39,19:03:00,19:03:00,America/Mexico_City, GMT-06
2014-03-13,18.52791666666667,6.53,30.11,0.32,19:03:00,19:03:00,America/Mexico_City, GMT-06
2014-03-14,18.53875,5.53,28.17,0.32,19:04:00,19:04:00,America/Mexico_City, GMT-06
2014-03-15,19.777083333333334,7.52,29.09,0.43,19:04:00,19:04:00,America/Mexico_City, GMT-06
2014-03-16,18.65291666666667,7.53,28.11,0.33,19:04:00,19:04:00,America/Mexico_City, GMT-06
2014-03-17,15.621666666666668,5.51,25.09,0.3,19:05:00,19:05:00,America/Mexico_City, GMT-06
2014-03-18,17.985000000000003,5.97,27.49,0.3,19:05:00,19:05:00,America/Mexico_City, GMT-06
2014-03-19,19.03166666666667,8.53,28.16,0.42,19:05:00,19:05:00,America/Mexico_City, GMT-06
2014-03-20,20.308750000000003,8.51,31.19,0.43,19:05:00,19:05:00,America/Mexico_City, GMT-06
2014-03-21,21.967083333333335,10.51,30.39,0.46,19:06:00,19:06:00,America/Mexico_City, GMT-06
2014-03-22,22.3325,12.47,31.09,0.5,19:06:00,19:06:00,America/Mexico_City, GMT-06
2014-03-23,22.345416666666665,10.48,32.72,0.45,19:06:00,19:06:00,America/Mexico_City, GMT-06
2014-03-24,22.827916666666663,10.44,33.57,0.3,19:07:00,19:07:00,America/Mexico_City, GMT-06
2014-03-25,22.596249999999998,11.51,31.46,0.31,19:07:00,19:07:00,America/Mexico_City, GMT-06
2014-03-26,21.329565217391302,11.2,30.32,0.34,19:07:00,19:07:00,America/Mexico_City, GMT-06
2014-03-27,20.349166666666665,11.45,29.09,0.4,19:07:00,19:07:00,America/Mexico_City, GMT-06
2014-03-28,20.540833333333335,10.51,28.53,0.43,19:08:00,19:08:00,America/Mexico_City, GMT-06
2014-03-29,21.596666666666668,10.53,31.35,0.41,19:08:00,19:08:00,America/Mexico_City, GMT-06
2014-03-30,21.997500000000002,13.48,30.7,0.35,19:08:00,19:08:00,America/Mexico_City, GMT-06
2014-03-31,20.851250000000004,9.51,30.18,0.43,19:09:00,19:09:00,America/Mexico_City, GMT-06
2014-04-01,21.815,10.49,31.11,0.37,19:09:00,19:09:00,America/Mexico_City, GMT-06
2014-04-02,21.498333333333335,9.39,31.39,0.29,19:09:00,19:09:00,America/Mexico_City, GMT-06
2014-04-03,20.630833333333335,9.5,30.24,0.27,19:09:00,19:09:00,America/Mexico_City, GMT-06
2014-04-04,20.604782608695654,6.35,32.25,0.29,19:10:00,19:10:00,America/Mexico_City, GMT-06
2014-04-05,21.652500000000003,9.4,32.1,0.29,19:10:00,19:10:00,America/Mexico_City, GMT-06
2014-04-06,20.87217391304348,8.45,31.62,0.31,20:10:00,20:10:00,America/Mexico_City, GMT-05
2014-04-07,20.782083333333333,11.49,29.42,0.32,20:11:00,20:11:00,America/Mexico_City, GMT-05
2014-04-08,21.145909090909093,8.5,30.42,0.2,20:11:00,20:11:00,America/Mexico_City, GMT-05
2014-04-09,21.85416666666667,12.52,29.85,0.18,20:11:00,20:11:00,America/Mexico_City, GMT-05
2014-04-10,22.8225,11.52,32.57,0.28,20:11:00,20:11:00,America/Mexico_City, GMT-05
2014-04-11,22.925833333333333,11.38,31.66,0.27,20:12:00,20:12:00,America/Mexico_City, GMT-05
2014-04-12,23.16291666666667,12.26,33.11,0.28,20:12:00,20:12:00,America/Mexico_City, GMT-05
2014-04-13,23.374166666666667,12.08,32.24,0.26,20:12:00,20:12:00,America/Mexico_City, GMT-05
2014-04-14,23.29958333333333,11.64,32.55,0.28,20:13:00,20:13:00,America/Mexico_City, GMT-05
2014-04-15,22.385416666666668,10.27,33.1,0.34,20:13:00,20:13:00,America/Mexico_City, GMT-05
2014-04-16,22.099999999999998,12.53,30.6,0.41,20:13:00,20:13:00,America/Mexico_City, GMT-05
2014-04-17,21.644583333333333,11.4,30.22,0.44,20:14:00,20:14:00,America/Mexico_City, GMT-05
2014-04-18,22.10541666666667,11.44,31.09,0.45,20:14:00,20:14:00,America/Mexico_City, GMT-05
2014-04-19,22.69458333333333,12.42,31.13,0.46,20:14:00,20:14:00,America/Mexico_City, GMT-05
2014-04-20,23.277083333333334,13.43,31.22,0.37,20:15:00,20:15:00,America/Mexico_City, GMT-05
2014-04-21,23.61916666666667,14.36,32.57,0.36,20:15:00,20:15:00,America/Mexico_City, GMT-05
2014-04-22,23.086249999999996,11.41,32.87,0.37,20:15:00,20:15:00,America/Mexico_City, GMT-05
2014-04-23,22.80666666666667,11.36,31.78,0.28,20:16:00,20:16:00,America/Mexico_City, GMT-05
2014-04-24,23.40521739130435,13.45,31.11,0.29,20:16:00,20:16:00,America/Mexico_City, GMT-05
2014-04-25,23.615,16.33,32.09,0.26,20:16:00,20:16:00,America/Mexico_City, GMT-05
2014-04-26,22.159166666666668,12.38,29.22,0.41,20:17:00,20:17:00,America/Mexico_City, GMT-05
2014-04-27,21.842083333333335,12.2,30.21,0.37,20:17:00,20:17:00,America/Mexico_City, GMT-05
2014-04-28,22.50708333333333,12.28,32.09,0.31,20:18:00,20:18:00,America/Mexico_City, GMT-05
2014-04-29,22.7625,12.42,31.54,0.36,20:18:00,20:18:00,America/Mexico_City, GMT-05
2014-04-30,23.39625,14.37,31.46,0.28,20:18:00,20:18:00,America/Mexico_City, GMT-05
2014-05-01,23.41875,16.52,30.15,0.25,20:19:00,20:19:00,America/Mexico_City, GMT-05
2014-05-02,22.5925,14.48,30.21,0.36,20:19:00,20:19:00,America/Mexico_City, GMT-05
2014-05-03,22.049166666666668,14.53,30.08,0.4,20:20:00,20:20:00,America/Mexico_City, GMT-05
2014-05-04,22.302083333333332,12.44,32.41,0.41,20:20:00,20:20:00,America/Mexico_City, GMT-05
2014-05-05,23.86,15.27,32.29,0.44,20:20:00,20:20:00,America/Mexico_City, GMT-05
2014-05-06,23.313333333333333,14.16,32.63,0.42,20:21:00,20:21:00,America/Mexico_City, GMT-05
2014-05-07,17.483333333333338,14.53,21.24,0.73,20:21:00,20:21:00,America/Mexico_City, GMT-05
2014-05-08,19.70291666666667,13.4,28.11,0.69,20:22:00,20:22:00,America/Mexico_City, GMT-05
2014-05-09,22.38666666666667,15.51,30.93,0.52,20:22:00,20:22:00,America/Mexico_City, GMT-05
2014-05-10,23.55666666666666,14.5,32.09,0.53,20:22:00,20:22:00,America/Mexico_City, GMT-05
2014-05-11,23.69583333333333,16.29,31.32,0.48,20:23:00,20:23:00,America/Mexico_City, GMT-05
2014-05-12,24.240416666666665,16.51,32.13,0.49,20:23:00,20:23:00,America/Mexico_City, GMT-05
2014-05-13,23.925833333333333,16.48,31.2,0.5,20:24:00,20:24:00,America/Mexico_City, GMT-05
2014-05-14,23.408749999999998,15.17,32.19,0.5,20:24:00,20:24:00,America/Mexico_City, GMT-05
2014-05-15,21.07916666666667,15.38,28.65,0.54,20:25:00,20:25:00,America/Mexico_City, GMT-05
2014-05-16,22.367500000000003,13.5,31.22,0.41,20:25:00,20:25:00,America/Mexico_City, GMT-05
2014-05-17,22.19666666666667,11.27,32.32,0.38,20:25:00,20:25:00,America/Mexico_City, GMT-05
2014-05-18,23.074583333333333,14.12,32.81,0.38,20:26:00,20:26:00,America/Mexico_City, GMT-05
2014-05-19,22.54041666666667,13.46,33.02,0.44,20:26:00,20:26:00,America/Mexico_City, GMT-05
2014-05-20,23.699166666666667,14.45,32.94,0.43,20:27:00,20:27:00,America/Mexico_City, GMT-05
2014-05-21,23.669583333333332,15.47,31.34,0.46,20:27:00,20:27:00,America/Mexico_City, GMT-05
2014-05-22,22.164583333333336,15.53,29.87,0.54,20:28:00,20:28:00,America/Mexico_City, GMT-05
2014-05-23,21.348750000000006,15.32,28.22,0.64,20:28:00,20:28:00,America/Mexico_City, GMT-05
2014-05-24,22.364583333333332,16.24,28.2,0.61,20:29:00,20:29:00,America/Mexico_City, GMT-05
2014-05-25,23.316249999999997,17.1,30.11,0.54,20:29:00,20:29:00,America/Mexico_City, GMT-05
2014-05-26,22.104583333333334,17.41,29.16,0.61,20:29:00,20:29:00,America/Mexico_City, GMT-05
2014-05-27,21.124583333333337,14.26,29.81,0.68,20:30:00,20:30:00,America/Mexico_City, GMT-05
2014-05-28,20.407500000000002,16.4,26.66,0.72,20:30:00,20:30:00,America/Mexico_City, GMT-05
2014-05-29,20.901250000000005,17.4,25.08,0.71,20:31:00,20:31:00,America/Mexico_City, GMT-05
2014-05-30,21.35083333333333,15.53,29.38,0.7,20:31:00,20:31:00,America/Mexico_City, GMT-05
2014-05-31,23.35375,17.38,31.21,0.6,20:31:00,20:31:00,America/Mexico_City, GMT-05
2014-06-01,23.860416666666666,17.4,31.65,0.57,20:32:00,20:32:00,America/Mexico_City, GMT-05
2014-06-02,24.826666666666664,17.52,32.49,0.55,20:32:00,20:32:00,America/Mexico_City, GMT-05
2014-06-03,23.657916666666665,17.51,29.84,0.4,20:33:00,20:33:00,America/Mexico_City, GMT-05
2014-06-04,23.625,15.49,32.0,0.52,20:33:00,20:33:00,America/Mexico_City, GMT-05
2014-06-05,21.896666666666672,16.11,31.53,0.67,20:33:00,20:33:00,America/Mexico_City, GMT-05
2014-06-06,20.864583333333336,16.53,29.2,0.72,20:34:00,20:34:00,America/Mexico_City, GMT-05
2014-06-07,21.952916666666667,18.38,29.57,0.72,20:34:00,20:34:00,America/Mexico_City, GMT-05
2014-06-08,23.377916666666664,18.39,29.98,0.66,20:34:00,20:34:00,America/Mexico_City, GMT-05
2014-06-09,22.918750000000003,18.38,30.22,0.69,20:35:00,20:35:00,America/Mexico_City, GMT-05
2014-06-10,22.312083333333334,16.23,30.27,0.65,20:35:00,20:35:00,America/Mexico_City, GMT-05
2014-06-11,23.477083333333336,18.39,30.18,0.65,20:35:00,20:35:00,America/Mexico_City, GMT-05
2014-06-12,23.805000000000003,17.53,30.64,0.58,20:36:00,20:36:00,America/Mexico_City, GMT-05
2014-06-13,23.667500000000004,18.53,31.26,0.63,20:36:00,20:36:00,America/Mexico_City, GMT-05
2014-06-14,22.770833333333332,18.09,30.1,0.68,20:36:00,20:36:00,America/Mexico_City, GMT-05
2014-06-15,23.117499999999996,16.42,31.22,0.56,20:37:00,20:37:00,America/Mexico_City, GMT-05
2014-06-16,21.91291666666667,16.53,29.11,0.67,20:37:00,20:37:00,America/Mexico_City, GMT-05
2014-06-17,21.905,15.1,29.06,0.67,20:37:00,20:37:00,America/Mexico_City, GMT-05
2014-06-18,21.131250000000005,16.43,28.09,0.71,20:37:00,20:37:00,America/Mexico_City, GMT-05
2014-06-19,21.54083333333334,17.43,28.12,0.68,20:38:00,20:38:00,America/Mexico_City, GMT-05
2014-06-20,19.32666666666667,15.4,24.32,0.78,20:38:00,20:38:00,America/Mexico_City, GMT-05
2014-06-21,20.708750000000006,16.41,27.33,0.7,20:38:00,20:38:00,America/Mexico_City, GMT-05
2014-06-22,21.59208333333334,15.51,28.11,0.69,20:38:00,20:38:00,America/Mexico_City, GMT-05
2014-06-23,20.896666666666672,18.46,26.28,0.75,20:38:00,20:38:00,America/Mexico_City, GMT-05
2014-06-24,20.630000000000003,16.45,27.74,0.76,20:39:00,20:39:00,America/Mexico_City, GMT-05
2014-06-25,21.175416666666674,16.5,27.13,0.73,20:39:00,20:39:00,America/Mexico_City, GMT-05
2014-06-26,20.240833333333338,16.45,26.09,0.8,20:39:00,20:39:00,America/Mexico_City, GMT-05
2014-06-27,20.90333333333334,18.04,26.09,0.72,20:39:00,20:39:00,America/Mexico_City, GMT-05
2014-06-28,20.87416666666667,15.46,27.09,0.72,20:39:00,20:39:00,America/Mexico_City, GMT-05
2014-06-29,21.368750000000002,16.52,27.07,0.68,20:39:00,20:39:00,America/Mexico_City, GMT-05
2014-06-30,19.760833333333338,16.38,24.3,0.78,20:39:00,20:39:00,America/Mexico_City, GMT-05
2014-07-01,19.925833333333337,17.36,24.08,0.77,20:39:00,20:39:00,America/Mexico_City, GMT-05
2014-07-02,19.775833333333335,15.53,26.12,0.78,20:39:00,20:39:00,America/Mexico_City, GMT-05
2014-07-03,19.630416666666672,15.23,26.09,0.74,20:39:00,20:39:00,America/Mexico_City, GMT-05
2014-07-04,19.430000000000003,16.45,25.15,0.79,20:39:00,20:39:00,America/Mexico_City, GMT-05
2014-07-05,20.445,15.51,26.09,0.71,20:39:00,20:39:00,America/Mexico_City, GMT-05
2014-07-06,21.732083333333335,16.42,28.15,0.64,20:39:00,20:39:00,America/Mexico_City, GMT-05
2014-07-07,19.22666666666667,14.4,25.14,0.76,20:39:00,20:39:00,America/Mexico_City, GMT-05
2014-07-08,21.228333333333335,14.48,27.44,0.67,20:39:00,20:39:00,America/Mexico_City, GMT-05
2014-07-09,21.28,16.27,28.64,0.73,20:39:00,20:39:00,America/Mexico_City, GMT-05
2014-07-10,21.864166666666666,16.45,28.21,0.66,20:39:00,20:39:00,America/Mexico_City, GMT-05
2014-07-11,21.223750000000006,15.53,27.61,0.69,20:39:00,20:39:00,America/Mexico_City, GMT-05
2014-07-12,19.890000000000004,15.66,27.05,0.74,20:39:00,20:39:00,America/Mexico_City, GMT-05
2014-07-13,20.16565217391305,14.31,27.51,0.7,20:39:00,20:39:00,America/Mexico_City, GMT-05
2014-07-14,20.059583333333336,13.33,29.16,0.68,20:39:00,20:39:00,America/Mexico_City, GMT-05
2014-07-15,20.470000000000002,13.49,28.39,0.7,20:38:00,20:38:00,America/Mexico_City, GMT-05
2014-07-16,20.630833333333335,15.4,26.71,0.71,20:38:00,20:38:00,America/Mexico_City, GMT-05
2014-07-17,20.952500000000004,15.74,28.22,0.75,20:38:00,20:38:00,America/Mexico_City, GMT-05
2014-07-18,20.781250000000004,16.53,28.57,0.76,20:38:00,20:38:00,America/Mexico_City, GMT-05
2014-07-19,20.06583333333334,16.53,25.08,0.77,20:37:00,20:37:00,America/Mexico_City, GMT-05
2014-07-20,21.400416666666672,15.43,29.16,0.67,20:37:00,20:37:00,America/Mexico_City, GMT-05
2014-07-21,22.24416666666667,15.53,30.35,0.63,20:37:00,20:37:00,America/Mexico_City, GMT-05
2014-07-22,21.922083333333337,14.48,30.59,0.6,20:37:00,20:37:00,America/Mexico_City, GMT-05
2014-07-23,21.792500000000004,13.41,30.19,0.61,20:36:00,20:36:00,America/Mexico_City, GMT-05
2014-07-24,20.00041666666667,15.31,26.91,0.64,20:36:00,20:36:00,America/Mexico_City, GMT-05
2014-07-25,20.434166666666673,14.44,28.09,0.69,20:36:00,20:36:00,America/Mexico_City, GMT-05
2014-07-26,21.284583333333337,13.44,29.39,0.65,20:35:00,20:35:00,America/Mexico_City, GMT-05
2014-07-27,21.44125,16.38,28.24,0.71,20:35:00,20:35:00,America/Mexico_City, GMT-05
2014-07-28,20.730000000000004,14.2,29.36,0.7,20:34:00,20:34:00,America/Mexico_City, GMT-05
2014-07-29,19.383333333333336,11.49,28.12,0.7,20:34:00,20:34:00,America/Mexico_City, GMT-05
2014-07-30,20.945217391304347,13.52,28.19,0.67,20:34:00,20:34:00,America/Mexico_City, GMT-05
2014-07-31,20.08833333333334,14.15,27.07,0.79,20:33:00,20:33:00,America/Mexico_City, GMT-05
2014-08-01,21.618333333333336,15.4,29.26,0.71,20:33:00,20:33:00,America/Mexico_City, GMT-05
2014-08-02,22.159583333333334,16.52,29.32,0.63,20:32:00,20:32:00,America/Mexico_City, GMT-05
2014-08-03,21.50791666666667,15.38,29.01,0.56,20:32:00,20:32:00,America/Mexico_City, GMT-05
2014-08-04,21.859166666666667,15.37,28.62,0.65,20:31:00,20:31:00,America/Mexico_City, GMT-05
2014-08-05,21.032083333333336,14.53,28.44,0.72,20:31:00,20:31:00,America/Mexico_City, GMT-05
2014-08-06,19.84791666666667,15.03,28.41,0.74,20:30:00,20:30:00,America/Mexico_City, GMT-05
2014-08-07,20.033750000000005,15.51,25.18,0.75,20:29:00,20:29:00,America/Mexico_City, GMT-05
2014-08-08,20.386666666666674,16.02,28.13,0.72,20:29:00,20:29:00,America/Mexico_City, GMT-05
2014-08-09,19.62333333333334,14.31,27.4,0.75,20:28:00,20:28:00,America/Mexico_City, GMT-05
2014-08-10,20.038333333333334,13.52,27.8,0.75,20:28:00,20:28:00,America/Mexico_City, GMT-05
2014-08-11,20.908333333333335,15.34,27.8,0.71,20:27:00,20:27:00,America/Mexico_City, GMT-05
2014-08-12,20.55541666666667,16.4,26.5,0.75,20:26:00,20:26:00,America/Mexico_City, GMT-05
2014-08-13,20.23541666666667,16.34,27.09,0.74,20:26:00,20:26:00,America/Mexico_City, GMT-05
2014-08-14,19.645833333333332,15.35,25.73,0.74,20:25:00,20:25:00,America/Mexico_City, GMT-05
2014-08-15,20.15375,13.57,27.91,0.73,20:24:00,20:24:00,America/Mexico_City, GMT-05
2014-08-16,21.00166666666666,15.67,27.79,0.72,20:24:00,20:24:00,America/Mexico_City, GMT-05
2014-08-17,20.8275,14.61,28.78,0.68,20:23:00,20:23:00,America/Mexico_City, GMT-05
2014-08-18,20.57041666666667,14.46,27.22,0.7,20:22:00,20:22:00,America/Mexico_City, GMT-05
2014-08-19,19.43625,14.91,26.19,0.79,20:21:00,20:21:00,America/Mexico_City, GMT-05
2014-08-20,19.592499999999998,15.59,24.49,0.79,20:21:00,20:21:00,America/Mexico_City, GMT-05
2014-08-21,19.696250000000003,15.34,27.6,0.76,20:20:00,20:20:00,America/Mexico_City, GMT-05
2014-08-22,20.099166666666665,15.68,26.27,0.75,20:19:00,20:19:00,America/Mexico_City, GMT-05
2014-08-23,21.105416666666667,16.59,27.2,0.68,20:18:00,20:18:00,America/Mexico_City, GMT-05
2014-08-24,20.21875,14.79,26.23,0.74,20:17:00,20:17:00,America/Mexico_City, GMT-05
2014-08-25,20.199583333333333,15.38,27.0,0.74,20:17:00,20:17:00,America/Mexico_City, GMT-05
2014-08-26,21.052500000000002,15.73,28.15,0.72,20:16:00,20:16:00,America/Mexico_City, GMT-05
2014-08-27,22.046666666666667,16.71,28.3,0.69,20:15:00,20:15:00,America/Mexico_City, GMT-05
2014-08-28,21.711666666666662,15.14,29.09,0.67,20:14:00,20:14:00,America/Mexico_City, GMT-05
2014-08-29,21.280416666666657,17.22,29.11,0.76,20:13:00,20:13:00,America/Mexico_City, GMT-05
2014-08-30,20.99625,15.49,28.12,0.71,20:12:00,20:12:00,America/Mexico_City, GMT-05
2014-08-31,21.142916666666668,16.49,27.17,0.75,20:11:00,20:11:00,America/Mexico_City, GMT-05
2014-09-01,20.885,15.27,27.12,0.76,20:11:00,20:11:00,America/Mexico_City, GMT-05
2014-09-02,19.83833333333333,15.94,24.7,0.78,20:10:00,20:10:00,America/Mexico_City, GMT-05
2014-09-03,19.50375,14.91,24.08,0.76,20:09:00,20:09:00,America/Mexico_City, GMT-05
2014-09-04,20.432499999999997,17.54,24.15,0.72,20:08:00,20:08:00,America/Mexico_City, GMT-05
2014-09-05,20.206250000000004,15.31,25.12,0.75,20:07:00,20:07:00,America/Mexico_City, GMT-05
2014-09-06,19.90125,16.2,26.24,0.79,20:06:00,20:06:00,America/Mexico_City, GMT-05
2014-09-07,19.995833333333334,15.35,26.29,0.76,20:05:00,20:05:00,America/Mexico_City, GMT-05
2014-09-08,19.785416666666666,14.53,26.09,0.73,20:04:00,20:04:00,America/Mexico_City, GMT-05
2014-09-09,20.14375,15.08,26.21,0.73,20:03:00,20:03:00,America/Mexico_City, GMT-05
2014-09-10,21.190416666666668,16.71,27.55,0.77,20:02:00,20:02:00,America/Mexico_City, GMT-05
2014-09-11,19.26541666666667,13.74,27.29,0.8,20:01:00,20:01:00,America/Mexico_City, GMT-05
2014-09-12,19.862083333333338,15.48,27.07,0.73,20:00:00,20:00:00,America/Mexico_City, GMT-05
2014-09-13,19.02458333333334,15.65,22.09,0.8,20:00:00,20:00:00,America/Mexico_City, GMT-05
2014-09-14,19.67583333333334,16.52,23.71,0.74,19:59:00,19:59:00,America/Mexico_City, GMT-05
2014-09-15,20.312083333333334,15.67,26.29,0.75,19:58:00,19:58:00,America/Mexico_City, GMT-05
2014-09-16,20.41541666666667,14.43,27.08,0.75,19:57:00,19:57:00,America/Mexico_City, GMT-05
2014-09-17,20.282916666666672,17.48,25.65,0.78,19:56:00,19:56:00,America/Mexico_City, GMT-05
2014-09-18,19.612083333333338,16.54,23.74,0.82,19:55:00,19:55:00,America/Mexico_City, GMT-05
2014-09-19,20.354166666666668,15.85,25.26,0.7,19:54:00,19:54:00,America/Mexico_City, GMT-05
2014-09-20,18.485,11.6,26.17,0.75,19:53:00,19:53:00,America/Mexico_City, GMT-05
2014-09-21,19.405416666666667,12.56,27.14,0.73,19:52:00,19:52:00,America/Mexico_City, GMT-05
2014-09-22,20.8775,17.42,26.31,0.77,19:51:00,19:51:00,America/Mexico_City, GMT-05
2014-09-23,19.980416666666667,15.38,26.13,0.83,19:50:00,19:50:00,America/Mexico_City, GMT-05
2014-09-24,20.04625,15.95,26.89,0.78,19:49:00,19:49:00,America/Mexico_City, GMT-05
2014-09-25,20.175833333333333,15.82,26.3,0.77,19:48:00,19:48:00,America/Mexico_City, GMT-05
2014-09-26,20.195416666666667,16.58,27.16,0.76,19:47:00,19:47:00,America/Mexico_City, GMT-05
2014-09-27,20.70291666666667,14.66,27.23,0.76,19:46:00,19:46:00,America/Mexico_City, GMT-05
2014-09-28,20.50791666666667,15.59,26.95,0.8,19:45:00,19:45:00,America/Mexico_City, GMT-05
2014-09-29,21.523333333333337,16.71,27.27,0.73,19:44:00,19:44:00,America/Mexico_City, GMT-05
2014-09-30,19.41625,15.52,25.76,0.83,19:43:00,19:43:00,America/Mexico_City, GMT-05
2014-10-01,20.506249999999998,15.68,26.02,0.79,19:42:00,19:42:00,America/Mexico_City, GMT-05
2014-10-02,20.650416666666665,17.58,26.0,0.77,19:42:00,19:42:00,America/Mexico_City, GMT-05
2014-10-03,19.92958333333333,17.32,25.3,0.8,19:41:00,19:41:00,America/Mexico_City, GMT-05
2014-10-04,19.306250000000002,16.53,24.69,0.82,19:40:00,19:40:00,America/Mexico_City, GMT-05
2014-10-05,19.42833333333333,16.55,24.21,0.82,19:39:00,19:39:00,America/Mexico_City, GMT-05
2014-10-06,19.281666666666666,16.55,25.22,0.83,19:38:00,19:38:00,America/Mexico_City, GMT-05
2014-10-07,20.285416666666666,16.55,26.74,0.81,19:37:00,19:37:00,America/Mexico_City, GMT-05
2014-10-08,19.43708333333333,12.42,27.03,0.63,19:36:00,19:36:00,America/Mexico_City, GMT-05
2014-10-09,18.235416666666662,10.4,26.9,0.69,19:35:00,19:35:00,America/Mexico_City, GMT-05
2014-10-10,19.6675,12.77,27.11,0.72,19:34:00,19:34:00,America/Mexico_City, GMT-05
2014-10-11,19.10125,14.36,27.92,0.79,19:34:00,19:34:00,America/Mexico_City, GMT-05
2014-10-12,19.57416666666667,14.79,26.21,0.77,19:33:00,19:33:00,America/Mexico_City, GMT-05
2014-10-13,19.874166666666664,14.52,27.0,0.76,19:32:00,19:32:00,America/Mexico_City, GMT-05
2014-10-14,20.735416666666662,15.29,27.98,0.72,19:31:00,19:31:00,America/Mexico_City, GMT-05
2014-10-15,19.3475,11.83,26.86,0.63,19:30:00,19:30:00,America/Mexico_City, GMT-05
2014-10-16,18.96166666666667,9.76,28.1,0.63,19:30:00,19:30:00,America/Mexico_City, GMT-05
2014-10-17,19.267916666666665,12.53,28.14,0.64,19:29:00,19:29:00,America/Mexico_City, GMT-05
2014-10-18,18.877083333333335,12.47,27.15,0.7,19:28:00,19:28:00,America/Mexico_City, GMT-05
2014-10-19,20.436249999999998,16.31,26.88,0.71,19:27:00,19:27:00,America/Mexico_City, GMT-05
2014-10-20,20.265833333333337,15.68,25.29,0.76,19:27:00,19:27:00,America/Mexico_City, GMT-05
2014-10-21,20.48875,16.45,26.32,0.73,19:26:00,19:26:00,America/Mexico_City, GMT-05
2014-10-22,20.09166666666667,15.04,26.24,0.69,19:25:00,19:25:00,America/Mexico_City, GMT-05
2014-10-23,20.845416666666665,16.45,27.18,0.67,19:25:00,19:25:00,America/Mexico_City, GMT-05
2014-10-24,20.33541666666667,13.31,27.44,0.64,19:24:00,19:24:00,America/Mexico_City, GMT-05
2014-10-25,18.91958333333334,12.52,26.22,0.63,19:23:00,19:23:00,America/Mexico_City, GMT-05
2014-10-26,16.824800000000003,9.3,26.61,0.62,18:23:00,18:23:00,America/Mexico_City, GMT-06
2014-10-27,17.419583333333332,7.53,27.3,0.62,18:22:00,18:22:00,America/Mexico_City, GMT-06
2014-10-28,19.090833333333336,12.34,28.09,0.7,18:21:00,18:21:00,America/Mexico_City, GMT-06
2014-10-29,18.700416666666666,12.51,27.0,0.69,18:21:00,18:21:00,America/Mexico_City, GMT-06
2014-10-30,18.4075,11.2,27.12,0.57,18:20:00,18:20:00,America/Mexico_City, GMT-06
2014-10-31,17.046666666666667,8.17,26.12,0.54,18:20:00,18:20:00,America/Mexico_City, GMT-06
2014-11-01,16.710833333333333,8.8,25.11,0.55,18:19:00,18:19:00,America/Mexico_City, GMT-06
2014-11-02,16.362083333333338,9.36,24.3,0.64,18:19:00,18:19:00,America/Mexico_City, GMT-06
2014-11-03,17.636666666666667,10.17,25.85,0.65,18:18:00,18:18:00,America/Mexico_City, GMT-06
2014-11-04,18.148333333333337,11.55,23.2,0.68,18:18:00,18:18:00,America/Mexico_City, GMT-06
2014-11-05,16.812083333333334,14.92,19.32,0.85,18:17:00,18:17:00,America/Mexico_City, GMT-06
2014-11-06,17.829583333333332,10.68,25.27,0.78,18:17:00,18:17:00,America/Mexico_City, GMT-06
2014-11-07,19.441666666666666,14.52,25.35,0.73,18:16:00,18:16:00,America/Mexico_City, GMT-06
2014-11-08,19.210833333333333,14.52,25.25,0.74,18:16:00,18:16:00,America/Mexico_City, GMT-06
2014-11-09,16.779999999999998,11.45,23.92,0.65,18:16:00,18:16:00,America/Mexico_City, GMT-06
2014-11-10,16.285833333333336,11.52,21.88,0.79,18:15:00,18:15:00,America/Mexico_City, GMT-06
2014-11-11,16.075,14.49,18.36,0.9,18:15:00,18:15:00,America/Mexico_City, GMT-06
2014-11-12,17.2675,13.64,23.42,0.78,18:15:00,18:15:00,America/Mexico_City, GMT-06
2014-11-13,15.910833333333334,9.43,24.3,0.8,18:14:00,18:14:00,America/Mexico_City, GMT-06
2014-11-14,16.423333333333336,7.74,25.3,0.73,18:14:00,18:14:00,America/Mexico_City, GMT-06
2014-11-15,17.33041666666667,10.12,24.57,0.74,18:14:00,18:14:00,America/Mexico_City, GMT-06
2014-11-16,16.927083333333332,8.87,25.58,0.67,18:14:00,18:14:00,America/Mexico_City, GMT-06
2014-11-17,15.767916666666666,6.67,25.99,0.64,18:13:00,18:13:00,America/Mexico_City, GMT-06
2014-11-18,14.609166666666667,5.94,23.57,0.7,18:13:00,18:13:00,America/Mexico_City, GMT-06
2014-11-19,15.025833333333333,6.73,23.16,0.72,18:13:00,18:13:00,America/Mexico_City, GMT-06
2014-11-20,16.43708333333333,9.65,24.54,0.71,18:13:00,18:13:00,America/Mexico_City, GMT-06
2014-11-21,17.869583333333335,11.56,24.57,0.72,18:13:00,18:13:00,America/Mexico_City, GMT-06
2014-11-22,17.61916666666667,10.87,24.95,0.72,18:13:00,18:13:00,America/Mexico_City, GMT-06
2014-11-23,16.41208333333334,8.5,26.09,0.68,18:13:00,18:13:00,America/Mexico_City, GMT-06
2014-11-24,15.155833333333334,7.48,23.75,0.71,18:13:00,18:13:00,America/Mexico_City, GMT-06
2014-11-25,14.53625,5.68,24.37,0.6,18:13:00,18:13:00,America/Mexico_City, GMT-06
2014-11-26,11.871249999999998,-0.52,25.12,0.38,18:13:00,18:13:00,America/Mexico_City, GMT-06
2014-11-27,11.754166666666665,0.53,23.54,0.43,18:13:00,18:13:00,America/Mexico_City, GMT-06
2014-11-28,11.356249999999998,-0.25,22.14,0.43,18:13:00,18:13:00,America/Mexico_City, GMT-06
2014-11-29,13.731666666666662,4.54,24.74,0.55,18:13:00,18:13:00,America/Mexico_City, GMT-06
2014-11-30,14.334583333333335,3.52,27.18,0.55,18:13:00,18:13:00,America/Mexico_City, GMT-06
2014-12-01,14.342916666666666,3.42,26.75,0.53,18:13:00,18:13:00,America/Mexico_City, GMT-06
2014-12-02,14.257916666666665,4.92,25.22,0.57,18:13:00,18:13:00,America/Mexico_City, GMT-06
2014-12-03,13.873750000000001,3.98,25.09,0.59,18:13:00,18:13:00,America/Mexico_City, GMT-06
2014-12-04,14.400833333333333,4.7,26.06,0.58,18:13:00,18:13:00,America/Mexico_City, GMT-06
2014-12-05,15.519583333333332,5.57,27.29,0.59,18:13:00,18:13:00,America/Mexico_City, GMT-06
2014-12-06,15.142083333333334,5.68,25.61,0.61,18:14:00,18:14:00,America/Mexico_City, GMT-06
2014-12-07,14.895833333333336,5.18,25.1,0.64,18:14:00,18:14:00,America/Mexico_City, GMT-06
2014-12-08,15.88541666666667,7.14,25.12,0.61,18:14:00,18:14:00,America/Mexico_City, GMT-06
2014-12-09,14.498333333333335,6.03,23.03,0.62,18:14:00,18:14:00,America/Mexico_City, GMT-06
2014-12-10,14.204166666666666,7.6,22.26,0.67,18:15:00,18:15:00,America/Mexico_City, GMT-06
2014-12-11,15.012499999999998,9.39,21.93,0.67,18:15:00,18:15:00,America/Mexico_City, GMT-06
2014-12-12,16.35875,9.35,22.76,0.65,18:15:00,18:15:00,America/Mexico_City, GMT-06
2014-12-13,16.881666666666668,12.61,23.41,0.68,18:16:00,18:16:00,America/Mexico_City, GMT-06
2014-12-14,15.058333333333337,9.61,23.16,0.78,18:16:00,18:16:00,America/Mexico_City, GMT-06
2014-12-15,14.53125,6.58,24.33,0.76,18:16:00,18:16:00,America/Mexico_City, GMT-06
2014-12-16,16.058750000000003,7.3,25.73,0.66,18:17:00,18:17:00,America/Mexico_City, GMT-06
2014-12-17,15.992916666666666,6.68,24.99,0.64,18:17:00,18:17:00,America/Mexico_City, GMT-06
2014-12-18,17.437916666666666,9.73,25.7,0.56,18:18:00,18:18:00,America/Mexico_City, GMT-06
2014-12-19,16.0075,6.58,26.11,0.59,18:18:00,18:18:00,America/Mexico_City, GMT-06
2014-12-20,16.56125,7.71,26.23,0.53,18:18:00,18:18:00,America/Mexico_City, GMT-06
2014-12-21,17.272916666666667,8.7,27.8,0.47,18:19:00,18:19:00,America/Mexico_City, GMT-06
2014-12-22,14.090000000000003,3.95,23.93,0.61,18:19:00,18:19:00,America/Mexico_City, GMT-06
2014-12-23,13.469583333333333,5.62,21.41,0.61,18:20:00,18:20:00,America/Mexico_City, GMT-06
2014-12-24,11.571666666666667,2.63,22.26,0.66,18:20:00,18:20:00,America/Mexico_City, GMT-06
2014-12-25,12.966250000000002,6.58,19.27,0.61,18:21:00,18:21:00,America/Mexico_City, GMT-06
2014-12-26,14.256250000000001,5.33,22.31,0.69,18:21:00,18:21:00,America/Mexico_City, GMT-06
2014-12-27,16.505416666666665,10.41,23.92,0.69,18:22:00,18:22:00,America/Mexico_City, GMT-06
2014-12-28,16.23375,10.47,23.97,0.7,18:23:00,18:23:00,America/Mexico_City, GMT-06
2014-12-29,15.387083333333335,6.23,26.1,0.66,18:23:00,18:23:00,America/Mexico_City, GMT-06
2014-12-30,16.094583333333336,6.05,26.87,0.63,18:24:00,18:24:00,America/Mexico_City, GMT-06
2014-12-31,16.358749999999997,7.59,27.05,0.62,18:24:00,18:24:00,America/Mexico_City, GMT-06
