date,avg_temperature,min_temperature,max_temperature,humidity,sunrise_time,sunset_time,time_zone,gmt_zone
2016-01-01,17.83458333333333,8.59,27.33,0.73,18:25:00,18:25:00,America/Mexico_City, GMT-06
2016-01-02,18.723333333333333,13.61,25.62,0.68,18:25:00,18:25:00,America/Mexico_City, GMT-06
2016-01-03,17.308333333333334,8.47,25.15,0.58,18:26:00,18:26:00,America/Mexico_City, GMT-06
2016-01-04,16.042083333333338,9.64,24.09,0.48,18:27:00,18:27:00,America/Mexico_City, GMT-06
2016-01-05,14.729999999999999,5.61,23.58,0.54,18:27:00,18:27:00,America/Mexico_City, GMT-06
2016-01-06,13.671666666666667,4.8,22.18,0.61,18:28:00,18:28:00,America/Mexico_City, GMT-06
2016-01-07,13.239999999999997,5.52,22.09,0.59,18:29:00,18:29:00,America/Mexico_City, GMT-06
2016-01-08,12.170416666666668,2.06,23.42,0.57,18:29:00,18:29:00,America/Mexico_City, GMT-06
2016-01-09,11.88791666666667,1.4,21.88,0.56,18:30:00,18:30:00,America/Mexico_City, GMT-06
2016-01-10,13.344166666666668,2.68,24.16,0.47,18:31:00,18:31:00,America/Mexico_City, GMT-06
2016-01-11,12.393750000000002,1.51,23.22,0.55,18:31:00,18:31:00,America/Mexico_City, GMT-06
2016-01-12,13.371250000000002,3.07,24.22,0.61,18:32:00,18:32:00,America/Mexico_City, GMT-06
2016-01-13,13.810000000000002,9.73,19.68,0.76,18:33:00,18:33:00,America/Mexico_City, GMT-06
2016-01-14,13.479583333333338,6.53,22.28,0.64,18:33:00,18:33:00,America/Mexico_City, GMT-06
2016-01-15,11.597083333333336,0.76,23.26,0.58,18:34:00,18:34:00,America/Mexico_City, GMT-06
2016-01-16,12.732500000000002,4.46,24.2,0.46,18:35:00,18:35:00,America/Mexico_City, GMT-06
2016-01-17,12.775,-1.48,26.1,0.38,18:35:00,18:35:00,America/Mexico_City, GMT-06
2016-01-18,13.00125,3.52,23.4,0.49,18:36:00,18:36:00,America/Mexico_City, GMT-06
2016-01-19,11.916363636363638,1.43,24.08,0.56,18:37:00,18:37:00,America/Mexico_City, GMT-06
2016-01-20,13.7325,4.42,24.42,0.52,18:37:00,18:37:00,America/Mexico_City, GMT-06
2016-01-21,14.442083333333334,3.51,25.4,0.52,18:38:00,18:38:00,America/Mexico_City, GMT-06
2016-01-22,13.158333333333333,0.96,25.55,0.45,18:39:00,18:39:00,America/Mexico_City, GMT-06
2016-01-23,12.860833333333337,2.16,25.74,0.4,18:39:00,18:39:00,America/Mexico_City, GMT-06
2016-01-24,15.462222222222222,5.53,24.2,0.37,18:40:00,18:40:00,America/Mexico_City, GMT-06
2016-01-25,12.567500000000003,3.42,21.28,0.56,18:41:00,18:41:00,America/Mexico_City, GMT-06
2016-01-26,14.75826086956522,7.53,23.07,0.49,18:41:00,18:41:00,America/Mexico_City, GMT-06
2016-01-27,12.207083333333337,4.14,20.2,0.55,18:42:00,18:42:00,America/Mexico_City, GMT-06
2016-01-28,12.260000000000003,3.53,21.09,0.41,18:42:00,18:42:00,America/Mexico_City, GMT-06
2016-01-29,13.626666666666667,4.53,23.08,0.36,18:43:00,18:43:00,America/Mexico_City, GMT-06
2016-01-30,17.08130434782609,7.68,25.13,0.47,18:44:00,18:44:00,America/Mexico_City, GMT-06
2016-01-31,15.669583333333337,5.28,26.11,0.53,18:44:00,18:44:00,America/Mexico_City, GMT-06
2016-02-01,15.635000000000003,3.02,28.09,0.46,18:45:00,18:45:00,America/Mexico_City, GMT-06
2016-02-02,15.082083333333337,3.39,27.09,0.41,18:46:00,18:46:00,America/Mexico_City, GMT-06
2016-02-03,12.358260869565218,-1.81,27.07,0.38,18:46:00,18:46:00,America/Mexico_City, GMT-06
2016-02-04,13.458750000000002,-1.0,27.29,0.37,18:47:00,18:47:00,America/Mexico_City, GMT-06
2016-02-05,14.263333333333335,2.19,26.5,0.38,18:47:00,18:47:00,America/Mexico_City, GMT-06
2016-02-06,16.598333333333336,5.21,26.09,0.38,18:48:00,18:48:00,America/Mexico_City, GMT-06
2016-02-07,14.916250000000005,8.49,22.1,0.27,18:49:00,18:49:00,America/Mexico_City, GMT-06
2016-02-08,14.469583333333338,2.16,26.09,0.37,18:49:00,18:49:00,America/Mexico_City, GMT-06
2016-02-09,15.482083333333337,11.42,20.21,0.28,18:50:00,18:50:00,America/Mexico_City, GMT-06
2016-02-10,13.984166666666669,5.81,23.07,0.45,18:50:00,18:50:00,America/Mexico_City, GMT-06
2016-02-11,14.672500000000001,4.19,25.2,0.43,18:51:00,18:51:00,America/Mexico_City, GMT-06
2016-02-12,14.485652173913044,4.25,27.11,0.41,18:51:00,18:51:00,America/Mexico_City, GMT-06
2016-02-13,15.094583333333338,4.11,25.37,0.24,18:52:00,18:52:00,America/Mexico_City, GMT-06
2016-02-14,15.230869565217393,3.11,27.07,0.3,18:52:00,18:52:00,America/Mexico_City, GMT-06
2016-02-15,17.142083333333336,6.52,28.09,0.38,18:53:00,18:53:00,America/Mexico_City, GMT-06
2016-02-16,17.993333333333336,7.45,28.09,0.42,18:53:00,18:53:00,America/Mexico_City, GMT-06
2016-02-17,18.9725,8.5,30.16,0.37,18:54:00,18:54:00,America/Mexico_City, GMT-06
2016-02-18,17.44217391304348,6.26,28.45,0.31,18:54:00,18:54:00,America/Mexico_City, GMT-06
2016-02-19,17.732083333333332,7.22,29.09,0.39,18:55:00,18:55:00,America/Mexico_City, GMT-06
2016-02-20,17.229583333333334,7.41,29.1,0.38,18:55:00,18:55:00,America/Mexico_City, GMT-06
2016-02-21,19.209166666666672,6.98,31.09,0.37,18:56:00,18:56:00,America/Mexico_City, GMT-06
2016-02-22,19.247500000000002,7.37,29.17,0.44,18:56:00,18:56:00,America/Mexico_City, GMT-06
2016-02-23,18.581739130434784,8.3,28.01,0.45,18:57:00,18:57:00,America/Mexico_City, GMT-06
2016-02-24,17.522083333333335,4.41,30.09,0.39,18:57:00,18:57:00,America/Mexico_City, GMT-06
2016-02-25,18.406250000000004,9.5,28.05,0.44,18:57:00,18:57:00,America/Mexico_City, GMT-06
2016-02-26,18.29291666666667,11.27,27.41,0.63,18:58:00,18:58:00,America/Mexico_City, GMT-06
2016-02-27,16.396666666666672,12.52,22.16,0.69,18:58:00,18:58:00,America/Mexico_City, GMT-06
2016-02-28,16.257500000000004,6.53,26.11,0.6,18:59:00,18:59:00,America/Mexico_City, GMT-06
2016-02-29,19.722857142857144,9.53,28.09,0.44,18:59:00,18:59:00,America/Mexico_City, GMT-06
2016-03-01,19.30708333333334,8.28,27.99,0.46,18:59:00,18:59:00,America/Mexico_City, GMT-06
2016-03-02,18.940416666666668,9.12,27.43,0.39,19:00:00,19:00:00,America/Mexico_City, GMT-06
2016-03-03,19.57458333333334,9.38,28.78,0.36,19:00:00,19:00:00,America/Mexico_City, GMT-06
2016-03-04,18.877083333333335,8.03,28.96,0.35,19:01:00,19:01:00,America/Mexico_City, GMT-06
2016-03-05,19.222083333333334,8.37,29.51,0.38,19:01:00,19:01:00,America/Mexico_City, GMT-06
2016-03-06,19.940869565217394,9.53,28.5,0.42,19:01:00,19:01:00,America/Mexico_City, GMT-06
2016-03-07,18.71666666666667,7.53,27.23,0.36,19:02:00,19:02:00,America/Mexico_City, GMT-06
2016-03-08,16.63041666666667,8.5,24.4,0.5,19:02:00,19:02:00,America/Mexico_City, GMT-06
2016-03-09,10.923913043478265,4.53,16.09,0.62,19:02:00,19:02:00,America/Mexico_City, GMT-06
2016-03-10,9.616666666666669,0.5,18.0,0.53,19:03:00,19:03:00,America/Mexico_City, GMT-06
2016-03-11,12.089166666666669,2.18,22.2,0.48,19:03:00,19:03:00,America/Mexico_City, GMT-06
2016-03-12,15.665000000000001,3.4,27.07,0.43,19:03:00,19:03:00,America/Mexico_City, GMT-06
2016-03-13,17.89434782608696,6.52,28.09,0.36,19:03:00,19:03:00,America/Mexico_City, GMT-06
2016-03-14,18.7525,5.53,30.45,0.37,19:04:00,19:04:00,America/Mexico_City, GMT-06
2016-03-15,19.64041666666667,9.53,30.13,0.4,19:04:00,19:04:00,America/Mexico_City, GMT-06
2016-03-16,20.48291666666667,13.53,28.09,0.36,19:04:00,19:04:00,America/Mexico_City, GMT-06
2016-03-17,20.17291666666667,14.94,26.35,0.38,19:05:00,19:05:00,America/Mexico_City, GMT-06
2016-03-18,18.15541666666667,7.39,27.11,0.48,19:05:00,19:05:00,America/Mexico_City, GMT-06
2016-03-19,18.441250000000004,9.51,27.52,0.38,19:05:00,19:05:00,America/Mexico_City, GMT-06
2016-03-20,16.631739130434788,6.51,25.27,0.46,19:06:00,19:06:00,America/Mexico_City, GMT-06
2016-03-21,18.032916666666672,12.45,25.2,0.39,19:06:00,19:06:00,America/Mexico_City, GMT-06
2016-03-22,18.563333333333336,9.41,29.1,0.49,19:06:00,19:06:00,America/Mexico_City, GMT-06
2016-03-23,19.546250000000004,10.33,28.48,0.55,19:06:00,19:06:00,America/Mexico_City, GMT-06
2016-03-24,20.224999999999998,9.52,30.01,0.49,19:07:00,19:07:00,America/Mexico_City, GMT-06
2016-03-25,19.718636363636364,7.91,29.12,0.35,19:07:00,19:07:00,America/Mexico_City, GMT-06
2016-03-26,20.783809523809527,13.53,27.41,0.35,19:07:00,19:07:00,America/Mexico_City, GMT-06
2016-03-27,21.777500000000003,11.45,31.09,0.3,19:08:00,19:08:00,America/Mexico_City, GMT-06
2016-03-28,21.37,9.52,32.19,0.35,19:08:00,19:08:00,America/Mexico_City, GMT-06
2016-03-29,20.824583333333337,8.4,31.11,0.32,19:08:00,19:08:00,America/Mexico_City, GMT-06
2016-03-30,21.147083333333335,0.52,31.25,0.33,19:08:00,19:08:00,America/Mexico_City, GMT-06
2016-03-31,21.96333333333334,14.38,31.57,0.29,19:09:00,19:09:00,America/Mexico_City, GMT-06
2016-04-01,21.347826086956523,11.46,29.22,0.34,19:09:00,19:09:00,America/Mexico_City, GMT-06
2016-04-02,19.810869565217395,5.24,30.26,0.3,19:09:00,19:09:00,America/Mexico_City, GMT-06
2016-04-03,20.15434782608696,9.49,30.23,0.28,20:10:00,20:10:00,America/Mexico_City, GMT-05
2016-04-04,20.936666666666667,8.38,32.09,0.3,20:10:00,20:10:00,America/Mexico_City, GMT-05
2016-04-05,22.152500000000003,9.32,32.21,0.27,20:10:00,20:10:00,America/Mexico_City, GMT-05
2016-04-06,22.505,12.44,31.17,0.24,20:10:00,20:10:00,America/Mexico_City, GMT-05
2016-04-07,22.954166666666666,10.52,33.24,0.26,20:11:00,20:11:00,America/Mexico_City, GMT-05
2016-04-08,23.962499999999995,14.5,33.11,0.17,20:11:00,20:11:00,America/Mexico_City, GMT-05
2016-04-09,23.945416666666663,12.49,32.28,0.29,20:11:00,20:11:00,America/Mexico_City, GMT-05
2016-04-10,23.84125,14.46,31.24,0.31,20:12:00,20:12:00,America/Mexico_City, GMT-05
2016-04-11,23.777916666666666,15.41,32.05,0.36,20:12:00,20:12:00,America/Mexico_City, GMT-05
2016-04-12,22.819166666666664,14.45,32.09,0.34,20:12:00,20:12:00,America/Mexico_City, GMT-05
2016-04-13,23.658749999999998,15.48,33.61,0.34,20:13:00,20:13:00,America/Mexico_City, GMT-05
2016-04-14,24.265833333333333,17.53,31.22,0.29,20:13:00,20:13:00,America/Mexico_City, GMT-05
2016-04-15,22.360833333333336,13.23,29.19,0.31,20:13:00,20:13:00,America/Mexico_City, GMT-05
2016-04-16,22.015217391304354,17.43,27.09,0.29,20:13:00,20:13:00,America/Mexico_City, GMT-05
2016-04-17,21.986250000000002,13.39,29.33,0.31,20:14:00,20:14:00,America/Mexico_City, GMT-05
2016-04-18,23.529166666666665,16.2,33.22,0.38,20:14:00,20:14:00,America/Mexico_City, GMT-05
2016-04-19,23.354166666666668,14.25,30.99,0.45,20:15:00,20:15:00,America/Mexico_City, GMT-05
2016-04-20,21.27416666666667,14.63,28.4,0.48,20:15:00,20:15:00,America/Mexico_City, GMT-05
2016-04-21,20.549130434782604,10.22,29.91,0.4,20:15:00,20:15:00,America/Mexico_City, GMT-05
2016-04-22,20.737500000000008,12.96,28.1,0.22,20:16:00,20:16:00,America/Mexico_City, GMT-05
2016-04-23,20.922083333333333,10.24,29.62,0.24,20:16:00,20:16:00,America/Mexico_City, GMT-05
2016-04-24,21.094583333333336,9.12,29.51,0.27,20:16:00,20:16:00,America/Mexico_City, GMT-05
2016-04-25,20.10541666666667,10.27,29.07,0.26,20:17:00,20:17:00,America/Mexico_City, GMT-05
2016-04-26,19.13625,8.46,26.9,0.27,20:17:00,20:17:00,America/Mexico_City, GMT-05
2016-04-27,20.13458333333333,6.43,32.06,0.29,20:17:00,20:17:00,America/Mexico_City, GMT-05
2016-04-28,22.07083333333333,10.52,32.14,0.29,20:18:00,20:18:00,America/Mexico_City, GMT-05
2016-04-29,21.12125,9.48,30.2,0.3,20:18:00,20:18:00,America/Mexico_City, GMT-05
2016-04-30,20.506666666666664,9.51,31.09,0.27,20:19:00,20:19:00,America/Mexico_City, GMT-05
2016-05-01,22.160833333333333,10.46,32.2,0.21,20:19:00,20:19:00,America/Mexico_City, GMT-05
2016-05-02,23.609166666666667,10.39,34.55,0.23,20:19:00,20:19:00,America/Mexico_City, GMT-05
2016-05-03,24.747083333333332,12.21,35.12,0.26,20:20:00,20:20:00,America/Mexico_City, GMT-05
2016-05-04,24.31833333333333,12.42,33.17,0.25,20:20:00,20:20:00,America/Mexico_City, GMT-05
2016-05-05,24.864999999999995,13.33,33.53,0.31,20:21:00,20:21:00,America/Mexico_City, GMT-05
2016-05-06,24.621249999999993,12.36,34.55,0.34,20:21:00,20:21:00,America/Mexico_City, GMT-05
2016-05-07,25.070434782608697,16.32,34.08,0.4,20:21:00,20:21:00,America/Mexico_City, GMT-05
2016-05-08,23.624347826086954,15.39,32.17,0.52,20:22:00,20:22:00,America/Mexico_City, GMT-05
2016-05-09,23.512083333333337,17.34,30.25,0.48,20:22:00,20:22:00,America/Mexico_City, GMT-05
2016-05-10,23.647499999999997,17.4,31.16,0.48,20:23:00,20:23:00,America/Mexico_City, GMT-05
2016-05-11,25.092916666666664,18.38,32.78,0.47,20:23:00,20:23:00,America/Mexico_City, GMT-05
2016-05-12,24.261249999999993,17.35,33.02,0.52,20:24:00,20:24:00,America/Mexico_City, GMT-05
2016-05-13,22.844583333333333,15.45,32.55,0.56,20:24:00,20:24:00,America/Mexico_City, GMT-05
2016-05-14,23.09625,16.3,30.75,0.51,20:24:00,20:24:00,America/Mexico_City, GMT-05
2016-05-15,23.707916666666666,18.45,31.44,0.48,20:25:00,20:25:00,America/Mexico_City, GMT-05
2016-05-16,23.10166666666667,14.45,31.28,0.48,20:25:00,20:25:00,America/Mexico_City, GMT-05
2016-05-17,24.079166666666666,14.51,32.19,0.41,20:26:00,20:26:00,America/Mexico_City, GMT-05
2016-05-18,24.20875,14.51,33.09,0.36,20:26:00,20:26:00,America/Mexico_City, GMT-05
2016-05-19,23.966363636363642,13.02,32.09,0.32,20:27:00,20:27:00,America/Mexico_City, GMT-05
2016-05-20,24.39458333333333,14.16,33.18,0.33,20:27:00,20:27:00,America/Mexico_City, GMT-05
2016-05-21,25.339583333333334,15.02,34.78,0.32,20:27:00,20:27:00,America/Mexico_City, GMT-05
2016-05-22,25.031304347826087,15.39,33.27,0.32,20:28:00,20:28:00,America/Mexico_City, GMT-05
2016-05-23,25.4525,14.52,34.07,0.29,20:28:00,20:28:00,America/Mexico_City, GMT-05
2016-05-24,25.60833333333333,14.71,34.86,0.31,20:29:00,20:29:00,America/Mexico_City, GMT-05
2016-05-25,26.447916666666668,16.4,35.16,0.33,20:29:00,20:29:00,America/Mexico_City, GMT-05
2016-05-26,25.857083333333325,17.87,33.71,0.31,20:30:00,20:30:00,America/Mexico_City, GMT-05
2016-05-27,25.713749999999994,17.26,33.13,0.37,20:30:00,20:30:00,America/Mexico_City, GMT-05
2016-05-28,25.961249999999996,16.29,34.1,0.35,20:30:00,20:30:00,America/Mexico_City, GMT-05
2016-05-29,26.09458333333333,17.11,34.36,0.36,20:31:00,20:31:00,America/Mexico_City, GMT-05
2016-05-30,25.905833333333334,17.19,34.66,0.32,20:31:00,20:31:00,America/Mexico_City, GMT-05
2016-05-31,25.413333333333327,16.63,33.11,0.42,20:32:00,20:32:00,America/Mexico_City, GMT-05
2016-06-01,25.23875,16.78,33.21,0.38,20:32:00,20:32:00,America/Mexico_City, GMT-05
2016-06-02,24.96708333333333,16.27,33.11,0.42,20:32:00,20:32:00,America/Mexico_City, GMT-05
2016-06-03,24.78083333333333,15.43,33.0,0.39,20:33:00,20:33:00,America/Mexico_City, GMT-05
2016-06-04,25.86125,17.53,33.17,0.37,20:33:00,20:33:00,America/Mexico_City, GMT-05
2016-06-05,24.83583333333333,16.86,32.15,0.34,20:34:00,20:34:00,America/Mexico_City, GMT-05
2016-06-06,22.96416666666667,15.45,31.15,0.5,20:34:00,20:34:00,America/Mexico_City, GMT-05
2016-06-07,23.68041666666667,16.33,32.45,0.48,20:34:00,20:34:00,America/Mexico_City, GMT-05
2016-06-08,23.282083333333333,16.47,31.24,0.52,20:35:00,20:35:00,America/Mexico_City, GMT-05
2016-06-09,22.42958333333333,14.32,31.12,0.52,20:35:00,20:35:00,America/Mexico_City, GMT-05
2016-06-10,23.540000000000003,15.11,31.54,0.46,20:35:00,20:35:00,America/Mexico_City, GMT-05
2016-06-11,24.237499999999997,18.53,32.09,0.48,20:36:00,20:36:00,America/Mexico_City, GMT-05
2016-06-12,20.703750000000007,16.42,29.09,0.76,20:36:00,20:36:00,America/Mexico_City, GMT-05
2016-06-13,21.03416666666667,15.53,27.85,0.71,20:36:00,20:36:00,America/Mexico_City, GMT-05
2016-06-14,21.538750000000004,15.36,28.67,0.68,20:36:00,20:36:00,America/Mexico_City, GMT-05
2016-06-15,21.133750000000003,17.82,27.63,0.76,20:37:00,20:37:00,America/Mexico_City, GMT-05
2016-06-16,22.526666666666667,17.36,29.22,0.63,20:37:00,20:37:00,America/Mexico_City, GMT-05
2016-06-17,22.94130434782609,17.15,29.53,0.64,20:37:00,20:37:00,America/Mexico_City, GMT-05
2016-06-18,20.986666666666668,16.23,29.24,0.73,20:37:00,20:37:00,America/Mexico_City, GMT-05
2016-06-19,20.84416666666667,15.14,27.59,0.64,20:38:00,20:38:00,America/Mexico_City, GMT-05
2016-06-20,21.764583333333334,16.42,29.13,0.65,20:38:00,20:38:00,America/Mexico_City, GMT-05
2016-06-21,21.563333333333333,18.41,26.04,0.69,20:38:00,20:38:00,America/Mexico_City, GMT-05
2016-06-22,21.165217391304353,17.15,28.59,0.67,20:38:00,20:38:00,America/Mexico_City, GMT-05
2016-06-23,21.33833333333334,16.26,28.53,0.69,20:38:00,20:38:00,America/Mexico_City, GMT-05
2016-06-24,21.23521739130435,15.53,28.69,0.65,20:39:00,20:39:00,America/Mexico_City, GMT-05
2016-06-25,22.01166666666667,16.45,28.47,0.7,20:39:00,20:39:00,America/Mexico_City, GMT-05
2016-06-26,21.582916666666673,16.41,28.84,0.71,20:39:00,20:39:00,America/Mexico_City, GMT-05
2016-06-27,19.742500000000003,15.42,26.11,0.8,20:39:00,20:39:00,America/Mexico_City, GMT-05
2016-06-28,21.96666666666667,17.43,28.63,0.67,20:39:00,20:39:00,America/Mexico_City, GMT-05
2016-06-29,21.637500000000003,15.31,28.63,0.68,20:39:00,20:39:00,America/Mexico_City, GMT-05
2016-06-30,21.699130434782614,15.29,28.99,0.64,20:39:00,20:39:00,America/Mexico_City, GMT-05
2016-07-01,22.201249999999998,17.4,27.23,0.66,20:39:00,20:39:00,America/Mexico_City, GMT-05
2016-07-02,20.77416666666667,17.53,26.52,0.72,20:39:00,20:39:00,America/Mexico_City, GMT-05
2016-07-03,22.167500000000004,17.38,30.16,0.67,20:39:00,20:39:00,America/Mexico_City, GMT-05
2016-07-04,20.12708333333334,15.4,25.09,0.75,20:39:00,20:39:00,America/Mexico_City, GMT-05
2016-07-05,20.063750000000002,16.47,25.93,0.72,20:39:00,20:39:00,America/Mexico_City, GMT-05
2016-07-06,20.338333333333335,15.38,26.23,0.74,20:39:00,20:39:00,America/Mexico_City, GMT-05
2016-07-07,21.422083333333333,17.46,28.48,0.7,20:39:00,20:39:00,America/Mexico_City, GMT-05
2016-07-08,22.364166666666666,16.38,29.2,0.63,20:39:00,20:39:00,America/Mexico_City, GMT-05
2016-07-09,22.217826086956528,14.42,30.23,0.67,20:39:00,20:39:00,America/Mexico_City, GMT-05
2016-07-10,23.017916666666668,16.46,30.9,0.7,20:39:00,20:39:00,America/Mexico_City, GMT-05
2016-07-11,21.761250000000004,16.81,26.97,0.71,20:39:00,20:39:00,America/Mexico_City, GMT-05
2016-07-12,19.580000000000002,15.44,25.29,0.77,20:39:00,20:39:00,America/Mexico_City, GMT-05
2016-07-13,20.50166666666667,15.82,28.1,0.7,20:39:00,20:39:00,America/Mexico_City, GMT-05
2016-07-14,19.42,14.49,26.31,0.79,20:38:00,20:38:00,America/Mexico_City, GMT-05
2016-07-15,20.06913043478261,15.5,26.36,0.73,20:38:00,20:38:00,America/Mexico_City, GMT-05
2016-07-16,20.313333333333336,12.18,27.45,0.74,20:38:00,20:38:00,America/Mexico_City, GMT-05
2016-07-17,19.068333333333335,14.53,28.74,0.77,20:38:00,20:38:00,America/Mexico_City, GMT-05
2016-07-18,20.136250000000004,14.45,27.49,0.74,20:38:00,20:38:00,America/Mexico_City, GMT-05
2016-07-19,21.241250000000004,15.52,27.99,0.7,20:37:00,20:37:00,America/Mexico_City, GMT-05
2016-07-20,21.264583333333338,15.62,26.29,0.63,20:37:00,20:37:00,America/Mexico_City, GMT-05
2016-07-21,20.229545454545455,15.42,25.32,0.72,20:37:00,20:37:00,America/Mexico_City, GMT-05
2016-07-22,20.831666666666674,17.33,27.84,0.74,20:36:00,20:36:00,America/Mexico_City, GMT-05
2016-07-23,20.2604347826087,16.45,26.98,0.75,20:36:00,20:36:00,America/Mexico_City, GMT-05
2016-07-24,21.04291666666667,16.9,28.11,0.73,20:36:00,20:36:00,America/Mexico_City, GMT-05
2016-07-25,21.185652173913045,16.43,27.93,0.72,20:35:00,20:35:00,America/Mexico_City, GMT-05
2016-07-26,20.89375,14.53,29.49,0.75,20:35:00,20:35:00,America/Mexico_City, GMT-05
2016-07-27,20.472083333333337,16.43,27.71,0.77,20:35:00,20:35:00,America/Mexico_City, GMT-05
2016-07-28,18.931250000000006,15.42,23.17,0.84,20:34:00,20:34:00,America/Mexico_City, GMT-05
2016-07-29,19.984347826086957,16.63,25.13,0.78,20:34:00,20:34:00,America/Mexico_City, GMT-05
2016-07-30,20.05916666666667,15.53,26.98,0.76,20:33:00,20:33:00,America/Mexico_City, GMT-05
2016-07-31,20.23083333333334,16.31,27.34,0.77,20:33:00,20:33:00,America/Mexico_City, GMT-05
2016-08-01,21.487916666666667,17.46,27.49,0.71,20:32:00,20:32:00,America/Mexico_City, GMT-05
2016-08-02,20.71583333333334,15.51,28.03,0.75,20:32:00,20:32:00,America/Mexico_City, GMT-05
2016-08-03,20.742500000000003,14.08,27.33,0.76,20:31:00,20:31:00,America/Mexico_City, GMT-05
2016-08-04,21.730000000000004,16.47,28.11,0.72,20:31:00,20:31:00,America/Mexico_City, GMT-05
2016-08-05,22.548260869565222,16.51,29.04,0.67,20:30:00,20:30:00,America/Mexico_City, GMT-05
2016-08-06,20.589130434782614,16.52,25.44,0.76,20:30:00,20:30:00,America/Mexico_City, GMT-05
2016-08-07,20.672083333333337,16.41,26.46,0.78,20:29:00,20:29:00,America/Mexico_City, GMT-05
2016-08-08,20.86608695652174,16.53,26.12,0.72,20:28:00,20:28:00,America/Mexico_City, GMT-05
2016-08-09,20.940416666666668,17.43,26.32,0.78,20:28:00,20:28:00,America/Mexico_City, GMT-05
2016-08-10,20.99130434782609,17.42,27.27,0.77,20:27:00,20:27:00,America/Mexico_City, GMT-05
2016-08-11,20.36458333333334,17.31,26.46,0.79,20:27:00,20:27:00,America/Mexico_City, GMT-05
2016-08-12,20.31083333333334,14.4,28.31,0.78,20:26:00,20:26:00,America/Mexico_City, GMT-05
2016-08-13,21.84826086956522,16.53,28.16,0.71,20:25:00,20:25:00,America/Mexico_City, GMT-05
2016-08-14,20.807916666666667,16.23,29.23,0.75,20:25:00,20:25:00,America/Mexico_City, GMT-05
2016-08-15,21.27541666666667,17.37,28.82,0.76,20:24:00,20:24:00,America/Mexico_City, GMT-05
2016-08-16,21.411304347826093,16.06,28.47,0.71,20:23:00,20:23:00,America/Mexico_City, GMT-05
2016-08-17,19.93291666666667,16.5,24.18,0.85,20:22:00,20:22:00,America/Mexico_City, GMT-05
2016-08-18,19.97434782608696,16.34,24.91,0.86,20:22:00,20:22:00,America/Mexico_City, GMT-05
2016-08-19,20.37117647058824,15.53,27.07,0.8,20:21:00,20:21:00,America/Mexico_City, GMT-05
2016-08-20,21.42294117647059,16.53,27.19,0.7,20:20:00,20:20:00,America/Mexico_City, GMT-05
2016-08-21,19.65416666666667,17.15,25.75,0.83,20:19:00,20:19:00,America/Mexico_City, GMT-05
2016-08-22,19.07818181818182,16.44,25.51,0.84,20:19:00,20:19:00,America/Mexico_City, GMT-05
2016-08-23,19.17541666666667,14.53,26.02,0.79,20:18:00,20:18:00,America/Mexico_City, GMT-05
2016-08-24,18.344583333333336,15.03,26.35,0.83,20:17:00,20:17:00,America/Mexico_City, GMT-05
2016-08-25,18.42041666666667,15.46,23.54,0.84,20:16:00,20:16:00,America/Mexico_City, GMT-05
2016-08-26,21.073181818181823,15.62,26.62,0.72,20:15:00,20:15:00,America/Mexico_City, GMT-05
2016-08-27,20.857500000000005,15.37,27.49,0.74,20:15:00,20:15:00,America/Mexico_City, GMT-05
2016-08-28,20.653333333333336,15.51,26.81,0.77,20:14:00,20:14:00,America/Mexico_City, GMT-05
2016-08-29,20.28166666666667,14.53,26.2,0.74,20:13:00,20:13:00,America/Mexico_City, GMT-05
2016-08-30,21.060000000000006,15.46,28.13,0.74,20:12:00,20:12:00,America/Mexico_City, GMT-05
2016-08-31,21.42708333333334,15.44,28.67,0.71,20:11:00,20:11:00,America/Mexico_City, GMT-05
2016-09-01,20.645217391304353,15.53,27.33,0.79,20:10:00,20:10:00,America/Mexico_City, GMT-05
2016-09-02,21.090833333333336,15.53,27.31,0.78,20:09:00,20:09:00,America/Mexico_City, GMT-05
2016-09-03,21.77956521739131,17.41,27.3,0.7,20:08:00,20:08:00,America/Mexico_City, GMT-05
2016-09-04,20.348750000000006,16.26,26.1,0.73,20:07:00,20:07:00,America/Mexico_City, GMT-05
2016-09-05,17.903913043478266,16.47,20.49,0.8,20:07:00,20:07:00,America/Mexico_City, GMT-05
2016-09-06,20.32166666666667,12.5,26.98,0.59,20:06:00,20:06:00,America/Mexico_City, GMT-05
2016-09-07,21.251739130434782,14.5,28.88,0.69,20:05:00,20:05:00,America/Mexico_City, GMT-05
2016-09-08,21.715000000000003,17.24,27.67,0.71,20:04:00,20:04:00,America/Mexico_City, GMT-05
2016-09-09,22.197727272727278,17.4,29.09,0.7,20:03:00,20:03:00,America/Mexico_City, GMT-05
2016-09-10,21.775833333333335,16.37,29.1,0.72,20:02:00,20:02:00,America/Mexico_City, GMT-05
2016-09-11,21.063750000000002,14.43,28.22,0.68,20:01:00,20:01:00,America/Mexico_City, GMT-05
2016-09-12,21.143333333333338,15.45,27.26,0.72,20:00:00,20:00:00,America/Mexico_City, GMT-05
2016-09-13,21.915000000000006,16.27,29.11,0.71,19:59:00,19:59:00,America/Mexico_City, GMT-05
2016-09-14,21.845000000000002,16.48,29.28,0.69,19:58:00,19:58:00,America/Mexico_City, GMT-05
2016-09-15,21.914583333333336,15.49,28.32,0.66,19:57:00,19:57:00,America/Mexico_City, GMT-05
2016-09-16,21.66739130434783,16.4,27.67,0.68,19:56:00,19:56:00,America/Mexico_City, GMT-05
2016-09-17,22.01772727272728,17.53,27.44,0.65,19:55:00,19:55:00,America/Mexico_City, GMT-05
2016-09-18,21.135833333333338,17.45,26.6,0.71,19:54:00,19:54:00,America/Mexico_City, GMT-05
2016-09-19,21.560833333333335,16.32,28.11,0.72,19:53:00,19:53:00,America/Mexico_City, GMT-05
2016-09-20,21.025416666666672,15.32,27.38,0.72,19:52:00,19:52:00,America/Mexico_City, GMT-05
2016-09-21,20.529565217391305,13.48,27.91,0.7,19:51:00,19:51:00,America/Mexico_City, GMT-05
2016-09-22,19.59826086956522,13.34,26.9,0.69,19:50:00,19:50:00,America/Mexico_City, GMT-05
2016-09-23,19.295909090909092,13.52,25.08,0.78,19:49:00,19:49:00,America/Mexico_City, GMT-05
2016-09-24,20.020000000000003,14.53,26.11,0.73,19:49:00,19:49:00,America/Mexico_City, GMT-05
2016-09-25,20.235000000000003,14.18,27.18,0.74,19:48:00,19:48:00,America/Mexico_City, GMT-05
2016-09-26,21.382500000000004,17.39,27.35,0.74,19:47:00,19:47:00,America/Mexico_City, GMT-05
2016-09-27,20.273750000000003,14.5,26.81,0.79,19:46:00,19:46:00,America/Mexico_City, GMT-05
2016-09-28,19.67782608695652,15.38,26.93,0.8,19:45:00,19:45:00,America/Mexico_City, GMT-05
2016-09-29,20.024583333333336,16.45,26.58,0.82,19:44:00,19:44:00,America/Mexico_City, GMT-05
2016-09-30,20.176086956521743,15.52,26.32,0.82,19:43:00,19:43:00,America/Mexico_City, GMT-05
2016-10-01,20.223750000000006,15.41,26.09,0.8,19:42:00,19:42:00,America/Mexico_City, GMT-05
2016-10-02,20.250000000000007,15.34,27.07,0.8,19:41:00,19:41:00,America/Mexico_City, GMT-05
2016-10-03,21.212727272727275,16.26,28.09,0.76,19:40:00,19:40:00,America/Mexico_City, GMT-05
2016-10-04,21.023913043478263,15.51,26.89,0.77,19:39:00,19:39:00,America/Mexico_City, GMT-05
2016-10-05,21.047272727272727,15.53,28.48,0.76,19:38:00,19:38:00,America/Mexico_City, GMT-05
2016-10-06,21.4804347826087,16.52,27.62,0.75,19:37:00,19:37:00,America/Mexico_City, GMT-05
2016-10-07,21.73260869565218,17.4,28.96,0.72,19:37:00,19:37:00,America/Mexico_City, GMT-05
2016-10-08,20.559166666666673,12.49,27.15,0.65,19:36:00,19:36:00,America/Mexico_City, GMT-05
2016-10-09,20.28434782608696,13.29,27.09,0.64,19:35:00,19:35:00,America/Mexico_City, GMT-05
2016-10-10,19.475,13.44,26.16,0.63,19:34:00,19:34:00,America/Mexico_City, GMT-05
2016-10-11,19.272083333333338,11.45,27.1,0.67,19:33:00,19:33:00,America/Mexico_City, GMT-05
2016-10-12,20.22875,12.39,28.19,0.68,19:32:00,19:32:00,America/Mexico_City, GMT-05
2016-10-13,21.33391304347827,13.48,29.43,0.67,19:32:00,19:32:00,America/Mexico_City, GMT-05
2016-10-14,20.609130434782614,13.52,28.11,0.65,19:31:00,19:31:00,America/Mexico_City, GMT-05
2016-10-15,20.882380952380952,15.31,27.27,0.64,19:30:00,19:30:00,America/Mexico_City, GMT-05
2016-10-16,20.424583333333334,14.24,27.07,0.68,19:29:00,19:29:00,America/Mexico_City, GMT-05
2016-10-17,19.91571428571429,14.53,27.07,0.73,19:28:00,19:28:00,America/Mexico_City, GMT-05
2016-10-18,19.957916666666666,12.52,28.09,0.69,19:28:00,19:28:00,America/Mexico_City, GMT-05
2016-10-19,20.09,14.4,27.91,0.74,19:27:00,19:27:00,America/Mexico_City, GMT-05
2016-10-20,18.961249999999996,12.99,26.18,0.65,19:26:00,19:26:00,America/Mexico_City, GMT-05
2016-10-21,18.4425,12.83,24.19,0.65,19:26:00,19:26:00,America/Mexico_City, GMT-05
2016-10-22,19.419166666666666,15.2,26.18,0.66,19:25:00,19:25:00,America/Mexico_City, GMT-05
2016-10-23,19.602083333333336,12.66,28.7,0.72,19:24:00,19:24:00,America/Mexico_City, GMT-05
2016-10-24,20.429583333333333,14.15,27.95,0.72,19:24:00,19:24:00,America/Mexico_City, GMT-05
2016-10-25,20.59916666666667,14.62,27.99,0.65,19:23:00,19:23:00,America/Mexico_City, GMT-05
2016-10-26,20.328333333333337,13.26,27.15,0.61,19:22:00,19:22:00,America/Mexico_City, GMT-05
2016-10-27,19.483750000000004,12.22,25.62,0.59,19:22:00,19:22:00,America/Mexico_City, GMT-05
2016-10-28,18.192083333333333,10.36,25.85,0.56,19:21:00,19:21:00,America/Mexico_City, GMT-05
2016-10-29,17.377083333333335,10.55,25.08,0.62,19:20:00,19:20:00,America/Mexico_City, GMT-05
2016-10-30,16.715200000000003,7.86,26.33,0.62,18:20:00,18:20:00,America/Mexico_City, GMT-06
2016-10-31,17.868333333333336,8.72,27.15,0.63,18:19:00,18:19:00,America/Mexico_City, GMT-06
2016-11-01,18.68333333333333,9.78,28.84,0.62,18:19:00,18:19:00,America/Mexico_City, GMT-06
2016-11-02,19.290416666666665,11.44,28.94,0.66,18:18:00,18:18:00,America/Mexico_City, GMT-06
2016-11-03,19.52166666666667,10.81,29.2,0.67,18:18:00,18:18:00,America/Mexico_City, GMT-06
2016-11-04,19.52125,12.35,27.07,0.62,18:17:00,18:17:00,America/Mexico_City, GMT-06
2016-11-05,18.540833333333335,9.76,27.07,0.64,18:17:00,18:17:00,America/Mexico_City, GMT-06
2016-11-06,19.505416666666665,12.97,27.1,0.7,18:17:00,18:17:00,America/Mexico_City, GMT-06
2016-11-07,19.003333333333334,12.98,27.21,0.74,18:16:00,18:16:00,America/Mexico_City, GMT-06
2016-11-08,19.30375,13.37,26.22,0.7,18:16:00,18:16:00,America/Mexico_City, GMT-06
2016-11-09,17.880833333333335,14.5,23.07,0.78,18:15:00,18:15:00,America/Mexico_City, GMT-06
2016-11-10,16.121250000000003,12.05,20.22,0.77,18:15:00,18:15:00,America/Mexico_City, GMT-06
2016-11-11,16.40291666666667,12.04,21.16,0.79,18:15:00,18:15:00,America/Mexico_City, GMT-06
2016-11-12,15.495833333333335,13.55,17.35,0.93,18:14:00,18:14:00,America/Mexico_City, GMT-06
2016-11-13,15.204999999999998,13.63,17.21,0.94,18:14:00,18:14:00,America/Mexico_City, GMT-06
2016-11-14,17.32916666666667,14.4,23.28,0.85,18:14:00,18:14:00,America/Mexico_City, GMT-06
2016-11-15,17.607083333333332,10.62,25.55,0.74,18:14:00,18:14:00,America/Mexico_City, GMT-06
2016-11-16,18.190833333333334,11.74,24.27,0.66,18:13:00,18:13:00,America/Mexico_City, GMT-06
2016-11-17,18.923333333333336,12.86,25.04,0.71,18:13:00,18:13:00,America/Mexico_City, GMT-06
2016-11-18,17.887916666666666,10.81,25.87,0.72,18:13:00,18:13:00,America/Mexico_City, GMT-06
2016-11-19,17.627916666666668,10.14,23.2,0.59,18:13:00,18:13:00,America/Mexico_City, GMT-06
2016-11-20,15.586666666666666,8.23,24.06,0.66,18:13:00,18:13:00,America/Mexico_City, GMT-06
2016-11-21,15.33291666666667,6.84,25.2,0.69,18:13:00,18:13:00,America/Mexico_City, GMT-06
2016-11-22,15.78625,7.61,25.86,0.67,18:13:00,18:13:00,America/Mexico_City, GMT-06
2016-11-23,16.616666666666667,8.23,26.04,0.69,18:13:00,18:13:00,America/Mexico_City, GMT-06
2016-11-24,16.111666666666668,7.43,24.28,0.62,18:13:00,18:13:00,America/Mexico_City, GMT-06
2016-11-25,15.247500000000002,5.81,25.82,0.67,18:13:00,18:13:00,America/Mexico_City, GMT-06
2016-11-26,14.525416666666665,5.68,24.11,0.66,18:13:00,18:13:00,America/Mexico_City, GMT-06
2016-11-27,14.736666666666666,4.9,25.41,0.67,18:13:00,18:13:00,America/Mexico_City, GMT-06
2016-11-28,16.236666666666668,7.56,26.14,0.61,18:13:00,18:13:00,America/Mexico_City, GMT-06
2016-11-29,16.05,5.5,25.08,0.7,18:13:00,18:13:00,America/Mexico_City, GMT-06
2016-11-30,16.663750000000004,8.41,24.38,0.75,18:13:00,18:13:00,America/Mexico_City, GMT-06
2016-12-01,17.420416666666664,9.52,25.21,0.73,18:13:00,18:13:00,America/Mexico_City, GMT-06
2016-12-02,17.96458333333333,13.0,23.86,0.71,18:13:00,18:13:00,America/Mexico_City, GMT-06
2016-12-03,17.256250000000005,13.0,23.53,0.72,18:13:00,18:13:00,America/Mexico_City, GMT-06
2016-12-04,18.112916666666667,14.88,22.64,0.61,18:13:00,18:13:00,America/Mexico_City, GMT-06
2016-12-05,14.355000000000002,7.22,23.13,0.61,18:14:00,18:14:00,America/Mexico_City, GMT-06
2016-12-06,12.692500000000003,2.48,25.26,0.67,18:14:00,18:14:00,America/Mexico_City, GMT-06
2016-12-07,14.076666666666668,2.4,25.99,0.59,18:14:00,18:14:00,America/Mexico_City, GMT-06
2016-12-08,15.63083333333333,4.8,26.96,0.61,18:14:00,18:14:00,America/Mexico_City, GMT-06
2016-12-09,16.54166666666667,8.55,25.24,0.67,18:14:00,18:14:00,America/Mexico_City, GMT-06
2016-12-10,16.749583333333337,10.27,23.96,0.69,18:15:00,18:15:00,America/Mexico_City, GMT-06
2016-12-11,16.119583333333335,8.37,25.22,0.71,18:15:00,18:15:00,America/Mexico_City, GMT-06
2016-12-12,15.85791666666667,5.71,26.75,0.57,18:15:00,18:15:00,America/Mexico_City, GMT-06
2016-12-13,14.834166666666668,4.11,26.23,0.59,18:16:00,18:16:00,America/Mexico_City, GMT-06
2016-12-14,15.350833333333332,4.21,28.14,0.57,18:16:00,18:16:00,America/Mexico_City, GMT-06
2016-12-15,15.087083333333334,4.35,26.64,0.58,18:17:00,18:17:00,America/Mexico_City, GMT-06
2016-12-16,17.742499999999996,9.82,26.63,0.6,18:17:00,18:17:00,America/Mexico_City, GMT-06
2016-12-17,17.508750000000003,8.95,26.12,0.56,18:17:00,18:17:00,America/Mexico_City, GMT-06
2016-12-18,15.40375,6.23,25.32,0.6,18:18:00,18:18:00,America/Mexico_City, GMT-06
2016-12-19,15.464583333333335,6.23,25.18,0.69,18:18:00,18:18:00,America/Mexico_City, GMT-06
2016-12-20,16.863333333333333,10.2,24.35,0.68,18:19:00,18:19:00,America/Mexico_City, GMT-06
2016-12-21,16.423333333333332,7.87,26.34,0.7,18:19:00,18:19:00,America/Mexico_City, GMT-06
2016-12-22,16.29375,7.29,27.07,0.68,18:20:00,18:20:00,America/Mexico_City, GMT-06
2016-12-23,16.587500000000002,7.87,25.7,0.67,18:20:00,18:20:00,America/Mexico_City, GMT-06
2016-12-24,16.953750000000003,7.68,26.03,0.67,18:21:00,18:21:00,America/Mexico_City, GMT-06
2016-12-25,16.87125,8.53,25.36,0.67,18:21:00,18:21:00,America/Mexico_City, GMT-06
2016-12-26,16.377499999999998,8.22,25.86,0.66,18:22:00,18:22:00,America/Mexico_City, GMT-06
2016-12-27,16.283749999999998,7.83,26.84,0.63,18:22:00,18:22:00,America/Mexico_City, GMT-06
2016-12-28,16.302083333333332,7.13,26.35,0.64,18:23:00,18:23:00,America/Mexico_City, GMT-06
2016-12-29,16.291666666666668,7.37,25.96,0.67,18:23:00,18:23:00,America/Mexico_City, GMT-06
2016-12-30,16.677500000000002,8.53,25.64,0.67,18:24:00,18:24:00,America/Mexico_City, GMT-06
2016-12-31,18.99125,13.64,25.76,0.62,18:25:00,18:25:00,America/Mexico_City, GMT-06
