date,avg_temperature,min_temperature,max_temperature,humidity,sunrise_time,sunset_time,time_zone,gmt_zone
2010-01-01,10.12875,5.22,14.68,0.59,18:03:00,18:03:00,America/Monterrey, GMT-06
2010-01-02,7.452916666666664,3.15,11.19,0.73,18:04:00,18:04:00,America/Monterrey, GMT-06
2010-01-03,11.155000000000001,5.32,17.61,0.73,18:05:00,18:05:00,America/Monterrey, GMT-06
2010-01-04,8.8175,6.37,11.47,0.97,18:05:00,18:05:00,America/Monterrey, GMT-06
2010-01-05,5.627083333333334,4.2,7.69,0.96,18:06:00,18:06:00,America/Monterrey, GMT-06
2010-01-06,8.442916666666667,4.65,14.19,0.9,18:07:00,18:07:00,America/Monterrey, GMT-06
2010-01-07,7.244999999999998,2.46,12.15,0.84,18:07:00,18:07:00,America/Monterrey, GMT-06
2010-01-08,0.9741666666666667,-0.81,2.69,0.46,18:08:00,18:08:00,America/Monterrey, GMT-06
2010-01-09,3.0499999999999994,-2.81,9.69,0.42,18:09:00,18:09:00,America/Monterrey, GMT-06
2010-01-10,3.091249999999999,-3.2,9.2,0.54,18:10:00,18:10:00,America/Monterrey, GMT-06
2010-01-11,6.724166666666666,1.5,12.46,0.69,18:10:00,18:10:00,America/Monterrey, GMT-06
2010-01-12,7.947083333333336,6.87,9.17,0.99,18:11:00,18:11:00,America/Monterrey, GMT-06
2010-01-13,9.397083333333333,7.48,11.57,1.0,18:12:00,18:12:00,America/Monterrey, GMT-06
2010-01-14,11.389166666666668,9.16,13.62,0.94,18:13:00,18:13:00,America/Monterrey, GMT-06
2010-01-15,12.81083333333333,9.7,18.07,0.77,18:13:00,18:13:00,America/Monterrey, GMT-06
2010-01-16,14.017499999999997,9.08,20.35,0.6,18:14:00,18:14:00,America/Monterrey, GMT-06
2010-01-17,13.937083333333332,6.27,22.13,0.65,18:15:00,18:15:00,America/Monterrey, GMT-06
2010-01-18,16.682083333333335,9.22,26.69,0.63,18:16:00,18:16:00,America/Monterrey, GMT-06
2010-01-19,18.415416666666665,10.57,27.47,0.62,18:16:00,18:16:00,America/Monterrey, GMT-06
2010-01-20,21.821666666666662,13.57,32.06,0.36,18:17:00,18:17:00,America/Monterrey, GMT-06
2010-01-21,19.573750000000004,14.99,26.32,0.57,18:18:00,18:18:00,America/Monterrey, GMT-06
2010-01-22,19.9425,11.67,30.25,0.55,18:19:00,18:19:00,America/Monterrey, GMT-06
2010-01-23,20.618750000000002,13.95,31.1,0.52,18:19:00,18:19:00,America/Monterrey, GMT-06
2010-01-24,16.44583333333333,11.44,22.64,0.54,18:20:00,18:20:00,America/Monterrey, GMT-06
2010-01-25,13.853333333333333,5.78,21.44,0.5,18:21:00,18:21:00,America/Monterrey, GMT-06
2010-01-26,13.617499999999998,7.49,18.07,0.72,18:22:00,18:22:00,America/Monterrey, GMT-06
2010-01-27,15.630416666666667,13.04,19.28,0.84,18:23:00,18:23:00,America/Monterrey, GMT-06
2010-01-28,16.75958333333333,14.13,21.16,0.85,18:23:00,18:23:00,America/Monterrey, GMT-06
2010-01-29,13.432916666666666,9.75,16.4,0.71,18:24:00,18:24:00,America/Monterrey, GMT-06
2010-01-30,9.845833333333333,6.34,15.22,0.52,18:25:00,18:25:00,America/Monterrey, GMT-06
2010-01-31,7.243333333333333,4.21,12.01,0.72,18:26:00,18:26:00,America/Monterrey, GMT-06
2010-02-01,9.088333333333333,4.18,16.02,0.84,18:26:00,18:26:00,America/Monterrey, GMT-06
2010-02-02,9.288750000000002,6.73,11.47,0.99,18:27:00,18:27:00,America/Monterrey, GMT-06
2010-02-03,10.734583333333333,8.44,13.74,0.99,18:28:00,18:28:00,America/Monterrey, GMT-06
2010-02-04,13.040833333333333,10.27,17.54,0.92,18:28:00,18:28:00,America/Monterrey, GMT-06
2010-02-05,15.200833333333335,7.72,25.47,0.69,18:29:00,18:29:00,America/Monterrey, GMT-06
2010-02-06,16.190833333333334,7.72,24.43,0.64,18:30:00,18:30:00,America/Monterrey, GMT-06
2010-02-07,14.544166666666662,11.29,18.75,0.84,18:31:00,18:31:00,America/Monterrey, GMT-06
2010-02-08,18.266666666666666,13.08,27.05,0.72,18:31:00,18:31:00,America/Monterrey, GMT-06
2010-02-09,11.10125,8.09,17.98,0.67,18:32:00,18:32:00,America/Monterrey, GMT-06
2010-02-10,6.612500000000001,4.73,8.63,0.77,18:33:00,18:33:00,America/Monterrey, GMT-06
2010-02-11,9.05875,4.72,15.38,0.85,18:33:00,18:33:00,America/Monterrey, GMT-06
2010-02-12,10.272916666666665,3.94,18.33,0.71,18:34:00,18:34:00,America/Monterrey, GMT-06
2010-02-13,8.511249999999999,4.24,12.51,0.87,18:35:00,18:35:00,America/Monterrey, GMT-06
2010-02-14,13.8675,5.3,23.7,0.68,18:35:00,18:35:00,America/Monterrey, GMT-06
2010-02-15,8.45375,5.2,16.98,0.54,18:36:00,18:36:00,America/Monterrey, GMT-06
2010-02-16,8.612916666666667,3.68,13.93,0.48,18:37:00,18:37:00,America/Monterrey, GMT-06
2010-02-17,9.522916666666667,3.48,14.87,0.46,18:37:00,18:37:00,America/Monterrey, GMT-06
2010-02-18,8.804583333333335,7.45,10.23,0.81,18:38:00,18:38:00,America/Monterrey, GMT-06
2010-02-19,11.954999999999998,7.51,18.11,0.85,18:39:00,18:39:00,America/Monterrey, GMT-06
2010-02-20,14.257916666666665,9.67,19.74,0.84,18:39:00,18:39:00,America/Monterrey, GMT-06
2010-02-21,18.55708333333334,11.89,26.98,0.64,18:40:00,18:40:00,America/Monterrey, GMT-06
2010-02-22,17.800833333333337,10.49,26.09,0.59,18:40:00,18:40:00,America/Monterrey, GMT-06
2010-02-23,9.730833333333333,3.37,15.84,0.89,18:41:00,18:41:00,America/Monterrey, GMT-06
2010-02-24,8.97541666666667,2.58,17.46,0.53,18:42:00,18:42:00,America/Monterrey, GMT-06
2010-02-25,12.381666666666666,5.04,21.2,0.49,18:42:00,18:42:00,America/Monterrey, GMT-06
2010-02-26,16.02958333333333,9.42,22.71,0.39,18:43:00,18:43:00,America/Monterrey, GMT-06
2010-02-27,13.314999999999996,5.84,19.39,0.4,18:43:00,18:43:00,America/Monterrey, GMT-06
2010-02-28,12.524583333333338,5.9,20.85,0.63,18:44:00,18:44:00,America/Monterrey, GMT-06
2010-03-01,17.8825,9.88,26.78,0.42,18:44:00,18:44:00,America/Monterrey, GMT-06
2010-03-02,11.57125,6.28,18.28,0.43,18:45:00,18:45:00,America/Monterrey, GMT-06
2010-03-03,12.902916666666668,5.34,20.22,0.48,18:45:00,18:45:00,America/Monterrey, GMT-06
2010-03-04,13.805833333333334,8.36,19.82,0.71,18:46:00,18:46:00,America/Monterrey, GMT-06
2010-03-05,14.538333333333329,12.24,16.93,0.88,18:46:00,18:46:00,America/Monterrey, GMT-06
2010-03-06,15.065000000000005,12.73,17.55,0.99,18:47:00,18:47:00,America/Monterrey, GMT-06
2010-03-07,17.547916666666666,13.89,21.41,0.88,18:47:00,18:47:00,America/Monterrey, GMT-06
2010-03-08,19.22208333333333,15.62,25.82,0.84,18:48:00,18:48:00,America/Monterrey, GMT-06
2010-03-09,19.472916666666666,13.69,26.13,0.78,18:48:00,18:48:00,America/Monterrey, GMT-06
2010-03-10,21.734166666666663,12.88,30.27,0.44,18:49:00,18:49:00,America/Monterrey, GMT-06
2010-03-11,21.215416666666666,15.93,27.15,0.27,18:49:00,18:49:00,America/Monterrey, GMT-06
2010-03-12,17.84541666666666,10.6,25.41,0.2,18:50:00,18:50:00,America/Monterrey, GMT-06
2010-03-13,18.24166666666667,9.35,25.75,0.23,18:50:00,18:50:00,America/Monterrey, GMT-06
2010-03-14,17.96291666666667,10.93,24.77,0.47,18:51:00,18:51:00,America/Monterrey, GMT-06
2010-03-15,17.77541666666667,10.72,23.65,0.74,18:51:00,18:51:00,America/Monterrey, GMT-06
2010-03-16,13.684583333333334,9.76,19.78,0.67,18:52:00,18:52:00,America/Monterrey, GMT-06
2010-03-17,14.975833333333336,6.78,24.12,0.5,18:52:00,18:52:00,America/Monterrey, GMT-06
2010-03-18,17.021666666666665,7.73,25.57,0.49,18:53:00,18:53:00,America/Monterrey, GMT-06
2010-03-19,17.92375,11.11,25.6,0.62,18:53:00,18:53:00,America/Monterrey, GMT-06
2010-03-20,16.250833333333333,9.19,21.65,0.61,18:53:00,18:53:00,America/Monterrey, GMT-06
2010-03-21,13.200000000000001,3.83,22.84,0.3,18:54:00,18:54:00,America/Monterrey, GMT-06
2010-03-22,15.515833333333335,6.05,24.48,0.29,18:54:00,18:54:00,America/Monterrey, GMT-06
2010-03-23,17.5475,8.99,25.42,0.47,18:55:00,18:55:00,America/Monterrey, GMT-06
2010-03-24,20.165416666666662,13.74,28.61,0.69,18:55:00,18:55:00,America/Monterrey, GMT-06
2010-03-25,18.285416666666666,14.68,24.19,0.45,18:56:00,18:56:00,America/Monterrey, GMT-06
2010-03-26,18.38833333333334,10.8,26.71,0.43,18:56:00,18:56:00,America/Monterrey, GMT-06
2010-03-27,22.05666666666667,11.45,32.66,0.51,18:57:00,18:57:00,America/Monterrey, GMT-06
2010-03-28,18.990416666666665,13.67,23.06,0.35,18:57:00,18:57:00,America/Monterrey, GMT-06
2010-03-29,17.435000000000006,8.94,25.57,0.33,18:57:00,18:57:00,America/Monterrey, GMT-06
2010-03-30,19.264583333333338,11.65,27.65,0.37,18:58:00,18:58:00,America/Monterrey, GMT-06
2010-03-31,21.68166666666666,11.59,31.59,0.56,18:58:00,18:58:00,America/Monterrey, GMT-06
2010-04-01,21.703333333333333,15.87,29.33,0.7,18:59:00,18:59:00,America/Monterrey, GMT-06
2010-04-02,24.188333333333333,16.43,33.68,0.59,18:59:00,18:59:00,America/Monterrey, GMT-06
2010-04-03,23.81,18.64,29.76,0.62,19:00:00,19:00:00,America/Monterrey, GMT-06
2010-04-04,23.949565217391307,18.9,30.38,0.71,20:00:00,20:00:00,America/Monterrey, GMT-05
2010-04-05,23.960000000000004,19.16,30.52,0.72,20:00:00,20:00:00,America/Monterrey, GMT-05
2010-04-06,22.69708333333334,18.24,28.28,0.75,20:01:00,20:01:00,America/Monterrey, GMT-05
2010-04-07,24.61708333333334,18.6,32.88,0.59,20:01:00,20:01:00,America/Monterrey, GMT-05
2010-04-08,19.202083333333334,14.2,23.63,0.39,20:02:00,20:02:00,America/Monterrey, GMT-05
2010-04-09,16.277083333333334,10.66,20.52,0.56,20:02:00,20:02:00,America/Monterrey, GMT-05
2010-04-10,20.992083333333333,12.61,29.66,0.69,20:03:00,20:03:00,America/Monterrey, GMT-05
2010-04-11,20.589166666666667,16.84,25.13,0.8,20:03:00,20:03:00,America/Monterrey, GMT-05
2010-04-12,18.14083333333333,14.53,20.47,0.95,20:04:00,20:04:00,America/Monterrey, GMT-05
2010-04-13,17.94666666666667,15.81,22.05,0.94,20:04:00,20:04:00,America/Monterrey, GMT-05
2010-04-14,18.504583333333333,15.89,23.04,0.95,20:05:00,20:05:00,America/Monterrey, GMT-05
2010-04-15,18.74666666666667,15.46,22.95,0.94,20:05:00,20:05:00,America/Monterrey, GMT-05
2010-04-16,20.09208333333333,16.94,25.1,0.9,20:06:00,20:06:00,America/Monterrey, GMT-05
2010-04-17,20.81833333333334,17.55,25.71,0.87,20:06:00,20:06:00,America/Monterrey, GMT-05
2010-04-18,18.425416666666667,15.1,23.53,0.8,20:07:00,20:07:00,America/Monterrey, GMT-05
2010-04-19,18.919999999999998,15.92,23.36,0.79,20:07:00,20:07:00,America/Monterrey, GMT-05
2010-04-20,18.741666666666667,15.75,23.14,0.88,20:07:00,20:07:00,America/Monterrey, GMT-05
2010-04-21,19.695,16.9,23.14,0.88,20:08:00,20:08:00,America/Monterrey, GMT-05
2010-04-22,22.03458333333333,18.1,27.57,0.87,20:08:00,20:08:00,America/Monterrey, GMT-05
2010-04-23,24.9325,17.62,33.58,0.7,20:09:00,20:09:00,America/Monterrey, GMT-05
2010-04-24,24.448333333333334,18.86,31.02,0.36,20:09:00,20:09:00,America/Monterrey, GMT-05
2010-04-25,22.517916666666665,13.62,30.79,0.49,20:10:00,20:10:00,America/Monterrey, GMT-05
2010-04-26,22.884583333333335,14.8,29.55,0.47,20:10:00,20:10:00,America/Monterrey, GMT-05
2010-04-27,19.21916666666667,17.05,21.54,0.57,20:11:00,20:11:00,America/Monterrey, GMT-05
2010-04-28,18.572083333333335,15.34,23.48,0.82,20:12:00,20:12:00,America/Monterrey, GMT-05
2010-04-29,22.102499999999996,14.34,30.76,0.75,20:12:00,20:12:00,America/Monterrey, GMT-05
2010-04-30,27.712500000000002,16.6,36.62,0.46,20:13:00,20:13:00,America/Monterrey, GMT-05
2010-05-01,25.24458333333334,18.48,30.56,0.49,20:13:00,20:13:00,America/Monterrey, GMT-05
2010-05-02,23.31708333333334,17.12,28.64,0.35,20:14:00,20:14:00,America/Monterrey, GMT-05
2010-05-03,22.936666666666667,14.06,32.2,0.49,20:14:00,20:14:00,America/Monterrey, GMT-05
2010-05-04,23.581250000000008,15.61,30.7,0.39,20:15:00,20:15:00,America/Monterrey, GMT-05
2010-05-05,25.907083333333336,18.32,34.38,0.4,20:15:00,20:15:00,America/Monterrey, GMT-05
2010-05-06,25.766666666666676,17.71,32.69,0.58,20:16:00,20:16:00,America/Monterrey, GMT-05
2010-05-07,27.39375,20.73,34.88,0.64,20:16:00,20:16:00,America/Monterrey, GMT-05
2010-05-08,25.993749999999995,22.47,29.01,0.7,20:17:00,20:17:00,America/Monterrey, GMT-05
2010-05-09,25.598333333333333,20.82,31.82,0.75,20:17:00,20:17:00,America/Monterrey, GMT-05
2010-05-10,25.712500000000002,20.9,32.03,0.75,20:18:00,20:18:00,America/Monterrey, GMT-05
2010-05-11,26.25458333333333,20.27,32.04,0.71,20:18:00,20:18:00,America/Monterrey, GMT-05
2010-05-12,26.119166666666672,21.34,30.8,0.7,20:19:00,20:19:00,America/Monterrey, GMT-05
2010-05-13,25.5675,21.95,29.83,0.73,20:20:00,20:20:00,America/Monterrey, GMT-05
2010-05-14,24.157083333333336,20.84,28.13,0.84,20:20:00,20:20:00,America/Monterrey, GMT-05
2010-05-15,23.96041666666667,19.78,28.9,0.8,20:21:00,20:21:00,America/Monterrey, GMT-05
2010-05-16,23.11708333333333,18.52,27.74,0.76,20:21:00,20:21:00,America/Monterrey, GMT-05
2010-05-17,24.150000000000002,18.01,31.12,0.76,20:22:00,20:22:00,America/Monterrey, GMT-05
2010-05-18,23.417916666666667,19.04,29.05,0.72,20:22:00,20:22:00,America/Monterrey, GMT-05
2010-05-19,25.28625,18.09,33.08,0.71,20:23:00,20:23:00,America/Monterrey, GMT-05
2010-05-20,25.504166666666663,20.86,30.48,0.78,20:23:00,20:23:00,America/Monterrey, GMT-05
2010-05-21,25.747083333333332,22.46,29.35,0.78,20:24:00,20:24:00,America/Monterrey, GMT-05
2010-05-22,26.496666666666666,22.07,32.29,0.73,20:24:00,20:24:00,America/Monterrey, GMT-05
2010-05-23,25.98041666666666,22.02,32.27,0.77,20:25:00,20:25:00,America/Monterrey, GMT-05
2010-05-24,25.27958333333333,22.0,30.0,0.83,20:25:00,20:25:00,America/Monterrey, GMT-05
2010-05-25,24.099166666666665,21.11,28.17,0.9,20:26:00,20:26:00,America/Monterrey, GMT-05
2010-05-26,23.003749999999997,19.76,29.48,0.9,20:26:00,20:26:00,America/Monterrey, GMT-05
2010-05-27,23.27791666666667,19.21,28.34,0.84,20:27:00,20:27:00,America/Monterrey, GMT-05
2010-05-28,24.413749999999997,19.74,30.29,0.78,20:27:00,20:27:00,America/Monterrey, GMT-05
2010-05-29,25.59666666666666,20.78,31.65,0.72,20:28:00,20:28:00,America/Monterrey, GMT-05
2010-05-30,22.447083333333328,18.73,30.3,0.88,20:28:00,20:28:00,America/Monterrey, GMT-05
2010-05-31,23.57666666666667,17.44,29.77,0.81,20:29:00,20:29:00,America/Monterrey, GMT-05
2010-06-01,25.6975,21.42,30.34,0.81,20:29:00,20:29:00,America/Monterrey, GMT-05
2010-06-02,25.72083333333333,19.7,33.12,0.75,20:30:00,20:30:00,America/Monterrey, GMT-05
2010-06-03,24.378749999999997,17.94,35.24,0.68,20:30:00,20:30:00,America/Monterrey, GMT-05
2010-06-04,25.371666666666666,18.03,32.52,0.7,20:31:00,20:31:00,America/Monterrey, GMT-05
2010-06-05,28.668749999999992,21.39,37.82,0.69,20:31:00,20:31:00,America/Monterrey, GMT-05
2010-06-06,28.86250000000001,22.41,35.48,0.69,20:32:00,20:32:00,America/Monterrey, GMT-05
2010-06-07,26.29958333333333,19.77,30.68,0.78,20:32:00,20:32:00,America/Monterrey, GMT-05
2010-06-08,25.296666666666667,19.16,32.08,0.78,20:32:00,20:32:00,America/Monterrey, GMT-05
2010-06-09,27.96083333333333,23.09,33.09,0.75,20:33:00,20:33:00,America/Monterrey, GMT-05
2010-06-10,28.02958333333333,22.82,33.53,0.73,20:33:00,20:33:00,America/Monterrey, GMT-05
2010-06-11,27.352500000000003,22.35,32.57,0.75,20:33:00,20:33:00,America/Monterrey, GMT-05
2010-06-12,27.83666666666667,23.72,33.06,0.73,20:34:00,20:34:00,America/Monterrey, GMT-05
2010-06-13,28.261250000000004,23.01,34.27,0.69,20:34:00,20:34:00,America/Monterrey, GMT-05
2010-06-14,28.23958333333334,23.08,34.61,0.65,20:34:00,20:34:00,America/Monterrey, GMT-05
2010-06-15,27.17750000000001,21.97,32.91,0.64,20:35:00,20:35:00,America/Monterrey, GMT-05
2010-06-16,26.43875,21.44,32.4,0.68,20:35:00,20:35:00,America/Monterrey, GMT-05
2010-06-17,26.538333333333338,21.34,33.19,0.7,20:35:00,20:35:00,America/Monterrey, GMT-05
2010-06-18,27.804999999999993,20.85,34.71,0.62,20:36:00,20:36:00,America/Monterrey, GMT-05
2010-06-19,28.209583333333338,23.02,34.61,0.65,20:36:00,20:36:00,America/Monterrey, GMT-05
2010-06-20,27.80541666666666,22.47,34.32,0.66,20:36:00,20:36:00,America/Monterrey, GMT-05
2010-06-21,28.006249999999998,22.51,35.07,0.64,20:36:00,20:36:00,America/Monterrey, GMT-05
2010-06-22,27.68875,21.89,34.33,0.62,20:36:00,20:36:00,America/Monterrey, GMT-05
2010-06-23,27.596666666666664,21.98,34.49,0.65,20:37:00,20:37:00,America/Monterrey, GMT-05
2010-06-24,27.716666666666665,22.71,34.18,0.65,20:37:00,20:37:00,America/Monterrey, GMT-05
2010-06-25,28.181250000000002,21.83,34.73,0.64,20:37:00,20:37:00,America/Monterrey, GMT-05
2010-06-26,28.232083333333335,22.73,34.79,0.65,20:37:00,20:37:00,America/Monterrey, GMT-05
2010-06-27,28.357499999999998,22.38,35.1,0.61,20:37:00,20:37:00,America/Monterrey, GMT-05
2010-06-28,26.723333333333333,22.01,32.63,0.74,20:37:00,20:37:00,America/Monterrey, GMT-05
2010-06-29,25.540416666666673,20.28,31.49,0.81,20:37:00,20:37:00,America/Monterrey, GMT-05
2010-06-30,22.564583333333328,20.83,25.52,0.98,20:37:00,20:37:00,America/Monterrey, GMT-05
2010-07-01,21.96041666666667,20.32,23.69,1.0,20:37:00,20:37:00,America/Monterrey, GMT-05
2010-07-02,23.269166666666663,21.34,27.31,0.98,20:37:00,20:37:00,America/Monterrey, GMT-05
2010-07-03,24.23249999999999,21.43,27.62,0.94,20:37:00,20:37:00,America/Monterrey, GMT-05
2010-07-04,25.21791666666667,22.5,30.34,0.91,20:37:00,20:37:00,America/Monterrey, GMT-05
2010-07-05,23.7208695652174,20.65,28.12,0.93,20:37:00,20:37:00,America/Monterrey, GMT-05
2010-07-06,22.570416666666663,20.28,27.86,0.96,20:37:00,20:37:00,America/Monterrey, GMT-05
2010-07-07,23.904999999999998,20.69,29.65,0.88,20:37:00,20:37:00,America/Monterrey, GMT-05
2010-07-08,23.75583333333334,20.74,28.7,0.91,20:37:00,20:37:00,America/Monterrey, GMT-05
2010-07-09,23.992916666666673,19.84,28.95,0.9,20:37:00,20:37:00,America/Monterrey, GMT-05
2010-07-10,25.26541666666667,20.95,30.4,0.83,20:37:00,20:37:00,America/Monterrey, GMT-05
2010-07-11,25.804166666666664,20.91,30.66,0.8,20:37:00,20:37:00,America/Monterrey, GMT-05
2010-07-12,26.74083333333333,22.02,31.61,0.78,20:36:00,20:36:00,America/Monterrey, GMT-05
2010-07-13,27.176249999999996,22.71,32.11,0.8,20:36:00,20:36:00,America/Monterrey, GMT-05
2010-07-14,27.033749999999998,23.02,32.08,0.77,20:36:00,20:36:00,America/Monterrey, GMT-05
2010-07-15,26.525000000000002,22.08,30.47,0.81,20:36:00,20:36:00,America/Monterrey, GMT-05
2010-07-16,26.770833333333332,23.1,30.43,0.8,20:35:00,20:35:00,America/Monterrey, GMT-05
2010-07-17,26.617916666666662,21.98,32.05,0.77,20:35:00,20:35:00,America/Monterrey, GMT-05
2010-07-18,26.59541666666667,22.5,30.82,0.74,20:35:00,20:35:00,America/Monterrey, GMT-05
2010-07-19,26.64583333333333,23.06,30.68,0.8,20:34:00,20:34:00,America/Monterrey, GMT-05
2010-07-20,26.38416666666667,22.97,31.69,0.78,20:34:00,20:34:00,America/Monterrey, GMT-05
2010-07-21,25.544166666666666,21.92,31.21,0.82,20:34:00,20:34:00,America/Monterrey, GMT-05
2010-07-22,24.856666666666666,21.0,29.88,0.86,20:33:00,20:33:00,America/Monterrey, GMT-05
2010-07-23,22.645833333333332,20.8,25.59,0.99,20:33:00,20:33:00,America/Monterrey, GMT-05
2010-07-24,23.85291666666667,20.81,28.09,0.9,20:32:00,20:32:00,America/Monterrey, GMT-05
2010-07-25,23.160833333333333,19.33,26.91,0.9,20:32:00,20:32:00,America/Monterrey, GMT-05
2010-07-26,23.11583333333333,19.66,26.7,0.91,20:31:00,20:31:00,America/Monterrey, GMT-05
2010-07-27,24.29375,20.27,29.35,0.87,20:31:00,20:31:00,America/Monterrey, GMT-05
2010-07-28,23.743333333333336,21.41,28.32,0.92,20:30:00,20:30:00,America/Monterrey, GMT-05
2010-07-29,24.212499999999995,20.74,29.34,0.85,20:30:00,20:30:00,America/Monterrey, GMT-05
2010-07-30,25.20625,19.76,31.03,0.79,20:29:00,20:29:00,America/Monterrey, GMT-05
2010-07-31,26.031666666666677,20.6,31.46,0.79,20:29:00,20:29:00,America/Monterrey, GMT-05
2010-08-01,25.87833333333334,19.8,31.85,0.73,20:28:00,20:28:00,America/Monterrey, GMT-05
2010-08-02,26.657916666666665,21.9,31.74,0.74,20:28:00,20:28:00,America/Monterrey, GMT-05
2010-08-03,26.44083333333333,21.98,31.06,0.77,20:27:00,20:27:00,America/Monterrey, GMT-05
2010-08-04,26.565416666666664,22.59,30.7,0.78,20:26:00,20:26:00,America/Monterrey, GMT-05
2010-08-05,26.302916666666665,22.48,31.4,0.77,20:26:00,20:26:00,America/Monterrey, GMT-05
2010-08-06,26.52791666666667,22.43,31.9,0.75,20:25:00,20:25:00,America/Monterrey, GMT-05
2010-08-07,26.894999999999992,21.98,32.3,0.75,20:24:00,20:24:00,America/Monterrey, GMT-05
2010-08-08,26.47708333333333,23.09,30.74,0.82,20:24:00,20:24:00,America/Monterrey, GMT-05
2010-08-09,27.01,22.99,31.9,0.78,20:23:00,20:23:00,America/Monterrey, GMT-05
2010-08-10,26.62708333333333,22.28,30.98,0.81,20:22:00,20:22:00,America/Monterrey, GMT-05
2010-08-11,27.582083333333333,23.01,32.62,0.74,20:21:00,20:21:00,America/Monterrey, GMT-05
2010-08-12,27.41125,22.83,32.31,0.74,20:21:00,20:21:00,America/Monterrey, GMT-05
2010-08-13,26.735,22.56,32.36,0.77,20:20:00,20:20:00,America/Monterrey, GMT-05
2010-08-14,26.91416666666667,22.48,32.46,0.79,20:19:00,20:19:00,America/Monterrey, GMT-05
2010-08-15,27.3325,23.07,33.02,0.76,20:18:00,20:18:00,America/Monterrey, GMT-05
2010-08-16,27.562499999999996,22.01,33.36,0.72,20:17:00,20:17:00,America/Monterrey, GMT-05
2010-08-17,28.018749999999994,22.47,33.83,0.71,20:16:00,20:16:00,America/Monterrey, GMT-05
2010-08-18,27.389166666666668,23.55,32.42,0.74,20:15:00,20:15:00,America/Monterrey, GMT-05
2010-08-19,27.152500000000007,23.06,32.61,0.74,20:15:00,20:15:00,America/Monterrey, GMT-05
2010-08-20,27.43666666666667,23.05,33.92,0.7,20:14:00,20:14:00,America/Monterrey, GMT-05
2010-08-21,26.909166666666675,20.8,32.77,0.71,20:13:00,20:13:00,America/Monterrey, GMT-05
2010-08-22,26.971666666666664,21.98,33.58,0.71,20:12:00,20:12:00,America/Monterrey, GMT-05
2010-08-23,27.534166666666675,21.37,34.83,0.64,20:11:00,20:11:00,America/Monterrey, GMT-05
2010-08-24,27.8775,19.6,36.53,0.5,20:10:00,20:10:00,America/Monterrey, GMT-05
2010-08-25,25.01375,22.98,29.57,0.72,20:09:00,20:09:00,America/Monterrey, GMT-05
2010-08-26,24.252083333333335,20.82,29.43,0.79,20:08:00,20:08:00,America/Monterrey, GMT-05
2010-08-27,25.442916666666665,20.83,31.93,0.72,20:07:00,20:07:00,America/Monterrey, GMT-05
2010-08-28,25.993333333333336,20.81,31.4,0.66,20:06:00,20:06:00,America/Monterrey, GMT-05
2010-08-29,26.892500000000002,22.46,31.78,0.71,20:05:00,20:05:00,America/Monterrey, GMT-05
2010-08-30,27.11583333333333,20.9,33.59,0.7,20:04:00,20:04:00,America/Monterrey, GMT-05
2010-08-31,27.48625,22.49,33.62,0.73,20:03:00,20:03:00,America/Monterrey, GMT-05
2010-09-01,27.594583333333333,21.98,33.51,0.67,20:02:00,20:02:00,America/Monterrey, GMT-05
2010-09-02,27.753749999999997,23.06,33.26,0.71,20:01:00,20:01:00,America/Monterrey, GMT-05
2010-09-03,24.322083333333335,20.19,30.56,0.88,20:00:00,20:00:00,America/Monterrey, GMT-05
2010-09-04,22.096666666666664,19.77,25.36,0.95,19:59:00,19:59:00,America/Monterrey, GMT-05
2010-09-05,24.07625,18.1,30.34,0.78,19:58:00,19:58:00,America/Monterrey, GMT-05
2010-09-06,25.67,19.73,32.08,0.76,19:57:00,19:57:00,America/Monterrey, GMT-05
2010-09-07,25.556250000000002,21.39,30.3,0.84,19:56:00,19:56:00,America/Monterrey, GMT-05
2010-09-08,25.997500000000002,23.03,29.94,0.85,19:55:00,19:55:00,America/Monterrey, GMT-05
2010-09-09,25.607083333333335,21.42,30.66,0.87,19:53:00,19:53:00,America/Monterrey, GMT-05
2010-09-10,26.48333333333333,22.87,31.37,0.85,19:52:00,19:52:00,America/Monterrey, GMT-05
2010-09-11,26.86333333333333,22.73,32.27,0.82,19:51:00,19:51:00,America/Monterrey, GMT-05
2010-09-12,26.371250000000003,21.98,32.35,0.82,19:50:00,19:50:00,America/Monterrey, GMT-05
2010-09-13,26.54666666666667,20.72,33.31,0.76,19:49:00,19:49:00,America/Monterrey, GMT-05
2010-09-14,26.699166666666667,21.58,33.93,0.76,19:48:00,19:48:00,America/Monterrey, GMT-05
2010-09-15,26.335000000000004,20.68,31.47,0.77,19:47:00,19:47:00,America/Monterrey, GMT-05
2010-09-16,26.209166666666665,21.88,31.86,0.75,19:46:00,19:46:00,America/Monterrey, GMT-05
2010-09-17,24.995,20.8,31.29,0.81,19:45:00,19:45:00,America/Monterrey, GMT-05
2010-09-18,22.712500000000002,20.32,27.05,0.93,19:44:00,19:44:00,America/Monterrey, GMT-05
2010-09-19,22.281249999999996,20.28,25.36,0.95,19:42:00,19:42:00,America/Monterrey, GMT-05
2010-09-20,22.323333333333338,20.28,26.42,0.96,19:41:00,19:41:00,America/Monterrey, GMT-05
2010-09-21,22.205416666666668,19.76,25.96,0.94,19:40:00,19:40:00,America/Monterrey, GMT-05
2010-09-22,22.650833333333328,19.79,27.52,0.92,19:39:00,19:39:00,America/Monterrey, GMT-05
2010-09-23,23.427916666666672,20.71,27.57,0.89,19:38:00,19:38:00,America/Monterrey, GMT-05
2010-09-24,23.575,20.33,28.64,0.88,19:37:00,19:37:00,America/Monterrey, GMT-05
2010-09-25,22.782499999999995,20.26,27.89,0.9,19:36:00,19:36:00,America/Monterrey, GMT-05
2010-09-26,22.275000000000002,19.61,27.55,0.89,19:35:00,19:35:00,America/Monterrey, GMT-05
2010-09-27,19.6775,17.23,21.79,0.89,19:34:00,19:34:00,America/Monterrey, GMT-05
2010-09-28,21.00583333333333,14.61,28.48,0.68,19:32:00,19:32:00,America/Monterrey, GMT-05
2010-09-29,21.692916666666665,13.39,30.83,0.63,19:31:00,19:31:00,America/Monterrey, GMT-05
2010-09-30,22.65625,15.31,30.36,0.63,19:30:00,19:30:00,America/Monterrey, GMT-05
2010-10-01,22.61041666666667,16.31,29.42,0.66,19:29:00,19:29:00,America/Monterrey, GMT-05
2010-10-02,22.941666666666666,15.82,29.79,0.67,19:28:00,19:28:00,America/Monterrey, GMT-05
2010-10-03,22.12291666666667,16.94,26.96,0.64,19:27:00,19:27:00,America/Monterrey, GMT-05
2010-10-04,20.207083333333333,14.19,25.93,0.68,19:26:00,19:26:00,America/Monterrey, GMT-05
2010-10-05,19.67958333333333,15.87,22.68,0.77,19:25:00,19:25:00,America/Monterrey, GMT-05
2010-10-06,20.00166666666666,17.12,24.5,0.75,19:24:00,19:24:00,America/Monterrey, GMT-05
2010-10-07,19.893333333333334,15.95,24.85,0.72,19:23:00,19:23:00,America/Monterrey, GMT-05
2010-10-08,19.500416666666666,13.07,24.87,0.72,19:22:00,19:22:00,America/Monterrey, GMT-05
2010-10-09,20.427083333333336,13.11,28.1,0.74,19:21:00,19:21:00,America/Monterrey, GMT-05
2010-10-10,21.251666666666672,14.7,28.76,0.75,19:20:00,19:20:00,America/Monterrey, GMT-05
2010-10-11,22.77541666666667,16.36,30.84,0.72,19:19:00,19:19:00,America/Monterrey, GMT-05
2010-10-12,23.384583333333335,18.63,30.09,0.74,19:18:00,19:18:00,America/Monterrey, GMT-05
2010-10-13,21.91416666666667,17.11,27.99,0.78,19:17:00,19:17:00,America/Monterrey, GMT-05
2010-10-14,20.3375,14.68,26.73,0.68,19:16:00,19:16:00,America/Monterrey, GMT-05
2010-10-15,20.281250000000004,13.63,27.07,0.61,19:15:00,19:15:00,America/Monterrey, GMT-05
2010-10-16,19.359583333333333,12.46,26.02,0.64,19:14:00,19:14:00,America/Monterrey, GMT-05
2010-10-17,19.557499999999997,13.7,26.42,0.75,19:13:00,19:13:00,America/Monterrey, GMT-05
2010-10-18,20.684583333333332,15.29,28.11,0.77,19:12:00,19:12:00,America/Monterrey, GMT-05
2010-10-19,21.558333333333334,16.96,28.1,0.79,19:11:00,19:11:00,America/Monterrey, GMT-05
2010-10-20,21.399166666666662,18.69,25.24,0.87,19:10:00,19:10:00,America/Monterrey, GMT-05
2010-10-21,21.075416666666662,17.96,24.35,0.86,19:10:00,19:10:00,America/Monterrey, GMT-05
2010-10-22,22.404166666666665,18.67,27.03,0.82,19:09:00,19:09:00,America/Monterrey, GMT-05
2010-10-23,22.647499999999997,18.73,28.66,0.78,19:08:00,19:08:00,America/Monterrey, GMT-05
2010-10-24,22.818749999999998,18.09,30.4,0.79,19:07:00,19:07:00,America/Monterrey, GMT-05
2010-10-25,23.472499999999997,15.3,33.67,0.67,19:06:00,19:06:00,America/Monterrey, GMT-05
2010-10-26,23.67958333333333,14.9,30.5,0.52,19:06:00,19:06:00,America/Monterrey, GMT-05
2010-10-27,23.367499999999996,15.78,31.42,0.58,19:05:00,19:05:00,America/Monterrey, GMT-05
2010-10-28,19.387916666666666,15.89,23.05,0.69,19:04:00,19:04:00,America/Monterrey, GMT-05
2010-10-29,16.59625,10.33,22.64,0.48,19:03:00,19:03:00,America/Monterrey, GMT-05
2010-10-30,16.802916666666665,9.69,25.33,0.58,19:03:00,19:03:00,America/Monterrey, GMT-05
2010-10-31,20.4956,12.38,30.92,0.62,18:02:00,18:02:00,America/Monterrey, GMT-06
2010-11-01,22.238333333333333,13.75,32.59,0.58,18:01:00,18:01:00,America/Monterrey, GMT-06
2010-11-02,20.335000000000004,15.27,25.48,0.46,18:01:00,18:01:00,America/Monterrey, GMT-06
2010-11-03,19.52416666666667,13.63,24.76,0.33,18:00:00,18:00:00,America/Monterrey, GMT-06
2010-11-04,18.299166666666668,13.86,22.54,0.3,17:59:00,17:59:00,America/Monterrey, GMT-06
2010-11-05,14.522083333333336,7.12,21.96,0.4,17:59:00,17:59:00,America/Monterrey, GMT-06
2010-11-06,13.778333333333334,6.61,21.09,0.45,17:58:00,17:58:00,America/Monterrey, GMT-06
2010-11-07,13.97958333333333,6.34,21.61,0.57,17:58:00,17:58:00,America/Monterrey, GMT-06
2010-11-08,15.078333333333331,8.63,23.09,0.74,17:57:00,17:57:00,America/Monterrey, GMT-06
2010-11-09,16.39916666666667,9.02,24.18,0.72,17:57:00,17:57:00,America/Monterrey, GMT-06
2010-11-10,17.822916666666668,9.85,25.31,0.73,17:56:00,17:56:00,America/Monterrey, GMT-06
2010-11-11,18.555000000000003,12.71,24.35,0.8,17:56:00,17:56:00,America/Monterrey, GMT-06
2010-11-12,18.32666666666667,14.25,23.93,0.82,17:55:00,17:55:00,America/Monterrey, GMT-06
2010-11-13,16.838749999999997,13.09,20.29,0.55,17:55:00,17:55:00,America/Monterrey, GMT-06
2010-11-14,14.462083333333332,8.08,20.85,0.65,17:54:00,17:54:00,America/Monterrey, GMT-06
2010-11-15,18.264166666666664,9.1,29.05,0.62,17:54:00,17:54:00,America/Monterrey, GMT-06
2010-11-16,17.628333333333334,10.86,25.94,0.46,17:54:00,17:54:00,America/Monterrey, GMT-06
2010-11-17,17.502916666666664,10.45,27.17,0.5,17:53:00,17:53:00,America/Monterrey, GMT-06
2010-11-18,16.39375,12.51,21.45,0.4,17:53:00,17:53:00,America/Monterrey, GMT-06
2010-11-19,13.953749999999998,7.1,21.44,0.59,17:53:00,17:53:00,America/Monterrey, GMT-06
2010-11-20,17.195416666666667,9.57,26.38,0.71,17:53:00,17:53:00,America/Monterrey, GMT-06
2010-11-21,19.956666666666667,14.2,28.65,0.78,17:52:00,17:52:00,America/Monterrey, GMT-06
2010-11-22,21.77416666666666,16.42,30.49,0.75,17:52:00,17:52:00,America/Monterrey, GMT-06
2010-11-23,20.538333333333338,15.68,26.96,0.8,17:52:00,17:52:00,America/Monterrey, GMT-06
2010-11-24,21.280833333333334,17.65,27.55,0.81,17:52:00,17:52:00,America/Monterrey, GMT-06
2010-11-25,21.745833333333334,14.0,31.44,0.69,17:52:00,17:52:00,America/Monterrey, GMT-06
2010-11-26,14.252916666666666,8.11,22.28,0.44,17:52:00,17:52:00,America/Monterrey, GMT-06
2010-11-27,9.769583333333333,2.64,17.3,0.45,17:52:00,17:52:00,America/Monterrey, GMT-06
2010-11-28,12.901250000000003,2.94,21.49,0.57,17:52:00,17:52:00,America/Monterrey, GMT-06
2010-11-29,19.57458333333333,7.34,33.28,0.52,17:52:00,17:52:00,America/Monterrey, GMT-06
2010-11-30,13.381249999999994,7.05,18.68,0.32,17:52:00,17:52:00,America/Monterrey, GMT-06
2010-12-01,9.464166666666667,0.46,17.34,0.46,17:52:00,17:52:00,America/Monterrey, GMT-06
2010-12-02,12.167499999999999,3.72,21.56,0.53,17:52:00,17:52:00,America/Monterrey, GMT-06
2010-12-03,14.274583333333332,6.6,24.22,0.56,17:52:00,17:52:00,America/Monterrey, GMT-06
2010-12-04,16.47583333333333,7.47,27.83,0.52,17:52:00,17:52:00,America/Monterrey, GMT-06
2010-12-05,14.725416666666668,11.57,19.73,0.53,17:52:00,17:52:00,America/Monterrey, GMT-06
2010-12-06,11.180416666666666,8.37,14.69,0.6,17:52:00,17:52:00,America/Monterrey, GMT-06
2010-12-07,11.745833333333332,5.8,18.84,0.73,17:52:00,17:52:00,America/Monterrey, GMT-06
2010-12-08,14.32666666666667,7.52,19.37,0.54,17:52:00,17:52:00,America/Monterrey, GMT-06
2010-12-09,11.125416666666668,3.57,20.54,0.57,17:53:00,17:53:00,America/Monterrey, GMT-06
2010-12-10,15.298333333333332,5.8,26.59,0.45,17:53:00,17:53:00,America/Monterrey, GMT-06
2010-12-11,19.338333333333335,9.68,31.93,0.33,17:53:00,17:53:00,America/Monterrey, GMT-06
2010-12-12,12.337916666666667,7.52,18.09,0.33,17:53:00,17:53:00,America/Monterrey, GMT-06
2010-12-13,10.095833333333333,3.59,18.11,0.41,17:54:00,17:54:00,America/Monterrey, GMT-06
2010-12-14,12.150833333333333,1.84,22.74,0.52,17:54:00,17:54:00,America/Monterrey, GMT-06
2010-12-15,15.431666666666665,5.39,27.76,0.52,17:54:00,17:54:00,America/Monterrey, GMT-06
2010-12-16,18.4575,9.53,30.49,0.37,17:55:00,17:55:00,America/Monterrey, GMT-06
2010-12-17,13.739166666666664,7.89,19.93,0.59,17:55:00,17:55:00,America/Monterrey, GMT-06
2010-12-18,10.5875,3.05,17.54,0.6,17:56:00,17:56:00,America/Monterrey, GMT-06
2010-12-19,13.174583333333333,5.26,23.76,0.6,17:56:00,17:56:00,America/Monterrey, GMT-06
2010-12-20,18.055416666666662,8.64,30.28,0.51,17:56:00,17:56:00,America/Monterrey, GMT-06
2010-12-21,18.5525,10.32,28.61,0.56,17:57:00,17:57:00,America/Monterrey, GMT-06
2010-12-22,17.636666666666667,11.92,24.17,0.75,17:57:00,17:57:00,America/Monterrey, GMT-06
2010-12-23,17.776666666666664,15.33,21.07,0.84,17:58:00,17:58:00,America/Monterrey, GMT-06
2010-12-24,18.002500000000005,14.6,23.41,0.76,17:58:00,17:58:00,America/Monterrey, GMT-06
2010-12-25,12.554583333333333,8.03,16.96,0.51,17:59:00,17:59:00,America/Monterrey, GMT-06
2010-12-26,7.69625,2.03,13.07,0.55,17:59:00,17:59:00,America/Monterrey, GMT-06
2010-12-27,8.697499999999998,1.76,16.55,0.62,18:00:00,18:00:00,America/Monterrey, GMT-06
2010-12-28,13.93,8.53,20.96,0.72,18:01:00,18:01:00,America/Monterrey, GMT-06
2010-12-29,16.497500000000002,10.86,25.01,0.68,18:01:00,18:01:00,America/Monterrey, GMT-06
2010-12-30,18.722083333333334,9.73,30.01,0.34,18:02:00,18:02:00,America/Monterrey, GMT-06
2010-12-31,19.747916666666665,9.58,28.11,0.32,18:02:00,18:02:00,America/Monterrey, GMT-06
