date,avg_temperature,min_temperature,max_temperature,humidity,sunrise_time,sunset_time,time_zone,gmt_zone
2008-01-01,13.707647058823525,5.51,19.73,0.56,18:07:00,18:07:00,America/Mexico_City, GMT-06
2008-01-02,8.51222222222222,3.94,12.62,0.58,18:08:00,18:08:00,America/Mexico_City, GMT-06
2008-01-03,9.419444444444444,-0.06,17.48,0.57,18:09:00,18:09:00,America/Mexico_City, GMT-06
2008-01-04,11.587333333333332,-0.12,20.55,0.54,18:09:00,18:09:00,America/Mexico_City, GMT-06
2008-01-05,14.482352941176467,2.93,22.68,0.45,18:10:00,18:10:00,America/Mexico_City, GMT-06
2008-01-06,15.897499999999999,5.93,23.49,0.31,18:11:00,18:11:00,America/Mexico_City, GMT-06
2008-01-07,14.951176470588234,2.93,23.41,0.38,18:11:00,18:11:00,America/Mexico_City, GMT-06
2008-01-08,15.35,5.52,22.61,0.41,18:12:00,18:12:00,America/Mexico_City, GMT-06
2008-01-09,15.337777777777774,6.92,22.49,0.42,18:12:00,18:12:00,America/Mexico_City, GMT-06
2008-01-10,15.265882352941176,5.86,22.49,0.5,18:13:00,18:13:00,America/Mexico_City, GMT-06
2008-01-11,14.288823529411761,6.56,21.1,0.54,18:14:00,18:14:00,America/Mexico_City, GMT-06
2008-01-12,14.220588235294112,2.91,20.55,0.54,18:14:00,18:14:00,America/Mexico_City, GMT-06
2008-01-13,13.473529411764702,3.94,20.63,0.57,18:15:00,18:15:00,America/Mexico_City, GMT-06
2008-01-14,13.785294117647055,5.32,21.29,0.54,18:16:00,18:16:00,America/Mexico_City, GMT-06
2008-01-15,11.65625,5.4,15.91,0.71,18:16:00,18:16:00,America/Mexico_City, GMT-06
2008-01-16,13.522222222222219,7.71,18.54,0.69,18:17:00,18:17:00,America/Mexico_City, GMT-06
2008-01-17,14.582941176470584,6.37,20.5,0.59,18:18:00,18:18:00,America/Mexico_City, GMT-06
2008-01-18,13.397777777777774,5.93,18.61,0.62,18:18:00,18:18:00,America/Mexico_City, GMT-06
2008-01-19,14.857058823529407,4.93,21.58,0.47,18:19:00,18:19:00,America/Mexico_City, GMT-06
2008-01-20,11.309999999999997,3.89,17.62,0.67,18:19:00,18:19:00,America/Mexico_City, GMT-06
2008-01-21,14.824705882352939,3.6,22.95,0.53,18:20:00,18:20:00,America/Mexico_City, GMT-06
2008-01-22,17.528823529411763,5.58,26.18,0.43,18:21:00,18:21:00,America/Mexico_City, GMT-06
2008-01-23,17.107058823529407,7.53,25.48,0.39,18:21:00,18:21:00,America/Mexico_City, GMT-06
2008-01-24,17.545555555555556,6.96,25.88,0.39,18:22:00,18:22:00,America/Mexico_City, GMT-06
2008-01-25,15.25625,5.68,23.48,0.58,18:23:00,18:23:00,America/Mexico_City, GMT-06
2008-01-26,16.206470588235295,3.9,23.84,0.41,18:23:00,18:23:00,America/Mexico_City, GMT-06
2008-01-27,14.692941176470585,4.86,21.56,0.52,18:24:00,18:24:00,America/Mexico_City, GMT-06
2008-01-28,15.053333333333333,3.94,23.56,0.5,18:24:00,18:24:00,America/Mexico_City, GMT-06
2008-01-29,15.056111111111107,3.85,22.03,0.55,18:25:00,18:25:00,America/Mexico_City, GMT-06
2008-01-30,15.58411764705882,6.88,21.56,0.48,18:26:00,18:26:00,America/Mexico_City, GMT-06
2008-01-31,16.05111111111111,4.92,24.56,0.43,18:26:00,18:26:00,America/Mexico_City, GMT-06
2008-02-01,14.676666666666664,5.93,21.48,0.57,18:27:00,18:27:00,America/Mexico_City, GMT-06
2008-02-02,16.398749999999996,5.42,25.48,0.5,18:27:00,18:27:00,America/Mexico_City, GMT-06
2008-02-03,16.141666666666666,5.93,24.66,0.46,18:28:00,18:28:00,America/Mexico_City, GMT-06
2008-02-04,15.959999999999999,4.93,23.86,0.36,18:28:00,18:28:00,America/Mexico_City, GMT-06
2008-02-05,16.088823529411766,6.76,22.6,0.37,18:29:00,18:29:00,America/Mexico_City, GMT-06
2008-02-06,15.947777777777778,6.56,23.47,0.37,18:30:00,18:30:00,America/Mexico_City, GMT-06
2008-02-07,15.80777777777778,6.91,23.77,0.49,18:30:00,18:30:00,America/Mexico_City, GMT-06
2008-02-08,15.601052631578945,5.71,22.58,0.45,18:31:00,18:31:00,America/Mexico_City, GMT-06
2008-02-09,16.418235294117643,6.92,24.49,0.46,18:31:00,18:31:00,America/Mexico_City, GMT-06
2008-02-10,16.095,7.36,22.63,0.43,18:32:00,18:32:00,America/Mexico_City, GMT-06
2008-02-11,15.162105263157894,7.8,21.8,0.54,18:32:00,18:32:00,America/Mexico_City, GMT-06
2008-02-12,16.201249999999998,6.87,21.84,0.45,18:33:00,18:33:00,America/Mexico_City, GMT-06
2008-02-13,15.596666666666664,9.73,21.48,0.55,18:33:00,18:33:00,America/Mexico_City, GMT-06
2008-02-14,15.952777777777776,6.92,22.66,0.53,18:34:00,18:34:00,America/Mexico_City, GMT-06
2008-02-15,17.185,6.62,25.48,0.41,18:34:00,18:34:00,America/Mexico_City, GMT-06
2008-02-16,18.008333333333333,8.87,24.62,0.4,18:34:00,18:34:00,America/Mexico_City, GMT-06
2008-02-17,18.263888888888886,8.3,24.62,0.35,18:35:00,18:35:00,America/Mexico_City, GMT-06
2008-02-18,18.09941176470588,6.92,24.79,0.35,18:35:00,18:35:00,America/Mexico_City, GMT-06
2008-02-19,17.862352941176468,7.93,24.6,0.45,18:36:00,18:36:00,America/Mexico_City, GMT-06
2008-02-20,17.742631578947368,7.93,26.53,0.46,18:36:00,18:36:00,America/Mexico_City, GMT-06
2008-02-21,17.55222222222222,9.17,23.94,0.43,18:37:00,18:37:00,America/Mexico_City, GMT-06
2008-02-22,18.946666666666665,7.92,27.62,0.37,18:37:00,18:37:00,America/Mexico_City, GMT-06
2008-02-23,19.159999999999997,9.05,26.64,0.38,18:37:00,18:37:00,America/Mexico_City, GMT-06
2008-02-24,19.881764705882354,8.85,26.71,0.26,18:38:00,18:38:00,America/Mexico_City, GMT-06
2008-02-25,19.22941176470588,7.64,27.68,0.25,18:38:00,18:38:00,America/Mexico_City, GMT-06
2008-02-26,17.73875,6.84,26.68,0.36,18:38:00,18:38:00,America/Mexico_City, GMT-06
2008-02-27,13.570555555555554,5.55,20.62,0.55,18:39:00,18:39:00,America/Mexico_City, GMT-06
2008-02-28,14.432352941176466,3.94,22.87,0.56,18:39:00,18:39:00,America/Mexico_City, GMT-06
2008-02-29,16.61210526315789,7.17,25.52,0.48,18:39:00,18:39:00,America/Mexico_City, GMT-06
2008-03-01,18.026874999999997,9.7,24.67,0.38,18:40:00,18:40:00,America/Mexico_City, GMT-06
2008-03-02,17.07133333333333,6.92,22.56,0.52,18:40:00,18:40:00,America/Mexico_City, GMT-06
2008-03-03,17.872352941176473,9.33,23.86,0.46,18:40:00,18:40:00,America/Mexico_City, GMT-06
2008-03-04,18.678823529411762,10.75,24.49,0.38,18:41:00,18:41:00,America/Mexico_City, GMT-06
2008-03-05,18.26722222222222,9.19,23.62,0.37,18:41:00,18:41:00,America/Mexico_City, GMT-06
2008-03-06,16.91117647058823,8.77,23.49,0.35,18:41:00,18:41:00,America/Mexico_City, GMT-06
2008-03-07,16.4678947368421,8.22,21.73,0.26,18:42:00,18:42:00,America/Mexico_City, GMT-06
2008-03-08,13.430624999999997,3.94,20.48,0.44,18:42:00,18:42:00,America/Mexico_City, GMT-06
2008-03-09,14.534705882352938,3.94,20.55,0.44,18:42:00,18:42:00,America/Mexico_City, GMT-06
2008-03-10,16.428823529411762,4.93,23.86,0.37,18:42:00,18:42:00,America/Mexico_City, GMT-06
2008-03-11,16.820588235294117,7.67,24.4,0.41,18:43:00,18:43:00,America/Mexico_City, GMT-06
2008-03-12,16.381666666666664,,,,,,America/Mexico_City,
2008-03-13,17.709444444444443,9.9,23.71,0.5,18:43:00,18:43:00,America/Mexico_City, GMT-06
2008-03-14,18.444,8.57,24.6,0.42,18:43:00,18:43:00,America/Mexico_City, GMT-06
2008-03-15,20.042352941176468,9.74,26.61,0.36,18:44:00,18:44:00,America/Mexico_City, GMT-06
2008-03-16,20.13357142857143,9.63,27.7,0.37,18:44:00,18:44:00,America/Mexico_City, GMT-06
2008-03-17,19.433125,10.29,24.79,0.38,18:44:00,18:44:00,America/Mexico_City, GMT-06
2008-03-18,17.03666666666666,10.92,21.5,0.39,18:44:00,18:44:00,America/Mexico_City, GMT-06
2008-03-19,17.449444444444442,8.37,23.78,0.38,18:45:00,18:45:00,America/Mexico_City, GMT-06
2008-03-20,15.284666666666663,4.93,23.53,0.55,18:45:00,18:45:00,America/Mexico_City, GMT-06
2008-03-21,17.128461538461536,,,,18:45:00,18:45:00,America/Mexico_City, GMT-06
2008-03-22,20.60533333333333,13.17,26.61,0.25,18:45:00,18:45:00,America/Mexico_City, GMT-06
2008-03-23,18.717647058823527,9.92,24.91,0.37,18:46:00,18:46:00,America/Mexico_City, GMT-06
2008-03-24,14.891249999999998,8.67,19.61,0.54,18:46:00,18:46:00,America/Mexico_City, GMT-06
2008-03-25,16.477692307692305,6.27,24.47,0.5,18:46:00,18:46:00,America/Mexico_City, GMT-06
2008-03-26,18.519444444444442,8.33,25.54,0.4,18:46:00,18:46:00,America/Mexico_City, GMT-06
2008-03-27,19.10222222222222,7.92,26.95,0.34,18:47:00,18:47:00,America/Mexico_City, GMT-06
2008-03-28,19.787647058823527,9.47,27.18,0.41,18:47:00,18:47:00,America/Mexico_City, GMT-06
2008-03-29,21.179999999999996,11.47,27.59,0.42,18:47:00,18:47:00,America/Mexico_City, GMT-06
2008-03-30,20.580588235294115,11.71,27.62,0.47,18:47:00,18:47:00,America/Mexico_City, GMT-06
2008-03-31,20.612777777777776,10.68,28.86,0.47,18:47:00,18:47:00,America/Mexico_City, GMT-06
2008-04-01,22.151764705882353,9.88,29.66,0.34,18:48:00,18:48:00,America/Mexico_City, GMT-06
2008-04-02,20.98705882352941,9.35,28.51,0.32,18:48:00,18:48:00,America/Mexico_City, GMT-06
2008-04-03,20.666111111111107,9.1,28.69,0.33,18:48:00,18:48:00,America/Mexico_City, GMT-06
2008-04-04,20.76833333333333,10.07,28.25,0.4,18:48:00,18:48:00,America/Mexico_City, GMT-06
2008-04-05,19.61375,11.61,24.6,0.5,18:49:00,18:49:00,America/Mexico_City, GMT-06
2008-04-06,20.022352941176468,11.93,25.48,0.47,19:49:00,19:49:00,America/Mexico_City, GMT-05
2008-04-07,20.913124999999997,9.86,27.62,0.36,19:49:00,19:49:00,America/Mexico_City, GMT-05
2008-04-08,20.933529411764706,11.32,26.49,0.45,19:49:00,19:49:00,America/Mexico_City, GMT-05
2008-04-09,19.83882352941177,11.67,27.47,0.52,19:50:00,19:50:00,America/Mexico_City, GMT-05
2008-04-10,21.083157894736843,11.56,27.58,0.38,19:50:00,19:50:00,America/Mexico_City, GMT-05
2008-04-11,21.30176470588235,11.87,28.93,0.35,19:50:00,19:50:00,America/Mexico_City, GMT-05
2008-04-12,19.50375,11.92,28.53,0.51,19:50:00,19:50:00,America/Mexico_City, GMT-05
2008-04-13,16.849374999999995,11.93,20.56,0.57,19:51:00,19:51:00,America/Mexico_City, GMT-05
2008-04-14,16.359444444444442,7.93,22.84,0.55,19:51:00,19:51:00,America/Mexico_City, GMT-05
2008-04-15,17.263749999999998,6.66,23.84,0.49,19:51:00,19:51:00,America/Mexico_City, GMT-05
2008-04-16,19.202777777777776,9.92,27.48,0.45,19:51:00,19:51:00,America/Mexico_City, GMT-05
2008-04-17,20.05111111111111,13.64,26.4,0.48,19:52:00,19:52:00,America/Mexico_City, GMT-05
2008-04-18,19.27157894736842,12.01,28.49,0.59,19:52:00,19:52:00,America/Mexico_City, GMT-05
2008-04-19,18.243000000000002,,,,19:52:00,19:52:00,America/Mexico_City, GMT-05
2008-04-20,20.871764705882352,10.94,28.75,0.44,19:53:00,19:53:00,America/Mexico_City, GMT-05
2008-04-21,22.766470588235293,13.87,29.67,0.41,19:53:00,19:53:00,America/Mexico_City, GMT-05
2008-04-22,21.225294117647056,10.86,29.56,0.39,19:53:00,19:53:00,America/Mexico_City, GMT-05
2008-04-23,21.083571428571428,12.5,27.47,0.45,19:54:00,19:54:00,America/Mexico_City, GMT-05
2008-04-24,20.155882352941173,12.72,27.63,0.42,19:54:00,19:54:00,America/Mexico_City, GMT-05
2008-04-25,18.473684210526315,10.55,25.54,0.42,19:54:00,19:54:00,America/Mexico_City, GMT-05
2008-04-26,19.295294117647053,12.93,25.5,0.39,19:55:00,19:55:00,America/Mexico_City, GMT-05
2008-04-27,17.116874999999997,10.92,21.61,0.5,19:55:00,19:55:00,America/Mexico_City, GMT-05
2008-04-28,13.908888888888885,8.93,19.69,0.71,19:55:00,19:55:00,America/Mexico_City, GMT-05
2008-04-29,14.633888888888883,9.47,19.24,0.63,19:56:00,19:56:00,America/Mexico_City, GMT-05
2008-04-30,15.461111111111109,8.93,21.76,0.58,19:56:00,19:56:00,America/Mexico_City, GMT-05
2008-05-01,17.98333333333333,8.17,23.42,0.42,19:56:00,19:56:00,America/Mexico_City, GMT-05
2008-05-02,20.448749999999997,11.09,24.48,0.29,19:57:00,19:57:00,America/Mexico_City, GMT-05
2008-05-03,19.690588235294115,10.9,24.62,0.36,19:57:00,19:57:00,America/Mexico_City, GMT-05
2008-05-04,20.71625,13.93,24.69,0.28,19:57:00,19:57:00,America/Mexico_City, GMT-05
2008-05-05,19.649375,10.79,25.95,0.28,19:58:00,19:58:00,America/Mexico_City, GMT-05
2008-05-06,19.594999999999995,11.15,26.5,0.4,19:58:00,19:58:00,America/Mexico_City, GMT-05
2008-05-07,20.67647058823529,12.93,26.8,0.4,19:58:00,19:58:00,America/Mexico_City, GMT-05
2008-05-08,20.701176470588234,13.93,27.47,0.49,19:59:00,19:59:00,America/Mexico_City, GMT-05
2008-05-09,20.004210526315788,12.93,26.1,0.49,19:59:00,19:59:00,America/Mexico_City, GMT-05
2008-05-10,21.985625,13.64,27.62,0.43,20:00:00,20:00:00,America/Mexico_City, GMT-05
2008-05-11,20.57666666666666,13.71,27.47,0.51,20:00:00,20:00:00,America/Mexico_City, GMT-05
2008-05-12,20.45,10.92,25.96,0.38,20:00:00,20:00:00,America/Mexico_City, GMT-05
2008-05-13,20.1735294117647,12.86,27.17,0.45,20:01:00,20:01:00,America/Mexico_City, GMT-05
2008-05-14,19.853529411764704,13.2,26.02,0.48,20:01:00,20:01:00,America/Mexico_City, GMT-05
2008-05-15,20.243999999999996,12.21,25.93,0.44,20:02:00,20:02:00,America/Mexico_City, GMT-05
2008-05-16,20.76222222222222,12.41,27.05,0.46,20:02:00,20:02:00,America/Mexico_City, GMT-05
2008-05-17,19.045333333333335,12.93,23.59,0.61,20:02:00,20:02:00,America/Mexico_City, GMT-05
2008-05-18,16.91944444444444,12.93,21.04,0.72,20:03:00,20:03:00,America/Mexico_City, GMT-05
2008-05-19,17.66375,13.09,22.49,0.74,20:03:00,20:03:00,America/Mexico_City, GMT-05
2008-05-20,15.365333333333332,12.56,18.71,0.84,20:04:00,20:04:00,America/Mexico_City, GMT-05
2008-05-21,16.634210526315783,12.93,20.78,0.75,20:04:00,20:04:00,America/Mexico_City, GMT-05
2008-05-22,18.340666666666664,14.93,21.98,0.52,20:04:00,20:04:00,America/Mexico_City, GMT-05
2008-05-23,19.25,9.94,26.06,0.46,20:05:00,20:05:00,America/Mexico_City, GMT-05
2008-05-24,20.94833333333333,10.92,26.56,0.37,20:05:00,20:05:00,America/Mexico_City, GMT-05
2008-05-25,21.66705882352941,12.93,27.49,0.4,20:06:00,20:06:00,America/Mexico_City, GMT-05
2008-05-26,18.999333333333333,14.63,23.54,0.68,20:06:00,20:06:00,America/Mexico_City, GMT-05
2008-05-27,19.025882352941178,11.94,25.57,0.59,20:06:00,20:06:00,America/Mexico_City, GMT-05
2008-05-28,17.835263157894733,9.9,24.47,0.51,20:07:00,20:07:00,America/Mexico_City, GMT-05
2008-05-29,17.021363636363635,8.64,25.02,0.47,20:07:00,20:07:00,America/Mexico_City, GMT-05
2008-05-30,18.405,10.01,23.94,0.54,20:07:00,20:07:00,America/Mexico_City, GMT-05
2008-05-31,19.921176470588232,11.5,25.6,0.48,20:08:00,20:08:00,America/Mexico_City, GMT-05
2008-06-01,20.97,12.93,26.5,0.42,20:08:00,20:08:00,America/Mexico_City, GMT-05
2008-06-02,20.03944444444444,11.63,26.55,0.47,20:09:00,20:09:00,America/Mexico_City, GMT-05
2008-06-03,18.32764705882353,10.63,24.48,0.54,20:09:00,20:09:00,America/Mexico_City, GMT-05
2008-06-04,18.599,11.53,25.4,0.64,20:09:00,20:09:00,America/Mexico_City, GMT-05
2008-06-05,16.776666666666664,12.93,21.42,0.83,20:10:00,20:10:00,America/Mexico_City, GMT-05
2008-06-06,17.01222222222222,13.9,22.49,0.83,20:10:00,20:10:00,America/Mexico_City, GMT-05
2008-06-07,17.084374999999998,14.78,20.56,0.84,20:10:00,20:10:00,America/Mexico_City, GMT-05
2008-06-08,17.71117647058823,14.1,21.78,0.75,20:11:00,20:11:00,America/Mexico_City, GMT-05
2008-06-09,17.027647058823526,13.85,20.62,0.81,20:11:00,20:11:00,America/Mexico_City, GMT-05
2008-06-10,15.811249999999998,11.93,19.48,0.84,20:11:00,20:11:00,America/Mexico_City, GMT-05
2008-06-11,16.939999999999994,13.93,21.06,0.8,20:12:00,20:12:00,America/Mexico_City, GMT-05
2008-06-12,16.617894736842103,13.25,21.64,0.82,20:12:00,20:12:00,America/Mexico_City, GMT-05
2008-06-13,16.894210526315785,12.61,21.78,0.76,20:12:00,20:12:00,America/Mexico_City, GMT-05
2008-06-14,15.967499999999996,10.63,21.54,0.69,20:12:00,20:12:00,America/Mexico_City, GMT-05
2008-06-15,16.489999999999995,11.93,20.7,0.65,20:13:00,20:13:00,America/Mexico_City, GMT-05
2008-06-16,15.955555555555552,12.76,20.83,0.76,20:13:00,20:13:00,America/Mexico_City, GMT-05
2008-06-17,17.513749999999998,12.93,23.48,0.61,20:13:00,20:13:00,America/Mexico_City, GMT-05
2008-06-18,16.76368421052631,10.92,22.03,0.78,20:13:00,20:13:00,America/Mexico_City, GMT-05
2008-06-19,18.26888888888889,9.32,23.62,0.47,20:14:00,20:14:00,America/Mexico_City, GMT-05
2008-06-20,17.57222222222222,8.6,24.8,0.43,20:14:00,20:14:00,America/Mexico_City, GMT-05
2008-06-21,17.58764705882353,9.92,23.59,0.47,20:14:00,20:14:00,America/Mexico_City, GMT-05
2008-06-22,16.498749999999994,11.92,22.04,0.67,20:14:00,20:14:00,America/Mexico_City, GMT-05
2008-06-23,15.798888888888886,11.7,20.4,0.67,20:14:00,20:14:00,America/Mexico_City, GMT-05
2008-06-24,16.17894736842105,10.63,20.45,0.58,20:15:00,20:15:00,America/Mexico_City, GMT-05
2008-06-25,16.19058823529412,9.86,21.21,0.55,20:15:00,20:15:00,America/Mexico_City, GMT-05
2008-06-26,16.03882352941176,10.55,22.1,0.62,20:15:00,20:15:00,America/Mexico_City, GMT-05
2008-06-27,16.522777777777776,9.82,22.57,0.64,20:15:00,20:15:00,America/Mexico_City, GMT-05
2008-06-28,16.32833333333333,9.9,23.66,0.65,20:15:00,20:15:00,America/Mexico_City, GMT-05
2008-06-29,16.158499999999997,11.87,19.63,0.7,20:15:00,20:15:00,America/Mexico_City, GMT-05
2008-06-30,16.4835294117647,11.93,19.96,0.66,20:15:00,20:15:00,America/Mexico_City, GMT-05
2008-07-01,15.746111111111112,12.9,19.37,0.79,20:15:00,20:15:00,America/Mexico_City, GMT-05
2008-07-02,16.411111111111108,12.39,20.66,0.7,20:15:00,20:15:00,America/Mexico_City, GMT-05
2008-07-03,16.88533333333333,13.17,20.48,0.72,20:15:00,20:15:00,America/Mexico_City, GMT-05
2008-07-04,16.750625,12.71,21.65,0.72,20:15:00,20:15:00,America/Mexico_City, GMT-05
2008-07-05,17.613076923076918,13.86,22.2,0.7,20:15:00,20:15:00,America/Mexico_City, GMT-05
2008-07-06,16.125263157894732,12.74,19.63,0.77,20:15:00,20:15:00,America/Mexico_City, GMT-05
2008-07-07,14.87833333333333,11.93,19.79,0.87,20:15:00,20:15:00,America/Mexico_City, GMT-05
2008-07-08,14.811428571428568,12.8,18.69,0.89,20:15:00,20:15:00,America/Mexico_City, GMT-05
2008-07-09,15.252777777777775,12.55,17.5,0.76,20:15:00,20:15:00,America/Mexico_City, GMT-05
2008-07-10,16.09722222222222,12.85,19.02,0.64,20:15:00,20:15:00,America/Mexico_City, GMT-05
2008-07-11,15.716874999999998,10.78,19.67,0.69,20:15:00,20:15:00,America/Mexico_City, GMT-05
2008-07-12,15.813157894736838,9.86,21.1,0.67,20:15:00,20:15:00,America/Mexico_City, GMT-05
2008-07-13,15.629999999999995,9.93,20.6,0.65,20:15:00,20:15:00,America/Mexico_City, GMT-05
2008-07-14,17.598125,10.92,21.64,0.57,20:15:00,20:15:00,America/Mexico_City, GMT-05
2008-07-15,17.132631578947368,11.7,23.42,0.65,20:15:00,20:15:00,America/Mexico_City, GMT-05
2008-07-16,16.66333333333333,9.32,22.26,0.6,20:14:00,20:14:00,America/Mexico_City, GMT-05
2008-07-17,15.626111111111108,9.92,21.27,0.67,20:14:00,20:14:00,America/Mexico_City, GMT-05
2008-07-18,16.3978947368421,9.25,22.21,0.56,20:14:00,20:14:00,America/Mexico_City, GMT-05
2008-07-19,17.846666666666664,8.93,24.47,0.49,20:14:00,20:14:00,America/Mexico_City, GMT-05
2008-07-20,16.777777777777775,13.51,19.76,0.59,20:14:00,20:14:00,America/Mexico_City, GMT-05
2008-07-21,17.21333333333333,8.86,22.71,0.4,20:13:00,20:13:00,America/Mexico_City, GMT-05
2008-07-22,15.467894736842101,9.92,19.48,0.73,20:13:00,20:13:00,America/Mexico_City, GMT-05
2008-07-23,15.823529411764703,11.93,20.51,0.76,20:13:00,20:13:00,America/Mexico_City, GMT-05
2008-07-24,15.823888888888884,9.92,21.56,0.7,20:12:00,20:12:00,America/Mexico_City, GMT-05
2008-07-25,16.894999999999996,12.01,21.48,0.65,20:12:00,20:12:00,America/Mexico_City, GMT-05
2008-07-26,14.972105263157891,10.92,18.89,0.7,20:12:00,20:12:00,America/Mexico_City, GMT-05
2008-07-27,15.516363636363629,8.93,22.19,0.69,20:11:00,20:11:00,America/Mexico_City, GMT-05
2008-07-28,16.683888888888887,11.59,23.26,0.68,20:11:00,20:11:00,America/Mexico_City, GMT-05
2008-07-29,15.99176470588235,10.32,20.5,0.72,20:11:00,20:11:00,America/Mexico_City, GMT-05
2008-07-30,15.148888888888889,10.43,20.09,0.8,20:10:00,20:10:00,America/Mexico_City, GMT-05
2008-07-31,17.31833333333333,12.69,20.76,0.69,20:10:00,20:10:00,America/Mexico_City, GMT-05
2008-08-01,17.702941176470592,12.4,23.02,0.67,20:09:00,20:09:00,America/Mexico_City, GMT-05
2008-08-02,16.774117647058823,11.01,20.54,0.63,20:09:00,20:09:00,America/Mexico_City, GMT-05
2008-08-03,16.859999999999996,12.86,21.53,0.65,20:08:00,20:08:00,America/Mexico_City, GMT-05
2008-08-04,17.51684210526316,11.93,22.58,0.6,20:08:00,20:08:00,America/Mexico_City, GMT-05
2008-08-05,16.905263157894733,11.78,22.79,0.62,20:07:00,20:07:00,America/Mexico_City, GMT-05
2008-08-06,15.979411764705882,10.92,21.49,0.67,20:07:00,20:07:00,America/Mexico_City, GMT-05
2008-08-07,16.63,11.63,23.65,0.66,20:06:00,20:06:00,America/Mexico_City, GMT-05
2008-08-08,17.249374999999997,10.55,24.11,0.65,20:06:00,20:06:00,America/Mexico_City, GMT-05
2008-08-09,17.132352941176467,10.47,23.2,0.58,20:05:00,20:05:00,America/Mexico_City, GMT-05
2008-08-10,17.208666666666666,10.92,22.91,0.73,20:05:00,20:05:00,America/Mexico_City, GMT-05
2008-08-11,16.769444444444442,12.93,21.73,0.78,20:04:00,20:04:00,America/Mexico_City, GMT-05
2008-08-12,16.156666666666663,10.63,21.24,0.71,20:03:00,20:03:00,America/Mexico_City, GMT-05
2008-08-13,17.175624999999997,12.89,22.78,0.67,20:03:00,20:03:00,America/Mexico_City, GMT-05
2008-08-14,17.202777777777772,10.92,23.09,0.62,20:02:00,20:02:00,America/Mexico_City, GMT-05
2008-08-15,16.91333333333333,11.89,21.18,0.72,20:01:00,20:01:00,America/Mexico_City, GMT-05
2008-08-16,17.005555555555553,12.78,21.58,0.73,20:01:00,20:01:00,America/Mexico_City, GMT-05
2008-08-17,16.67571428571428,12.93,22.56,0.77,20:00:00,20:00:00,America/Mexico_City, GMT-05
2008-08-18,17.01157894736842,11.63,21.94,0.72,19:59:00,19:59:00,America/Mexico_City, GMT-05
2008-08-19,17.70529411764706,12.93,21.43,0.72,19:59:00,19:59:00,America/Mexico_City, GMT-05
2008-08-20,16.811052631578946,12.93,21.4,0.78,19:58:00,19:58:00,America/Mexico_City, GMT-05
2008-08-21,17.4178947368421,11.93,21.33,0.71,19:57:00,19:57:00,America/Mexico_City, GMT-05
2008-08-22,16.44111111111111,11.87,21.71,0.74,19:56:00,19:56:00,America/Mexico_City, GMT-05
2008-08-23,17.87333333333333,11.93,21.8,0.67,19:56:00,19:56:00,America/Mexico_City, GMT-05
2008-08-24,17.675555555555555,11.66,23.94,0.68,19:55:00,19:55:00,America/Mexico_City, GMT-05
2008-08-25,17.248888888888885,11.93,21.97,0.8,19:54:00,19:54:00,America/Mexico_City, GMT-05
2008-08-26,16.983888888888885,11.92,20.98,0.79,19:53:00,19:53:00,America/Mexico_City, GMT-05
2008-08-27,17.45157894736842,11.92,21.78,0.67,19:53:00,19:53:00,America/Mexico_City, GMT-05
2008-08-28,17.027894736842104,12.48,22.94,0.74,19:52:00,19:52:00,America/Mexico_City, GMT-05
2008-08-29,16.576249999999998,12.93,20.36,0.7,19:51:00,19:51:00,America/Mexico_City, GMT-05
2008-08-30,17.454117647058823,12.72,22.65,0.67,19:50:00,19:50:00,America/Mexico_City, GMT-05
2008-08-31,16.57944444444444,9.84,22.18,0.66,19:49:00,19:49:00,America/Mexico_City, GMT-05
2008-09-01,17.47333333333333,11.59,22.52,0.68,19:49:00,19:49:00,America/Mexico_City, GMT-05
2008-09-02,17.739444444444445,13.68,23.48,0.73,19:48:00,19:48:00,America/Mexico_City, GMT-05
2008-09-03,16.673999999999996,11.79,21.8,0.74,19:47:00,19:47:00,America/Mexico_City, GMT-05
2008-09-04,17.167777777777776,12.83,22.58,0.74,19:46:00,19:46:00,America/Mexico_City, GMT-05
2008-09-05,15.882631578947368,9.9,22.49,0.72,19:45:00,19:45:00,America/Mexico_City, GMT-05
2008-09-06,15.856470588235291,10.93,21.52,0.66,19:44:00,19:44:00,America/Mexico_City, GMT-05
2008-09-07,14.41666666666666,12.84,17.24,0.85,19:43:00,19:43:00,America/Mexico_City, GMT-05
2008-09-08,16.108888888888885,12.83,18.78,0.81,19:42:00,19:42:00,America/Mexico_City, GMT-05
2008-09-09,17.42375,13.76,20.85,0.77,19:42:00,19:42:00,America/Mexico_City, GMT-05
2008-09-10,18.02611111111111,13.73,24.55,0.73,19:41:00,19:41:00,America/Mexico_City, GMT-05
2008-09-11,17.749999999999996,12.74,22.65,0.75,19:40:00,19:40:00,America/Mexico_City, GMT-05
2008-09-12,18.329999999999995,14.78,22.98,0.76,19:39:00,19:39:00,America/Mexico_City, GMT-05
2008-09-13,18.29888888888889,13.71,23.91,0.73,19:38:00,19:38:00,America/Mexico_City, GMT-05
2008-09-14,15.668823529411762,12.83,18.79,0.8,19:37:00,19:37:00,America/Mexico_City, GMT-05
2008-09-15,15.863749999999996,11.77,19.01,0.72,19:36:00,19:36:00,America/Mexico_City, GMT-05
2008-09-16,15.04705882352941,9.92,20.29,0.8,19:35:00,19:35:00,America/Mexico_City, GMT-05
2008-09-17,16.047647058823525,10.85,20.29,0.7,19:34:00,19:34:00,America/Mexico_City, GMT-05
2008-09-18,16.077777777777772,12.47,21.64,0.74,19:34:00,19:34:00,America/Mexico_City, GMT-05
2008-09-19,16.15470588235294,10.92,22.52,0.68,19:33:00,19:33:00,America/Mexico_City, GMT-05
2008-09-20,16.882352941176467,11.78,22.61,0.66,19:32:00,19:32:00,America/Mexico_City, GMT-05
2008-09-21,16.79647058823529,12.93,20.73,0.7,19:31:00,19:31:00,America/Mexico_City, GMT-05
2008-09-22,17.345,12.93,22.49,0.69,19:30:00,19:30:00,America/Mexico_City, GMT-05
2008-09-23,17.43705882352941,13.93,22.11,0.71,19:29:00,19:29:00,America/Mexico_City, GMT-05
2008-09-24,16.814999999999998,12.93,20.95,0.67,19:28:00,19:28:00,America/Mexico_City, GMT-05
2008-09-25,16.18333333333333,13.78,19.72,0.74,19:27:00,19:27:00,America/Mexico_City, GMT-05
2008-09-26,15.77944444444444,11.4,19.72,0.64,19:26:00,19:26:00,America/Mexico_City, GMT-05
2008-09-27,15.85,9.92,19.61,0.7,19:25:00,19:25:00,America/Mexico_City, GMT-05
2008-09-28,16.825882352941175,12.8,21.41,0.65,19:25:00,19:25:00,America/Mexico_City, GMT-05
2008-09-29,15.714999999999996,7.92,22.56,0.56,19:24:00,19:24:00,America/Mexico_City, GMT-05
2008-09-30,15.95833333333333,8.28,22.65,0.48,19:23:00,19:23:00,America/Mexico_City, GMT-05
2008-10-01,15.957058823529408,6.55,22.77,0.39,19:22:00,19:22:00,America/Mexico_City, GMT-05
2008-10-02,15.147222222222219,6.92,21.78,0.44,19:21:00,19:21:00,America/Mexico_City, GMT-05
2008-10-03,15.794444444444443,8.9,20.77,0.48,19:20:00,19:20:00,America/Mexico_City, GMT-05
2008-10-04,15.938888888888885,11.85,19.78,0.64,19:19:00,19:19:00,America/Mexico_City, GMT-05
2008-10-05,16.383529411764705,9.92,21.24,0.63,19:19:00,19:19:00,America/Mexico_City, GMT-05
2008-10-06,16.48473684210526,8.84,23.84,0.61,19:18:00,19:18:00,America/Mexico_City, GMT-05
2008-10-07,15.564210526315785,9.87,20.76,0.75,19:17:00,19:17:00,America/Mexico_City, GMT-05
2008-10-08,17.58333333333333,12.93,23.24,0.6,19:16:00,19:16:00,America/Mexico_City, GMT-05
2008-10-09,18.01764705882353,12.93,23.87,0.53,19:15:00,19:15:00,America/Mexico_City, GMT-05
2008-10-10,16.992499999999996,11.63,21.59,0.61,19:14:00,19:14:00,America/Mexico_City, GMT-05
2008-10-11,17.08333333333333,11.93,20.56,0.68,19:14:00,19:14:00,America/Mexico_City, GMT-05
2008-10-12,17.78529411764706,11.93,22.63,0.65,19:13:00,19:13:00,America/Mexico_City, GMT-05
2008-10-13,16.622941176470583,10.92,21.88,0.58,19:12:00,19:12:00,America/Mexico_City, GMT-05
2008-10-14,15.037058823529408,7.93,20.48,0.51,19:11:00,19:11:00,America/Mexico_City, GMT-05
2008-10-15,16.212222222222223,6.92,22.81,0.56,19:11:00,19:11:00,America/Mexico_City, GMT-05
2008-10-16,16.426666666666662,9.92,21.49,0.6,19:10:00,19:10:00,America/Mexico_City, GMT-05
2008-10-17,15.891111111111108,12.81,19.85,0.6,19:09:00,19:09:00,America/Mexico_City, GMT-05
2008-10-18,16.214999999999996,12.25,20.35,0.52,19:09:00,19:09:00,America/Mexico_City, GMT-05
2008-10-19,14.806111111111107,11.78,17.55,0.63,19:08:00,19:08:00,America/Mexico_City, GMT-05
2008-10-20,16.680555555555557,10.63,22.37,0.53,19:07:00,19:07:00,America/Mexico_City, GMT-05
2008-10-21,15.259999999999998,6.4,22.96,0.41,19:07:00,19:07:00,America/Mexico_City, GMT-05
2008-10-22,16.21117647058823,5.93,22.01,0.44,19:06:00,19:06:00,America/Mexico_City, GMT-05
2008-10-23,16.85222222222222,7.94,24.33,0.32,19:05:00,19:05:00,America/Mexico_City, GMT-05
2008-10-24,15.833529411764706,7.93,23.14,0.48,19:05:00,19:05:00,America/Mexico_City, GMT-05
2008-10-25,16.691176470588236,6.92,24.36,0.56,19:04:00,19:04:00,America/Mexico_City, GMT-05
2008-10-26,15.98111111111111,6.63,22.58,0.44,18:03:00,18:03:00,America/Mexico_City, GMT-06
2008-10-27,13.509999999999998,10.92,16.91,0.6,18:03:00,18:03:00,America/Mexico_City, GMT-06
2008-10-28,12.503529411764704,8.56,16.69,0.54,18:02:00,18:02:00,America/Mexico_City, GMT-06
2008-10-29,13.019999999999998,3.94,21.78,0.39,18:02:00,18:02:00,America/Mexico_City, GMT-06
2008-10-30,14.154999999999998,3.94,22.71,0.46,18:01:00,18:01:00,America/Mexico_City, GMT-06
2008-10-31,14.904444444444444,6.7,23.1,0.46,18:01:00,18:01:00,America/Mexico_City, GMT-06
2008-11-01,13.680526315789473,6.63,20.2,0.59,18:00:00,18:00:00,America/Mexico_City, GMT-06
2008-11-02,13.908888888888887,4.93,20.94,0.42,18:00:00,18:00:00,America/Mexico_City, GMT-06
2008-11-03,13.631666666666666,3.94,21.55,0.53,17:59:00,17:59:00,America/Mexico_City, GMT-06
2008-11-04,14.592941176470584,4.93,20.86,0.5,17:59:00,17:59:00,America/Mexico_City, GMT-06
2008-11-05,14.801111111111108,5.68,22.32,0.51,17:59:00,17:59:00,America/Mexico_City, GMT-06
2008-11-06,15.573529411764707,7.17,23.27,0.5,17:58:00,17:58:00,America/Mexico_City, GMT-06
2008-11-07,15.521666666666663,7.65,20.54,0.48,17:58:00,17:58:00,America/Mexico_City, GMT-06
2008-11-08,15.593749999999996,6.92,21.48,0.48,17:58:00,17:58:00,America/Mexico_City, GMT-06
2008-11-09,14.80533333333333,5.86,21.09,0.53,17:57:00,17:57:00,America/Mexico_City, GMT-06
2008-11-10,15.455882352941174,8.92,20.54,0.62,17:57:00,17:57:00,America/Mexico_City, GMT-06
2008-11-11,16.276875,7.58,23.02,0.57,17:57:00,17:57:00,America/Mexico_City, GMT-06
2008-11-12,15.125294117647055,8.33,19.48,0.6,17:56:00,17:56:00,America/Mexico_City, GMT-06
2008-11-13,15.07111111111111,6.92,21.71,0.48,17:56:00,17:56:00,America/Mexico_City, GMT-06
2008-11-14,13.851666666666665,5.93,20.99,0.52,17:56:00,17:56:00,America/Mexico_City, GMT-06
2008-11-15,12.536470588235293,6.92,18.07,0.53,17:56:00,17:56:00,America/Mexico_City, GMT-06
2008-11-16,11.762222222222219,2.92,19.32,0.59,17:56:00,17:56:00,America/Mexico_City, GMT-06
2008-11-17,13.118124999999997,1.92,21.01,0.51,17:55:00,17:55:00,America/Mexico_City, GMT-06
2008-11-18,12.97142857142857,4.93,21.75,0.41,17:55:00,17:55:00,America/Mexico_City, GMT-06
2008-11-19,11.318888888888885,1.93,19.65,0.46,17:55:00,17:55:00,America/Mexico_City, GMT-06
2008-11-20,11.963888888888885,2.77,20.09,0.46,17:55:00,17:55:00,America/Mexico_City, GMT-06
2008-11-21,11.226470588235292,3.94,18.22,0.59,17:55:00,17:55:00,America/Mexico_City, GMT-06
2008-11-22,13.259374999999999,5.37,19.02,0.51,17:55:00,17:55:00,America/Mexico_City, GMT-06
2008-11-23,12.235294117647058,3.94,19.01,0.57,17:55:00,17:55:00,America/Mexico_City, GMT-06
2008-11-24,15.115624999999996,4.93,23.17,0.47,17:55:00,17:55:00,America/Mexico_City, GMT-06
2008-11-25,13.905555555555553,7.16,20.53,0.56,17:55:00,17:55:00,America/Mexico_City, GMT-06
2008-11-26,14.054705882352938,4.63,20.98,0.53,17:55:00,17:55:00,America/Mexico_City, GMT-06
2008-11-27,15.33882352941176,5.86,23.14,0.5,17:55:00,17:55:00,America/Mexico_City, GMT-06
2008-11-28,15.024999999999999,6.4,22.1,0.49,17:55:00,17:55:00,America/Mexico_City, GMT-06
2008-11-29,14.244705882352939,7.7,19.5,0.63,17:55:00,17:55:00,America/Mexico_City, GMT-06
2008-11-30,12.901666666666664,6.72,17.94,0.64,17:55:00,17:55:00,America/Mexico_City, GMT-06
2008-12-01,13.151874999999997,4.86,19.39,0.52,17:55:00,17:55:00,America/Mexico_City, GMT-06
2008-12-02,13.178823529411762,4.93,19.99,0.48,17:56:00,17:56:00,America/Mexico_City, GMT-06
2008-12-03,11.667777777777777,1.58,19.57,0.42,17:56:00,17:56:00,America/Mexico_City, GMT-06
2008-12-04,12.402941176470586,2.59,20.48,0.38,17:56:00,17:56:00,America/Mexico_City, GMT-06
2008-12-05,12.211111111111109,2.7,19.64,0.46,17:56:00,17:56:00,America/Mexico_City, GMT-06
2008-12-06,13.791666666666664,3.85,23.03,0.47,17:56:00,17:56:00,America/Mexico_City, GMT-06
2008-12-07,13.918235294117645,3.88,20.48,0.47,17:57:00,17:57:00,America/Mexico_City, GMT-06
2008-12-08,12.622777777777777,4.73,19.01,0.56,17:57:00,17:57:00,America/Mexico_City, GMT-06
2008-12-09,11.778888888888885,5.48,17.49,0.64,17:57:00,17:57:00,America/Mexico_City, GMT-06
2008-12-10,12.535294117647057,4.91,17.6,0.55,17:57:00,17:57:00,America/Mexico_City, GMT-06
2008-12-11,12.324210526315788,3.94,19.5,0.48,17:58:00,17:58:00,America/Mexico_City, GMT-06
2008-12-12,12.999444444444443,4.83,19.94,0.41,17:58:00,17:58:00,America/Mexico_City, GMT-06
2008-12-13,11.005882352941175,1.66,19.16,0.54,17:58:00,17:58:00,America/Mexico_City, GMT-06
2008-12-14,13.701764705882354,3.94,20.94,0.49,17:59:00,17:59:00,America/Mexico_City, GMT-06
2008-12-15,15.238333333333332,4.74,25.1,0.42,17:59:00,17:59:00,America/Mexico_City, GMT-06
2008-12-16,13.678124999999998,5.33,20.94,0.31,18:00:00,18:00:00,America/Mexico_City, GMT-06
2008-12-17,14.078235294117647,2.92,22.1,0.39,18:00:00,18:00:00,America/Mexico_City, GMT-06
2008-12-18,15.334117647058823,4.69,23.7,0.39,18:01:00,18:01:00,America/Mexico_City, GMT-06
2008-12-19,16.09941176470588,2.93,25.13,0.27,18:01:00,18:01:00,America/Mexico_City, GMT-06
2008-12-20,14.73176470588235,2.88,21.56,0.19,18:01:00,18:01:00,America/Mexico_City, GMT-06
2008-12-21,15.284374999999999,2.33,23.5,0.27,18:02:00,18:02:00,America/Mexico_City, GMT-06
2008-12-22,13.214374999999997,7.7,16.89,0.51,18:02:00,18:02:00,America/Mexico_City, GMT-06
2008-12-23,12.893529411764703,3.92,19.61,0.47,18:03:00,18:03:00,America/Mexico_City, GMT-06
2008-12-24,13.755294117647056,3.08,24.5,0.4,18:03:00,18:03:00,America/Mexico_City, GMT-06
2008-12-25,14.113529411764702,4.93,19.82,0.33,18:04:00,18:04:00,America/Mexico_City, GMT-06
2008-12-26,13.865624999999998,1.93,18.82,0.4,18:04:00,18:04:00,America/Mexico_City, GMT-06
2008-12-27,14.185,4.4,21.23,0.38,18:05:00,18:05:00,America/Mexico_City, GMT-06
2008-12-28,15.326470588235292,5.48,21.91,0.38,18:06:00,18:06:00,America/Mexico_City, GMT-06
2008-12-29,14.527499999999998,6.81,19.56,0.48,18:06:00,18:06:00,America/Mexico_City, GMT-06
2008-12-30,13.795882352941176,6.7,18.98,0.48,18:07:00,18:07:00,America/Mexico_City, GMT-06
2008-12-31,14.469999999999999,7.75,20.4,0.45,18:07:00,18:07:00,America/Mexico_City, GMT-06
