date,avg_temperature,min_temperature,max_temperature,humidity,sunrise_time,sunset_time,time_zone,gmt_zone
2018-01-01,25.083888888888893,19.8,29.64,0.62,17:52:00,17:52:00,America/Mexico_City, GMT-06
2018-01-02,22.186842105263157,17.75,26.45,0.63,17:53:00,17:53:00,America/Mexico_City, GMT-06
2018-01-03,21.45045454545454,15.67,27.46,0.67,17:53:00,17:53:00,America/Mexico_City, GMT-06
2018-01-04,20.30249999999999,17.88,23.59,0.65,17:54:00,17:54:00,America/Mexico_City, GMT-06
2018-01-05,21.34499999999999,16.75,28.48,0.61,17:54:00,17:54:00,America/Mexico_City, GMT-06
2018-01-06,20.255454545454544,2.88,28.51,0.66,17:55:00,17:55:00,America/Mexico_City, GMT-06
2018-01-07,20.966499999999996,10.88,28.61,0.54,17:56:00,17:56:00,America/Mexico_City, GMT-06
2018-01-08,20.966363636363642,9.88,30.66,0.6,17:56:00,17:56:00,America/Mexico_City, GMT-06
2018-01-09,22.526,13.88,29.44,0.54,17:57:00,17:57:00,America/Mexico_City, GMT-06
2018-01-10,22.1525,10.88,31.84,0.54,17:57:00,17:57:00,America/Mexico_City, GMT-06
2018-01-11,22.52166666666667,8.89,33.56,0.46,17:58:00,17:58:00,America/Mexico_City, GMT-06
2018-01-12,20.461999999999993,13.3,26.68,0.61,17:59:00,17:59:00,America/Mexico_City, GMT-06
2018-01-13,19.556842105263147,13.88,24.42,0.59,17:59:00,17:59:00,America/Mexico_City, GMT-06
2018-01-14,19.981578947368416,10.88,25.55,0.47,18:00:00,18:00:00,America/Mexico_City, GMT-06
2018-01-15,18.415499999999994,7.88,25.55,0.54,18:00:00,18:00:00,America/Mexico_City, GMT-06
2018-01-16,18.880999999999993,11.61,25.77,0.59,18:01:00,18:01:00,America/Mexico_City, GMT-06
2018-01-17,21.203157894736837,17.73,26.43,0.56,18:02:00,18:02:00,America/Mexico_City, GMT-06
2018-01-18,19.816666666666656,14.88,24.57,0.63,18:02:00,18:02:00,America/Mexico_City, GMT-06
2018-01-19,20.245263157894733,12.88,28.42,0.67,18:03:00,18:03:00,America/Mexico_City, GMT-06
2018-01-20,21.827499999999993,13.88,29.46,0.66,18:03:00,18:03:00,America/Mexico_City, GMT-06
2018-01-21,23.877999999999997,14.88,32.44,0.61,18:04:00,18:04:00,America/Mexico_City, GMT-06
2018-01-22,26.013499999999993,15.88,34.63,0.57,18:05:00,18:05:00,America/Mexico_City, GMT-06
2018-01-23,26.800588235294114,22.89,32.46,0.57,18:05:00,18:05:00,America/Mexico_City, GMT-06
2018-01-24,24.066111111111116,21.89,28.42,0.59,18:06:00,18:06:00,America/Mexico_City, GMT-06
2018-01-25,22.957222222222224,18.88,28.42,0.65,18:06:00,18:06:00,America/Mexico_City, GMT-06
2018-01-26,23.257368421052632,14.88,30.46,0.65,18:07:00,18:07:00,America/Mexico_City, GMT-06
2018-01-27,24.324499999999997,14.88,30.59,0.6,18:07:00,18:07:00,America/Mexico_City, GMT-06
2018-01-28,25.181499999999993,18.88,29.59,0.6,18:08:00,18:08:00,America/Mexico_City, GMT-06
2018-01-29,22.72421052631579,18.74,25.62,0.7,18:08:00,18:08:00,America/Mexico_City, GMT-06
2018-01-30,19.813684210526308,16.88,22.44,0.61,18:09:00,18:09:00,America/Mexico_City, GMT-06
2018-01-31,20.841052631578943,15.88,25.57,0.63,18:10:00,18:10:00,America/Mexico_City, GMT-06
2018-02-01,22.933,12.88,33,0.59,18:10:00,18:10:00,America/Mexico_City, GMT-06
2018-02-02,24.292499999999993,14.88,29.44,0.6,18:11:00,18:11:00,America/Mexico_City, GMT-06
2018-02-03,24.2535,9.88,30.76,0.63,18:11:00,18:11:00,America/Mexico_City, GMT-06
2018-02-04,25.596999999999998,11.74,35.42,0.59,18:12:00,18:12:00,America/Mexico_City, GMT-06
2018-02-05,25.443999999999996,15.88,33.44,0.58,18:12:00,18:12:00,America/Mexico_City, GMT-06
2018-02-06,26.264999999999997,16.82,34.78,0.58,18:13:00,18:13:00,America/Mexico_City, GMT-06
2018-02-07,26.825499999999995,15.88,34.85,0.54,18:13:00,18:13:00,America/Mexico_City, GMT-06
2018-02-08,26.232105263157894,19.88,32.44,0.6,18:13:00,18:13:00,America/Mexico_City, GMT-06
2018-02-09,25.531052631578945,19.88,31.65,0.56,18:14:00,18:14:00,America/Mexico_City, GMT-06
2018-02-10,25.920476190476187,15.88,34.46,0.57,18:14:00,18:14:00,America/Mexico_City, GMT-06
2018-02-11,28.885555555555552,19.88,35.42,0.44,18:15:00,18:15:00,America/Mexico_City, GMT-06
2018-02-12,27.115,18.88,32.57,0.56,18:15:00,18:15:00,America/Mexico_City, GMT-06
2018-02-13,26.806315789473683,20.88,32.51,0.53,18:16:00,18:16:00,America/Mexico_City, GMT-06
2018-02-14,27.34699999999999,17.88,34.76,0.43,18:16:00,18:16:00,America/Mexico_City, GMT-06
2018-02-15,24.762499999999996,2.85,34.59,0.57,18:16:00,18:16:00,America/Mexico_City, GMT-06
2018-02-16,26.033999999999992,14.88,34.46,0.52,18:17:00,18:17:00,America/Mexico_City, GMT-06
2018-02-17,26.243499999999994,16.88,33.58,0.54,18:17:00,18:17:00,America/Mexico_City, GMT-06
2018-02-18,26.342499999999994,17.88,33.63,0.54,18:17:00,18:17:00,America/Mexico_City, GMT-06
2018-02-19,27.252999999999997,17.88,35.61,0.51,18:18:00,18:18:00,America/Mexico_City, GMT-06
2018-02-20,27.621999999999996,17.88,35.44,0.49,18:18:00,18:18:00,America/Mexico_City, GMT-06
2018-02-21,28.057,15.88,36.45,0.44,18:19:00,18:19:00,America/Mexico_City, GMT-06
2018-02-22,27.611499999999996,19.88,35.42,0.54,18:19:00,18:19:00,America/Mexico_City, GMT-06
2018-02-23,26.813499999999994,16.88,34.44,0.52,18:19:00,18:19:00,America/Mexico_City, GMT-06
2018-02-24,28.453157894736837,16.88,36.53,0.47,18:19:00,18:19:00,America/Mexico_City, GMT-06
2018-02-25,28.706666666666667,17.88,36.43,0.46,18:20:00,18:20:00,America/Mexico_City, GMT-06
2018-02-26,28.817499999999995,20.88,35.54,0.42,18:20:00,18:20:00,America/Mexico_City, GMT-06
2018-02-27,27.903684210526315,17.88,36.5,0.45,18:20:00,18:20:00,America/Mexico_City, GMT-06
2018-02-28,27.810999999999996,16.88,35.49,0.45,18:21:00,18:21:00,America/Mexico_City, GMT-06
2018-03-01,28.248499999999996,16.88,36.43,0.42,18:21:00,18:21:00,America/Mexico_City, GMT-06
2018-03-02,28.32166666666666,21.89,33.56,0.51,18:21:00,18:21:00,America/Mexico_City, GMT-06
2018-03-03,26.856499999999993,22.89,32.59,0.55,18:21:00,18:21:00,America/Mexico_City, GMT-06
2018-03-04,27.929444444444435,16.88,35.42,0.5,18:22:00,18:22:00,America/Mexico_City, GMT-06
2018-03-05,28.235999999999997,17.88,37.45,0.44,18:22:00,18:22:00,America/Mexico_City, GMT-06
2018-03-06,28.674500000000002,16.88,37.86,0.41,18:22:00,18:22:00,America/Mexico_City, GMT-06
2018-03-07,26.6025,7.86,33.56,0.54,18:22:00,18:22:00,America/Mexico_City, GMT-06
2018-03-08,26.554999999999996,18.88,33.46,0.5,18:22:00,18:22:00,America/Mexico_City, GMT-06
2018-03-09,27.591999999999995,16.88,36.49,0.5,18:23:00,18:23:00,America/Mexico_City, GMT-06
2018-03-10,29.1135,17.88,38.42,0.42,18:23:00,18:23:00,America/Mexico_City, GMT-06
2018-03-11,30.230999999999987,17.88,39.43,0.36,18:23:00,18:23:00,America/Mexico_City, GMT-06
2018-03-12,28.76473684210526,20.88,33.58,0.5,18:23:00,18:23:00,America/Mexico_City, GMT-06
2018-03-13,27.31649999999999,22.89,33.44,0.54,18:23:00,18:23:00,America/Mexico_City, GMT-06
2018-03-14,26.451999999999998,22.74,31.43,0.58,18:24:00,18:24:00,America/Mexico_City, GMT-06
2018-03-15,27.463,20.88,36.61,0.53,18:24:00,18:24:00,America/Mexico_City, GMT-06
2018-03-16,28.627999999999993,19.88,38.61,0.51,18:24:00,18:24:00,America/Mexico_City, GMT-06
2018-03-17,30.11049999999999,18.88,39.45,0.45,18:24:00,18:24:00,America/Mexico_City, GMT-06
2018-03-18,30.89368421052631,20.88,39.49,0.39,18:24:00,18:24:00,America/Mexico_City, GMT-06
2018-03-19,29.045499999999993,18.88,36.51,0.4,18:25:00,18:25:00,America/Mexico_City, GMT-06
2018-03-20,29.239499999999992,19.88,38.45,0.46,18:25:00,18:25:00,America/Mexico_City, GMT-06
2018-03-21,29.4195,22.89,35.42,0.47,18:25:00,18:25:00,America/Mexico_City, GMT-06
2018-03-22,28.849999999999994,20.88,34.46,0.47,18:25:00,18:25:00,America/Mexico_City, GMT-06
2018-03-23,28.224499999999995,23.56,34.71,0.5,18:25:00,18:25:00,America/Mexico_City, GMT-06
2018-03-24,28.601999999999993,18.88,36.73,0.45,18:25:00,18:25:00,America/Mexico_City, GMT-06
2018-03-25,29.601999999999997,20.88,37.47,0.45,18:25:00,18:25:00,America/Mexico_City, GMT-06
2018-03-26,30.786315789473676,19.88,39.61,0.45,18:26:00,18:26:00,America/Mexico_City, GMT-06
2018-03-27,30.797999999999995,20.88,38.55,0.43,18:26:00,18:26:00,America/Mexico_City, GMT-06
2018-03-28,30.998499999999996,20.88,39.68,0.4,18:26:00,18:26:00,America/Mexico_City, GMT-06
2018-03-29,30.623499999999996,21.89,37.7,0.41,18:26:00,18:26:00,America/Mexico_City, GMT-06
2018-03-30,28.256999999999994,23.87,33.46,0.57,18:26:00,18:26:00,America/Mexico_City, GMT-06
2018-03-31,26.43578947368421,22.74,32.76,0.59,18:26:00,18:26:00,America/Mexico_City, GMT-06
2018-04-01,28.4378947368421,22.74,35.54,0.5,19:27:00,19:27:00,America/Mexico_City, GMT-05
2018-04-02,29.70199999999999,22.72,37.45,0.45,19:27:00,19:27:00,America/Mexico_City, GMT-05
2018-04-03,29.924285714285702,21.89,36.66,0.44,19:27:00,19:27:00,America/Mexico_City, GMT-05
2018-04-04,29.14857142857142,18.88,37.45,0.48,19:27:00,19:27:00,America/Mexico_City, GMT-05
2018-04-05,29.251499999999993,23.86,36.5,0.48,19:27:00,19:27:00,America/Mexico_City, GMT-05
2018-04-06,28.60571428571428,23.87,36.47,0.55,19:27:00,19:27:00,America/Mexico_City, GMT-05
2018-04-07,29.344736842105256,19.88,36.49,0.51,19:28:00,19:28:00,America/Mexico_City, GMT-05
2018-04-08,28.114285714285707,8.88,37.47,0.55,19:28:00,19:28:00,America/Mexico_City, GMT-05
2018-04-09,28.399047619047607,4.89,39.15,0.54,19:28:00,19:28:00,America/Mexico_City, GMT-05
2018-04-10,28.193499999999993,2.87,37.45,0.55,19:28:00,19:28:00,America/Mexico_City, GMT-05
2018-04-11,27.519473684210528,23.87,31.55,0.56,19:28:00,19:28:00,America/Mexico_City, GMT-05
2018-04-12,28.46199999999999,23.8,33.73,0.52,19:29:00,19:29:00,America/Mexico_City, GMT-05
2018-04-13,29.389999999999986,20.88,36.43,0.46,19:29:00,19:29:00,America/Mexico_City, GMT-05
2018-04-14,27.756999999999994,0.89,36.08,0.51,19:29:00,19:29:00,America/Mexico_City, GMT-05
2018-04-15,25.38789473684211,21.89,29.55,0.56,19:29:00,19:29:00,America/Mexico_City, GMT-05
2018-04-16,24.460952380952385,17.88,31.43,0.47,19:29:00,19:29:00,America/Mexico_City, GMT-05
2018-04-17,25.389999999999993,17.66,34.44,0.48,19:30:00,19:30:00,America/Mexico_City, GMT-05
2018-04-18,28.935999999999996,17.88,37.67,0.45,19:30:00,19:30:00,America/Mexico_City, GMT-05
2018-04-19,28.885238095238087,22.89,33.51,0.54,19:30:00,19:30:00,America/Mexico_City, GMT-05
2018-04-20,28.724761904761902,23.58,36.57,0.52,19:30:00,19:30:00,America/Mexico_City, GMT-05
2018-04-21,29.87749999999999,20.88,37.65,0.47,19:30:00,19:30:00,America/Mexico_City, GMT-05
2018-04-22,30.45285714285713,25.27,37.72,0.52,19:31:00,19:31:00,America/Mexico_City, GMT-05
2018-04-23,29.517142857142847,22.67,36.43,0.56,19:31:00,19:31:00,America/Mexico_City, GMT-05
2018-04-24,30.135714285714275,22.89,37.51,0.53,19:31:00,19:31:00,America/Mexico_City, GMT-05
2018-04-25,29.92428571428571,24.88,36.63,0.53,19:32:00,19:32:00,America/Mexico_City, GMT-05
2018-04-26,27.938499999999998,23.87,34.56,0.64,19:32:00,19:32:00,America/Mexico_City, GMT-05
2018-04-27,28.315714285714286,20.88,35.57,0.55,19:32:00,19:32:00,America/Mexico_City, GMT-05
2018-04-28,29.221499999999992,22.89,36.68,0.5,19:32:00,19:32:00,America/Mexico_City, GMT-05
2018-04-29,28.908571428571424,22.67,36.46,0.54,19:33:00,19:33:00,America/Mexico_City, GMT-05
2018-04-30,29.859999999999985,22.76,36.63,0.53,19:33:00,19:33:00,America/Mexico_City, GMT-05
2018-05-01,31.019499999999994,23.81,39.61,0.49,19:33:00,19:33:00,America/Mexico_City, GMT-05
2018-05-02,30.365999999999993,22.59,38.42,0.49,19:33:00,19:33:00,America/Mexico_City, GMT-05
2018-05-03,30.37047619047618,22.89,37.65,0.5,19:34:00,19:34:00,America/Mexico_City, GMT-05
2018-05-04,30.619999999999987,23.87,37.65,0.5,19:34:00,19:34:00,America/Mexico_City, GMT-05
2018-05-05,30.172857142857126,25.88,35.44,0.48,19:34:00,19:34:00,America/Mexico_City, GMT-05
2018-05-06,25.578999999999997,23.8,28.42,0.63,19:35:00,19:35:00,America/Mexico_City, GMT-05
2018-05-07,27.749999999999993,22.89,33.56,0.49,19:35:00,19:35:00,America/Mexico_City, GMT-05
2018-05-08,27.450476190476188,21.09,33.58,0.48,19:35:00,19:35:00,America/Mexico_City, GMT-05
2018-05-09,27.222857142857134,19.88,33.44,0.51,19:36:00,19:36:00,America/Mexico_City, GMT-05
2018-05-10,28.436666666666653,24.57,35.48,0.55,19:36:00,19:36:00,America/Mexico_City, GMT-05
2018-05-11,27.210499999999996,20.88,33.73,0.66,19:36:00,19:36:00,America/Mexico_City, GMT-05
2018-05-12,28.8205,21.89,37.58,0.58,19:37:00,19:37:00,America/Mexico_City, GMT-05
2018-05-13,30.1247619047619,21.89,38.45,0.52,19:37:00,19:37:00,America/Mexico_City, GMT-05
2018-05-14,29.712857142857132,24.74,36.7,0.57,19:37:00,19:37:00,America/Mexico_City, GMT-05
2018-05-15,30.337368421052624,23.87,36.45,0.54,19:38:00,19:38:00,America/Mexico_City, GMT-05
2018-05-16,30.27599999999999,24.98,36.56,0.5,19:38:00,19:38:00,America/Mexico_City, GMT-05
2018-05-17,29.749499999999994,23.87,36.49,0.45,19:38:00,19:38:00,America/Mexico_City, GMT-05
2018-05-18,29.459999999999994,20.88,37.72,0.45,19:39:00,19:39:00,America/Mexico_City, GMT-05
2018-05-19,28.09315789473684,21.67,34.65,0.6,19:39:00,19:39:00,America/Mexico_City, GMT-05
2018-05-20,26.383684210526315,20.59,33.3,0.73,19:39:00,19:39:00,America/Mexico_City, GMT-05
2018-05-21,26.17473684210526,20.74,33.31,0.73,19:40:00,19:40:00,America/Mexico_City, GMT-05
2018-05-22,26.96473684210526,18.75,33.3,0.64,19:40:00,19:40:00,America/Mexico_City, GMT-05
2018-05-23,27.067499999999995,20.74,33.32,0.56,19:41:00,19:41:00,America/Mexico_City, GMT-05
2018-05-24,27.015555555555547,19.75,32.43,0.56,19:41:00,19:41:00,America/Mexico_City, GMT-05
2018-05-25,27.331052631578938,21.74,32.43,0.57,19:41:00,19:41:00,America/Mexico_City, GMT-05
2018-05-26,27.763124999999995,21.74,32.43,0.5,19:42:00,19:42:00,America/Mexico_City, GMT-05
2018-05-27,28.425555555555555,18.75,35.31,0.49,19:42:00,19:42:00,America/Mexico_City, GMT-05
2018-05-28,29.510952380952375,21.89,35.56,0.48,19:42:00,19:42:00,America/Mexico_City, GMT-05
2018-05-29,28.831249999999997,22.74,34.32,0.52,19:43:00,19:43:00,America/Mexico_City, GMT-05
2018-05-30,29.954374999999995,23.75,35.51,0.48,19:43:00,19:43:00,America/Mexico_City, GMT-05
2018-05-31,26.60411764705882,20.74,33.34,0.67,19:43:00,19:43:00,America/Mexico_City, GMT-05
2018-06-01,23.84833333333333,19.43,32.98,0.8,19:44:00,19:44:00,America/Mexico_City, GMT-05
2018-06-02,24.893749999999997,18.75,30.3,0.68,19:44:00,19:44:00,America/Mexico_City, GMT-05
2018-06-03,23.229999999999993,18.6,31.42,0.79,19:44:00,19:44:00,America/Mexico_City, GMT-05
2018-06-04,23.859999999999996,19.68,29.53,0.82,19:45:00,19:45:00,America/Mexico_City, GMT-05
2018-06-05,26.07555555555555,21.74,31.5,0.69,19:45:00,19:45:00,America/Mexico_City, GMT-05
2018-06-06,25.753157894736834,20.74,32.31,0.74,19:45:00,19:45:00,America/Mexico_City, GMT-05
2018-06-07,25.40555555555555,20.74,30.6,0.77,19:46:00,19:46:00,America/Mexico_City, GMT-05
2018-06-08,25.830624999999998,19.75,31.5,0.71,19:46:00,19:46:00,America/Mexico_City, GMT-05
2018-06-09,23.962777777777774,18.68,30.86,0.79,19:46:00,19:46:00,America/Mexico_City, GMT-05
2018-06-10,24.598947368421047,18.75,31.37,0.74,19:47:00,19:47:00,America/Mexico_City, GMT-05
2018-06-11,25.173684210526314,18.53,32.28,0.76,19:47:00,19:47:00,America/Mexico_City, GMT-05
2018-06-12,24.33315789473684,18.75,29.38,0.79,19:47:00,19:47:00,America/Mexico_City, GMT-05
2018-06-13,22.121578947368413,17.62,26.43,0.9,19:48:00,19:48:00,America/Mexico_City, GMT-05
2018-06-14,22.2778947368421,18.75,28.85,0.91,19:48:00,19:48:00,America/Mexico_City, GMT-05
2018-06-15,23.459444444444443,19.75,28.41,0.86,19:48:00,19:48:00,America/Mexico_City, GMT-05
2018-06-16,24.281052631578945,19.75,28.31,0.81,19:48:00,19:48:00,America/Mexico_City, GMT-05
2018-06-17,22.846666666666664,19.75,25.41,0.91,19:49:00,19:49:00,America/Mexico_City, GMT-05
2018-06-18,25.296111111111106,19.75,31.33,0.72,19:49:00,19:49:00,America/Mexico_City, GMT-05
2018-06-19,25.73444444444444,18.75,31.69,0.73,19:49:00,19:49:00,America/Mexico_City, GMT-05
2018-06-20,26.781176470588235,20.74,30.45,0.68,19:49:00,19:49:00,America/Mexico_City, GMT-05
2018-06-21,24.96473684210526,19.63,31.31,0.73,19:49:00,19:49:00,America/Mexico_City, GMT-05
2018-06-22,24.583124999999995,19.68,30.3,0.78,19:50:00,19:50:00,America/Mexico_City, GMT-05
2018-06-23,23.62944444444444,18.75,29.5,0.83,19:50:00,19:50:00,America/Mexico_City, GMT-05
2018-06-24,24.369999999999997,18.41,32.28,0.81,19:50:00,19:50:00,America/Mexico_City, GMT-05
2018-06-25,24.794999999999998,17.75,31.31,0.77,19:50:00,19:50:00,America/Mexico_City, GMT-05
2018-06-26,23.85055555555555,18.75,29.43,0.8,19:50:00,19:50:00,America/Mexico_City, GMT-05
2018-06-27,24.40611111111111,17.75,29.31,0.76,19:50:00,19:50:00,America/Mexico_City, GMT-05
2018-06-28,23.29833333333333,17.75,29.53,0.81,19:51:00,19:51:00,America/Mexico_City, GMT-05
2018-06-29,23.54526315789473,16.63,30.3,0.78,19:51:00,19:51:00,America/Mexico_City, GMT-05
2018-06-30,25.01699999999999,17.75,30.38,0.74,19:51:00,19:51:00,America/Mexico_City, GMT-05
2018-07-01,25.352222222222217,17.75,32.31,0.75,19:51:00,19:51:00,America/Mexico_City, GMT-05
2018-07-02,24.68333333333333,18.75,29.31,0.76,19:51:00,19:51:00,America/Mexico_City, GMT-05
2018-07-03,24.22947368421052,16.75,31.69,0.71,19:51:00,19:51:00,America/Mexico_City, GMT-05
2018-07-04,25.90888888888888,16.75,31.38,0.65,19:51:00,19:51:00,America/Mexico_City, GMT-05
2018-07-05,25.493157894736836,18.75,29.38,0.68,19:51:00,19:51:00,America/Mexico_City, GMT-05
2018-07-06,24.127777777777776,19.75,29.45,0.81,19:51:00,19:51:00,America/Mexico_City, GMT-05
2018-07-07,24.28052631578947,19.75,29.57,0.76,19:51:00,19:51:00,America/Mexico_City, GMT-05
2018-07-08,25.125263157894732,16.75,31.5,0.69,19:51:00,19:51:00,America/Mexico_City, GMT-05
2018-07-09,24.852222222222217,17.38,31.31,0.7,19:51:00,19:51:00,America/Mexico_City, GMT-05
2018-07-10,23.965789473684207,18.68,29.5,0.75,19:51:00,19:51:00,America/Mexico_City, GMT-05
2018-07-11,24.907777777777774,16.75,30.49,0.67,19:51:00,19:51:00,America/Mexico_City, GMT-05
2018-07-12,24.54315789473684,16.75,31.5,0.72,19:51:00,19:51:00,America/Mexico_City, GMT-05
2018-07-13,24.491578947368417,17.75,30.49,0.76,19:51:00,19:51:00,America/Mexico_City, GMT-05
2018-07-14,25.227368421052628,17.75,32.31,0.72,19:51:00,19:51:00,America/Mexico_City, GMT-05
2018-07-15,25.33526315789473,16.75,32.31,0.69,19:51:00,19:51:00,America/Mexico_City, GMT-05
2018-07-16,25.016666666666666,19.75,29.31,0.72,19:50:00,19:50:00,America/Mexico_City, GMT-05
2018-07-17,26.95562499999999,19.75,32.47,0.64,19:50:00,19:50:00,America/Mexico_City, GMT-05
2018-07-18,26.07666666666666,18.75,31.45,0.65,19:50:00,19:50:00,America/Mexico_City, GMT-05
2018-07-19,26.351666666666663,19.75,32.28,0.65,19:50:00,19:50:00,America/Mexico_City, GMT-05
2018-07-20,25.952777777777776,17.75,32.47,0.67,19:50:00,19:50:00,America/Mexico_City, GMT-05
2018-07-21,26.54470588235294,17.75,33.3,0.55,19:49:00,19:49:00,America/Mexico_City, GMT-05
2018-07-22,26.667058823529405,19.75,32.5,0.68,19:49:00,19:49:00,America/Mexico_City, GMT-05
2018-07-23,26.85388888888889,18.41,34.8,0.65,19:49:00,19:49:00,America/Mexico_City, GMT-05
2018-07-24,28.459375,19.75,34.54,0.56,19:49:00,19:49:00,America/Mexico_City, GMT-05
2018-07-25,27.80894736842105,17.75,35.29,0.59,19:48:00,19:48:00,America/Mexico_City, GMT-05
2018-07-26,27.54647058823529,18.75,33.43,0.6,19:48:00,19:48:00,America/Mexico_City, GMT-05
2018-07-27,27.913157894736838,19.75,34.33,0.63,19:48:00,19:48:00,America/Mexico_City, GMT-05
2018-07-28,27.240555555555552,21.74,34.77,0.65,19:48:00,19:48:00,America/Mexico_City, GMT-05
2018-07-29,26.73944444444444,20.74,32.35,0.65,19:47:00,19:47:00,America/Mexico_City, GMT-05
2018-07-30,21.818,,,,,,America/Mexico_City,
2018-07-31,25.65272727272727,20.66,32.3,0.72,19:46:00,19:46:00,America/Mexico_City, GMT-05
2018-08-01,24.907777777777774,18.68,30.3,0.77,19:46:00,19:46:00,America/Mexico_City, GMT-05
2018-08-02,24.595263157894735,19.75,30.32,0.8,19:46:00,19:46:00,America/Mexico_City, GMT-05
2018-08-03,25.406666666666663,18.75,30.3,0.68,19:45:00,19:45:00,America/Mexico_City, GMT-05
2018-08-04,24.890588235294118,18.75,29.62,0.66,19:45:00,19:45:00,America/Mexico_City, GMT-05
2018-08-05,25.252941176470586,19.75,31.38,0.7,19:44:00,19:44:00,America/Mexico_City, GMT-05
2018-08-06,23.915789473684203,18.68,31.33,0.77,19:44:00,19:44:00,America/Mexico_City, GMT-05
2018-08-07,24.704736842105255,17.38,31.31,0.72,19:43:00,19:43:00,America/Mexico_City, GMT-05
2018-08-08,24.23052631578947,17.75,31.35,0.75,19:43:00,19:43:00,America/Mexico_City, GMT-05
2018-08-09,24.739999999999995,17.75,30.43,0.75,19:42:00,19:42:00,America/Mexico_City, GMT-05
2018-08-10,25.90888888888888,20.74,31.37,0.67,19:42:00,19:42:00,America/Mexico_City, GMT-05
2018-08-11,26.839411764705883,19.75,32.5,0.59,19:41:00,19:41:00,America/Mexico_City, GMT-05
2018-08-12,25.627777777777776,17.75,32.95,0.71,19:41:00,19:41:00,America/Mexico_City, GMT-05
2018-08-13,23.85055555555555,19.53,30.32,0.85,19:40:00,19:40:00,America/Mexico_City, GMT-05
2018-08-14,24.40888888888888,17.75,31.31,0.75,19:40:00,19:40:00,America/Mexico_City, GMT-05
2018-08-15,25.60823529411764,18.75,31.75,0.7,19:39:00,19:39:00,America/Mexico_City, GMT-05
2018-08-16,25.13055555555555,19.68,33.31,0.72,19:38:00,19:38:00,America/Mexico_City, GMT-05
2018-08-17,22.917499999999997,17.6,30.71,0.83,19:38:00,19:38:00,America/Mexico_City, GMT-05
2018-08-18,23.07705882352941,19.27,29.57,0.82,19:37:00,19:37:00,America/Mexico_City, GMT-05
2018-08-19,23.226315789473677,18.75,30.55,0.86,19:37:00,19:37:00,America/Mexico_City, GMT-05
2018-08-20,23.73833333333333,18.75,28.29,0.82,19:36:00,19:36:00,America/Mexico_City, GMT-05
2018-08-21,23.54315789473684,18.6,29.33,0.85,19:35:00,19:35:00,America/Mexico_City, GMT-05
2018-08-22,23.963888888888885,18.68,29.31,0.85,19:35:00,19:35:00,America/Mexico_City, GMT-05
2018-08-23,24.897058823529406,18.75,28.37,0.73,19:34:00,19:34:00,America/Mexico_City, GMT-05
2018-08-24,24.85842105263157,17.75,30.49,0.73,19:33:00,19:33:00,America/Mexico_City, GMT-05
2018-08-25,24.57333333333333,18.75,31.84,0.73,19:33:00,19:33:00,America/Mexico_City, GMT-05
2018-08-26,23.240555555555552,18.75,28.56,0.83,19:32:00,19:32:00,America/Mexico_City, GMT-05
2018-08-27,22.492631578947364,17.45,29.5,0.84,19:31:00,19:31:00,America/Mexico_City, GMT-05
2018-08-28,22.68333333333333,16.68,29.31,0.84,19:30:00,19:30:00,America/Mexico_City, GMT-05
2018-08-29,24.84,19.75,30.3,0.78,19:30:00,19:30:00,America/Mexico_City, GMT-05
2018-08-30,24.06947368421052,19.68,29.31,0.83,19:29:00,19:29:00,America/Mexico_City, GMT-05
2018-08-31,25.01833333333333,19.75,30.32,0.73,19:28:00,19:28:00,America/Mexico_City, GMT-05
2018-09-01,24.850555555555548,18.75,30.3,0.8,19:27:00,19:27:00,America/Mexico_City, GMT-05
2018-09-02,25.7235294117647,19.75,30.38,0.74,19:27:00,19:27:00,America/Mexico_City, GMT-05
2018-09-03,23.369411764705877,18.6,30.37,0.85,19:26:00,19:26:00,America/Mexico_City, GMT-05
2018-09-04,24.181111111111107,20.74,29.31,0.82,19:25:00,19:25:00,America/Mexico_City, GMT-05
2018-09-05,23.628888888888884,17.75,30.3,0.82,19:24:00,19:24:00,America/Mexico_City, GMT-05
2018-09-06,25.25411764705882,19.75,29.45,0.78,19:23:00,19:23:00,America/Mexico_City, GMT-05
2018-09-07,23.959444444444443,18.75,31.36,0.81,19:23:00,19:23:00,America/Mexico_City, GMT-05
2018-09-08,24.25058823529411,18.75,28.44,0.78,19:22:00,19:22:00,America/Mexico_City, GMT-05
2018-09-09,23.842941176470585,18.63,29.45,0.81,19:21:00,19:21:00,America/Mexico_City, GMT-05
2018-09-10,23.806842105263154,17.75,30.3,0.82,19:20:00,19:20:00,America/Mexico_City, GMT-05
2018-09-11,23.075294117647058,18.75,29.57,0.87,19:19:00,19:19:00,America/Mexico_City, GMT-05
2018-09-12,23.183333333333326,19.61,29.33,0.88,19:18:00,19:18:00,America/Mexico_City, GMT-05
2018-09-13,23.63166666666666,17.75,29.53,0.84,19:18:00,19:18:00,America/Mexico_City, GMT-05
2018-09-14,23.175263157894733,17.6,29.31,0.87,19:17:00,19:17:00,America/Mexico_City, GMT-05
2018-09-15,23.729523809523805,18.75,28.44,0.88,19:16:00,19:16:00,America/Mexico_City, GMT-05
2018-09-16,23.839999999999996,17.53,29.31,0.85,19:15:00,19:15:00,America/Mexico_City, GMT-05
2018-09-17,25.334736842105258,19.75,30.49,0.79,19:14:00,19:14:00,America/Mexico_City, GMT-05
2018-09-18,25.33368421052631,18.75,30.45,0.75,19:13:00,19:13:00,America/Mexico_City, GMT-05
2018-09-19,23.439473684210522,18.75,30.93,0.85,19:13:00,19:13:00,America/Mexico_City, GMT-05
2018-09-20,24.01631578947368,19.75,29.43,0.85,19:12:00,19:12:00,America/Mexico_City, GMT-05
2018-09-21,24.434736842105263,20.74,30.37,0.82,19:11:00,19:11:00,America/Mexico_City, GMT-05
2018-09-22,24.89941176470588,20.74,31.32,0.79,19:10:00,19:10:00,America/Mexico_City, GMT-05
2018-09-23,23.18333333333333,19.68,28.32,0.88,19:09:00,19:09:00,America/Mexico_City, GMT-05
2018-09-24,23.069999999999997,18.75,29.31,0.83,19:08:00,19:08:00,America/Mexico_City, GMT-05
2018-09-25,22.959999999999994,18.68,28.29,0.85,19:08:00,19:08:00,America/Mexico_City, GMT-05
2018-09-26,23.519374999999997,18.74,30.3,0.85,19:07:00,19:07:00,America/Mexico_City, GMT-05
2018-09-27,23.127777777777773,17.75,27.45,0.84,19:06:00,19:06:00,America/Mexico_City, GMT-05
2018-09-28,24.767499999999995,19.75,29.31,0.78,19:05:00,19:05:00,America/Mexico_City, GMT-05
2018-09-29,24.73944444444444,19.75,30.32,0.76,19:04:00,19:04:00,America/Mexico_City, GMT-05
2018-09-30,24.57333333333333,18.75,29.57,0.76,19:04:00,19:04:00,America/Mexico_City, GMT-05
2018-10-01,24.488823529411757,18.75,29.31,0.77,19:03:00,19:03:00,America/Mexico_City, GMT-05
2018-10-02,24.01473684210526,17.75,28.44,0.78,19:02:00,19:02:00,America/Mexico_City, GMT-05
2018-10-03,24.461666666666662,18.75,29.5,0.77,19:01:00,19:01:00,America/Mexico_City, GMT-05
2018-10-04,23.73944444444444,18.75,28.29,0.81,19:00:00,19:00:00,America/Mexico_City, GMT-05
2018-10-05,24.129999999999995,17.75,29.5,0.78,19:00:00,19:00:00,America/Mexico_City, GMT-05
2018-10-06,23.54470588235294,19.75,27.5,0.79,18:59:00,18:59:00,America/Mexico_City, GMT-05
2018-10-07,24.545882352941174,19.75,29.38,0.77,18:58:00,18:58:00,America/Mexico_City, GMT-05
2018-10-08,24.604705882352935,18.75,30.3,0.77,18:57:00,18:57:00,America/Mexico_City, GMT-05
2018-10-09,24.516666666666666,18.75,29.42,0.77,18:57:00,18:57:00,America/Mexico_City, GMT-05
2018-10-10,22.89882352941176,17.6,28.29,0.84,18:56:00,18:56:00,America/Mexico_City, GMT-05
2018-10-11,22.681111111111107,18.75,29.59,0.88,18:55:00,18:55:00,America/Mexico_City, GMT-05
2018-10-12,23.07222222222222,19.75,27.3,0.89,18:54:00,18:54:00,America/Mexico_City, GMT-05
2018-10-13,23.686111111111106,16.75,31.31,0.82,18:54:00,18:54:00,America/Mexico_City, GMT-05
2018-10-14,24.01722222222222,17.53,31.5,0.82,18:53:00,18:53:00,America/Mexico_City, GMT-05
2018-10-15,24.35055555555555,18.6,30.6,0.81,18:52:00,18:52:00,America/Mexico_City, GMT-05
2018-10-16,24.79444444444444,18.75,30.49,0.79,18:52:00,18:52:00,America/Mexico_City, GMT-05
2018-10-17,23.541578947368414,19.75,29.72,0.89,18:51:00,18:51:00,America/Mexico_City, GMT-05
2018-10-18,22.294999999999995,19.68,28.71,0.92,18:50:00,18:50:00,America/Mexico_City, GMT-05
2018-10-19,22.754210526315784,18.56,28.36,0.89,18:50:00,18:50:00,America/Mexico_City, GMT-05
2018-10-20,22.795555555555552,17.75,28.29,0.87,18:49:00,18:49:00,America/Mexico_City, GMT-05
2018-10-21,23.383684210526315,18.53,28.44,0.82,18:49:00,18:49:00,America/Mexico_City, GMT-05
2018-10-22,24.077058823529406,17.75,29.5,0.75,18:48:00,18:48:00,America/Mexico_City, GMT-05
2018-10-23,24.429999999999996,17.75,29.6,0.74,18:47:00,18:47:00,America/Mexico_City, GMT-05
2018-10-24,23.859999999999996,16.75,30.36,0.78,18:47:00,18:47:00,America/Mexico_City, GMT-05
2018-10-25,23.906666666666663,17.53,29.31,0.81,18:46:00,18:46:00,America/Mexico_City, GMT-05
2018-10-26,23.805263157894732,17.75,29.31,0.82,18:46:00,18:46:00,America/Mexico_City, GMT-05
2018-10-27,24.238888888888887,18.75,28.49,0.78,18:45:00,18:45:00,America/Mexico_City, GMT-05
2018-10-28,22.701578947368418,18.75,26.45,0.84,17:45:00,17:45:00,America/Mexico_City, GMT-06
2018-10-29,21.746363636363636,16.75,26.31,0.89,17:44:00,17:44:00,America/Mexico_City, GMT-06
2018-10-30,23.88333333333333,19.75,28.49,0.76,17:44:00,17:44:00,America/Mexico_City, GMT-06
2018-10-31,24.29444444444444,17.75,29.72,0.81,17:43:00,17:43:00,America/Mexico_City, GMT-06
2018-11-01,24.428823529411762,16.75,30.3,0.78,17:43:00,17:43:00,America/Mexico_City, GMT-06
2018-11-02,23.626111111111108,17.75,29.36,0.79,17:43:00,17:43:00,America/Mexico_City, GMT-06
2018-11-03,23.346666666666664,18.75,28.42,0.82,17:42:00,17:42:00,America/Mexico_City, GMT-06
2018-11-04,22.682777777777776,18.75,27.43,0.89,17:42:00,17:42:00,America/Mexico_City, GMT-06
2018-11-05,24.51611111111111,19.53,29.43,0.82,17:42:00,17:42:00,America/Mexico_City, GMT-06
2018-11-06,24.849999999999998,17.75,30.45,0.79,17:41:00,17:41:00,America/Mexico_City, GMT-06
2018-11-07,24.645789473684207,20.74,30.49,0.73,17:41:00,17:41:00,America/Mexico_City, GMT-06
2018-11-08,24.73944444444444,17.75,30.32,0.74,17:41:00,17:41:00,America/Mexico_City, GMT-06
2018-11-09,25.01833333333333,19.75,30.3,0.75,17:40:00,17:40:00,America/Mexico_City, GMT-06
2018-11-10,24.01705882352941,17.75,29.33,0.78,17:40:00,17:40:00,America/Mexico_City, GMT-06
2018-11-11,23.071666666666662,15.75,28.52,0.77,17:40:00,17:40:00,America/Mexico_City, GMT-06
2018-11-12,23.072777777777773,15.75,29.43,0.8,17:40:00,17:40:00,America/Mexico_City, GMT-06
2018-11-13,21.238888888888884,17.67,26.57,0.83,17:39:00,17:39:00,America/Mexico_City, GMT-06
2018-11-14,16.84058823529412,14.67,19.43,0.8,17:39:00,17:39:00,America/Mexico_City, GMT-06
2018-11-15,16.596842105263157,12.75,21.31,0.83,17:39:00,17:39:00,America/Mexico_City, GMT-06
2018-11-16,18.62833333333333,11.75,24.43,0.81,17:39:00,17:39:00,America/Mexico_City, GMT-06
2018-11-17,20.51777777777777,15.75,26.43,0.79,17:39:00,17:39:00,America/Mexico_City, GMT-06
2018-11-18,21.072777777777773,13.75,28.36,0.81,17:39:00,17:39:00,America/Mexico_City, GMT-06
2018-11-19,22.23944444444444,15.75,28.31,0.8,17:39:00,17:39:00,America/Mexico_City, GMT-06
2018-11-20,23.016666666666662,16.75,29.38,0.81,17:39:00,17:39:00,America/Mexico_City, GMT-06
2018-11-21,22.628888888888884,16.75,27.43,0.82,17:39:00,17:39:00,America/Mexico_City, GMT-06
2018-11-22,22.96055555555555,15.75,28.29,0.77,17:39:00,17:39:00,America/Mexico_City, GMT-06
2018-11-23,23.667058823529405,16.75,29.75,0.73,17:39:00,17:39:00,America/Mexico_City, GMT-06
2018-11-24,24.406666666666663,16.75,30.75,0.76,17:39:00,17:39:00,America/Mexico_City, GMT-06
2018-11-25,24.605882352941173,16.75,31.31,0.73,17:39:00,17:39:00,America/Mexico_City, GMT-06
2018-11-26,22.662352941176465,14.74,30.32,0.75,17:39:00,17:39:00,America/Mexico_City, GMT-06
2018-11-27,19.175555555555555,16.93,21.29,0.82,17:39:00,17:39:00,America/Mexico_City, GMT-06
2018-11-28,19.022083333333338,16.07,24.3,0.9,17:39:00,17:39:00,America/Mexico_City, GMT-06
2018-11-29,21.177916666666672,13.14,29.17,0.82,17:39:00,17:39:00,America/Mexico_City, GMT-06
2018-11-30,22.409583333333334,16.74,29.4,0.78,17:39:00,17:39:00,America/Mexico_City, GMT-06
2018-12-01,22.106666666666666,16.64,29.61,0.78,17:39:00,17:39:00,America/Mexico_City, GMT-06
2018-12-02,22.185416666666665,15.01,30.12,0.78,17:39:00,17:39:00,America/Mexico_City, GMT-06
2018-12-03,23.17583333333333,17.25,30.99,0.83,17:40:00,17:40:00,America/Mexico_City, GMT-06
2018-12-04,23.27958333333333,18.33,29.65,0.84,17:40:00,17:40:00,America/Mexico_City, GMT-06
2018-12-05,21.771666666666672,16.37,27.7,0.82,17:40:00,17:40:00,America/Mexico_City, GMT-06
2018-12-06,21.12625,14.95,27.96,0.8,17:40:00,17:40:00,America/Mexico_City, GMT-06
2018-12-07,20.522083333333335,14.45,27.95,0.81,17:41:00,17:41:00,America/Mexico_City, GMT-06
2018-12-08,20.9425,14.91,29.42,0.8,17:41:00,17:41:00,America/Mexico_City, GMT-06
2018-12-09,22.18541666666667,17.77,27.43,0.82,17:41:00,17:41:00,America/Mexico_City, GMT-06
2018-12-10,18.578750000000003,16.6,21.41,0.9,17:42:00,17:42:00,America/Mexico_City, GMT-06
2018-12-11,17.88458333333333,14.33,22.69,0.84,17:42:00,17:42:00,America/Mexico_City, GMT-06
2018-12-12,18.28083333333333,11.93,25.89,0.81,17:42:00,17:42:00,America/Mexico_City, GMT-06
2018-12-13,21.430833333333325,13.7,30.57,0.72,17:43:00,17:43:00,America/Mexico_City, GMT-06
2018-12-14,18.9625,13.55,26.71,0.82,17:43:00,17:43:00,America/Mexico_City, GMT-06
2018-12-15,16.848333333333333,15.22,19.76,0.83,17:43:00,17:43:00,America/Mexico_City, GMT-06
2018-12-16,16.315416666666664,11.55,20.06,0.8,17:44:00,17:44:00,America/Mexico_City, GMT-06
2018-12-17,16.671666666666663,13.22,21.29,0.84,17:44:00,17:44:00,America/Mexico_City, GMT-06
2018-12-18,18.060000000000002,11.69,25.5,0.84,17:45:00,17:45:00,America/Mexico_City, GMT-06
2018-12-19,20.17375,12.9,28.67,0.75,17:45:00,17:45:00,America/Mexico_City, GMT-06
2018-12-20,19.69875,14.37,26.27,0.75,17:46:00,17:46:00,America/Mexico_City, GMT-06
2018-12-21,17.4475,11.08,23.04,0.64,17:46:00,17:46:00,America/Mexico_City, GMT-06
2018-12-22,15.986249999999998,7.02,24.37,0.73,17:46:00,17:46:00,America/Mexico_City, GMT-06
2018-12-23,17.067916666666665,9.64,25.38,0.79,17:47:00,17:47:00,America/Mexico_City, GMT-06
2018-12-24,18.200416666666666,14.87,22.89,0.89,17:47:00,17:47:00,America/Mexico_City, GMT-06
2018-12-25,19.677916666666665,15.02,25.81,0.83,17:48:00,17:48:00,America/Mexico_City, GMT-06
2018-12-26,20.167083333333334,12.95,28.16,0.81,17:49:00,17:49:00,America/Mexico_City, GMT-06
2018-12-27,20.89375,12.85,29.61,0.72,17:49:00,17:49:00,America/Mexico_City, GMT-06
2018-12-28,20.669583333333332,12.03,28.7,0.72,17:50:00,17:50:00,America/Mexico_City, GMT-06
2018-12-29,21.334166666666665,15.01,27.91,0.82,17:50:00,17:50:00,America/Mexico_City, GMT-06
2018-12-30,21.284166666666668,14.54,28.2,0.82,17:51:00,17:51:00,America/Mexico_City, GMT-06
2018-12-31,21.59333333333333,14.04,29.98,0.79,17:51:00,17:51:00,America/Mexico_City, GMT-06
