date,avg_temperature,min_temperature,max_temperature,humidity,sunrise_time,sunset_time,time_zone,gmt_zone
2016-01-01,15.574999999999998,6.43,25.04,0.63,18:11:00,18:11:00,America/Mexico_City, GMT-06
2016-01-02,16.288333333333338,9.64,23.38,0.6,18:11:00,18:11:00,America/Mexico_City, GMT-06
2016-01-03,16.487916666666667,11.33,22.33,0.61,18:12:00,18:12:00,America/Mexico_City, GMT-06
2016-01-04,12.521666666666667,7.48,18.26,0.75,18:13:00,18:13:00,America/Mexico_City, GMT-06
2016-01-05,14.107083333333335,6.47,22.17,0.62,18:13:00,18:13:00,America/Mexico_City, GMT-06
2016-01-06,14.13541666666667,2.58,21.19,0.52,18:14:00,18:14:00,America/Mexico_City, GMT-06
2016-01-07,13.11,2.71,20.56,0.49,18:14:00,18:14:00,America/Mexico_City, GMT-06
2016-01-08,13.440833333333336,2.71,21.32,0.47,18:15:00,18:15:00,America/Mexico_City, GMT-06
2016-01-09,13.268333333333336,-2.38,22.03,0.45,18:16:00,18:16:00,America/Mexico_City, GMT-06
2016-01-10,14.552500000000002,7.25,20.95,0.43,18:16:00,18:16:00,America/Mexico_City, GMT-06
2016-01-11,13.326250000000002,1.0,22.47,0.45,18:17:00,18:17:00,America/Mexico_City, GMT-06
2016-01-12,12.108333333333336,3.35,17.59,0.49,18:18:00,18:18:00,America/Mexico_City, GMT-06
2016-01-13,10.576250000000002,6.66,13.82,0.72,18:18:00,18:18:00,America/Mexico_City, GMT-06
2016-01-14,12.995416666666669,8.21,19.55,0.68,18:19:00,18:19:00,America/Mexico_City, GMT-06
2016-01-15,13.438750000000004,2.68,23.19,0.47,18:20:00,18:20:00,America/Mexico_City, GMT-06
2016-01-16,12.181249999999999,2.56,20.1,0.43,18:20:00,18:20:00,America/Mexico_City, GMT-06
2016-01-17,13.312916666666668,-0.62,24.35,0.31,18:21:00,18:21:00,America/Mexico_City, GMT-06
2016-01-18,12.865833333333333,-0.45,22.18,0.46,18:22:00,18:22:00,America/Mexico_City, GMT-06
2016-01-19,11.937826086956521,3.07,18.28,0.58,18:22:00,18:22:00,America/Mexico_City, GMT-06
2016-01-20,13.5475,7.46,19.5,0.45,18:23:00,18:23:00,America/Mexico_City, GMT-06
2016-01-21,14.4,-0.64,22.96,0.39,18:24:00,18:24:00,America/Mexico_City, GMT-06
2016-01-22,14.303333333333335,6.18,22.3,0.4,18:24:00,18:24:00,America/Mexico_City, GMT-06
2016-01-23,13.186250000000001,3.41,23.57,0.35,18:25:00,18:25:00,America/Mexico_City, GMT-06
2016-01-24,12.70541666666667,3.37,22.1,0.37,18:25:00,18:25:00,America/Mexico_City, GMT-06
2016-01-25,14.509583333333337,2.88,25.25,0.42,18:26:00,18:26:00,America/Mexico_City, GMT-06
2016-01-26,15.939583333333337,12.1,21.05,0.38,18:27:00,18:27:00,America/Mexico_City, GMT-06
2016-01-27,14.746666666666668,7.01,22.43,0.35,18:27:00,18:27:00,America/Mexico_City, GMT-06
2016-01-28,9.390833333333333,2.61,13.31,0.47,18:28:00,18:28:00,America/Mexico_City, GMT-06
2016-01-29,10.959583333333335,5.38,15.56,0.47,18:29:00,18:29:00,America/Mexico_City, GMT-06
2016-01-30,14.269166666666669,2.97,22.31,0.37,18:29:00,18:29:00,America/Mexico_City, GMT-06
2016-01-31,16.807916666666667,10.32,24.17,0.43,18:30:00,18:30:00,America/Mexico_City, GMT-06
2016-02-01,16.77166666666667,8.48,26.26,0.41,18:30:00,18:30:00,America/Mexico_City, GMT-06
2016-02-02,18.860000000000003,12.95,25.92,0.33,18:31:00,18:31:00,America/Mexico_City, GMT-06
2016-02-03,18.440416666666668,10.04,27.76,0.37,18:31:00,18:31:00,America/Mexico_City, GMT-06
2016-02-04,14.236666666666665,4.43,23.7,0.53,18:32:00,18:32:00,America/Mexico_City, GMT-06
2016-02-05,13.865000000000002,3.53,23.99,0.49,18:33:00,18:33:00,America/Mexico_City, GMT-06
2016-02-06,13.786666666666664,6.4,21.06,0.45,18:33:00,18:33:00,America/Mexico_City, GMT-06
2016-02-07,12.747083333333336,2.19,23.86,0.36,18:34:00,18:34:00,America/Mexico_City, GMT-06
2016-02-08,12.182499999999997,3.43,22.55,0.36,18:34:00,18:34:00,America/Mexico_City, GMT-06
2016-02-09,10.504583333333334,5.69,16.38,0.49,18:35:00,18:35:00,America/Mexico_City, GMT-06
2016-02-10,10.420416666666668,6.56,14.51,0.58,18:35:00,18:35:00,America/Mexico_City, GMT-06
2016-02-11,12.109583333333331,2.54,21.44,0.51,18:36:00,18:36:00,America/Mexico_City, GMT-06
2016-02-12,13.495,4.3,22.52,0.41,18:36:00,18:36:00,America/Mexico_City, GMT-06
2016-02-13,12.213750000000003,1.61,22.17,0.39,18:37:00,18:37:00,America/Mexico_City, GMT-06
2016-02-14,13.744583333333336,3.43,24.3,0.4,18:37:00,18:37:00,America/Mexico_City, GMT-06
2016-02-15,15.84666666666667,5.37,24.22,0.35,18:38:00,18:38:00,America/Mexico_City, GMT-06
2016-02-16,16.160833333333336,6.37,24.21,0.34,18:38:00,18:38:00,America/Mexico_City, GMT-06
2016-02-17,15.794166666666667,5.47,25.23,0.29,18:39:00,18:39:00,America/Mexico_City, GMT-06
2016-02-18,14.62791666666667,3.49,25.11,0.31,18:39:00,18:39:00,America/Mexico_City, GMT-06
2016-02-19,16.42125,7.08,26.88,0.43,18:39:00,18:39:00,America/Mexico_City, GMT-06
2016-02-20,16.049166666666668,5.51,25.3,0.51,18:40:00,18:40:00,America/Mexico_City, GMT-06
2016-02-21,17.251250000000002,7.17,28.45,0.44,18:40:00,18:40:00,America/Mexico_City, GMT-06
2016-02-22,17.625000000000004,8.78,26.92,0.44,18:41:00,18:41:00,America/Mexico_City, GMT-06
2016-02-23,18.852173913043476,9.13,26.38,0.41,18:41:00,18:41:00,America/Mexico_City, GMT-06
2016-02-24,17.560833333333335,10.12,26.16,0.44,18:41:00,18:41:00,America/Mexico_City, GMT-06
2016-02-25,16.14708333333333,7.23,26.22,0.49,18:42:00,18:42:00,America/Mexico_City, GMT-06
2016-02-26,17.396666666666665,10.47,24.31,0.49,18:42:00,18:42:00,America/Mexico_City, GMT-06
2016-02-27,14.367916666666668,9.48,20.23,0.57,18:43:00,18:43:00,America/Mexico_City, GMT-06
2016-02-28,17.09541666666667,12.21,23.44,0.49,18:43:00,18:43:00,America/Mexico_City, GMT-06
2016-02-29,16.685416666666665,8.87,23.2,0.53,18:43:00,18:43:00,America/Mexico_City, GMT-06
2016-03-01,15.839583333333328,10.81,21.46,0.59,18:44:00,18:44:00,America/Mexico_City, GMT-06
2016-03-02,12.808750000000002,10.49,14.56,0.73,18:44:00,18:44:00,America/Mexico_City, GMT-06
2016-03-03,14.889999999999999,10.44,20.21,0.59,18:44:00,18:44:00,America/Mexico_City, GMT-06
2016-03-04,14.264583333333334,11.38,18.52,0.5,18:45:00,18:45:00,America/Mexico_City, GMT-06
2016-03-05,15.034166666666666,3.09,24.28,0.46,18:45:00,18:45:00,America/Mexico_City, GMT-06
2016-03-06,16.27,7.51,24.32,0.43,18:45:00,18:45:00,America/Mexico_City, GMT-06
2016-03-07,16.977500000000003,8.08,22.25,0.5,18:46:00,18:46:00,America/Mexico_City, GMT-06
2016-03-08,16.0725,11.83,22.18,0.5,18:46:00,18:46:00,America/Mexico_City, GMT-06
2016-03-09,12.69375,8.6,17.13,0.68,18:46:00,18:46:00,America/Mexico_City, GMT-06
2016-03-10,11.705,8.45,16.11,0.45,18:46:00,18:46:00,America/Mexico_City, GMT-06
2016-03-11,12.268749999999999,6.0,18.16,0.36,18:47:00,18:47:00,America/Mexico_City, GMT-06
2016-03-12,14.853333333333332,5.2,24.36,0.4,18:47:00,18:47:00,America/Mexico_City, GMT-06
2016-03-13,17.260416666666668,6.34,27.31,0.35,18:47:00,18:47:00,America/Mexico_City, GMT-06
2016-03-14,18.56625,7.68,28.25,0.38,18:47:00,18:47:00,America/Mexico_City, GMT-06
2016-03-15,19.8225,9.76,29.07,0.37,18:48:00,18:48:00,America/Mexico_City, GMT-06
2016-03-16,19.535416666666666,13.32,26.94,0.37,18:48:00,18:48:00,America/Mexico_City, GMT-06
2016-03-17,19.249999999999996,13.32,25.95,0.44,18:48:00,18:48:00,America/Mexico_City, GMT-06
2016-03-18,18.984166666666667,10.24,25.6,0.41,18:48:00,18:48:00,America/Mexico_City, GMT-06
2016-03-19,18.205833333333334,7.37,24.09,0.35,18:49:00,18:49:00,America/Mexico_City, GMT-06
2016-03-20,14.910416666666668,9.73,22.24,0.54,18:49:00,18:49:00,America/Mexico_City, GMT-06
2016-03-21,13.712916666666667,8.69,19.03,0.57,18:49:00,18:49:00,America/Mexico_City, GMT-06
2016-03-22,15.720416666666667,9.49,24.06,0.54,18:49:00,18:49:00,America/Mexico_City, GMT-06
2016-03-23,17.287083333333335,9.31,24.76,0.48,18:50:00,18:50:00,America/Mexico_City, GMT-06
2016-03-24,19.013749999999998,10.46,27.13,0.42,18:50:00,18:50:00,America/Mexico_City, GMT-06
2016-03-25,18.517916666666668,6.35,26.57,0.46,18:50:00,18:50:00,America/Mexico_City, GMT-06
2016-03-26,20.105909090909087,14.91,26.17,0.33,18:50:00,18:50:00,America/Mexico_City, GMT-06
2016-03-27,20.660416666666663,12.32,28.33,0.26,18:51:00,18:51:00,America/Mexico_City, GMT-06
2016-03-28,21.13208333333333,15.3,28.21,0.33,18:51:00,18:51:00,America/Mexico_City, GMT-06
2016-03-29,20.399583333333332,10.0,28.18,0.36,18:51:00,18:51:00,America/Mexico_City, GMT-06
2016-03-30,20.68625,11.36,30.12,0.34,18:51:00,18:51:00,America/Mexico_City, GMT-06
2016-03-31,21.816666666666663,13.96,29.25,0.3,18:52:00,18:52:00,America/Mexico_City, GMT-06
2016-04-01,21.48958333333333,14.63,28.98,0.3,18:52:00,18:52:00,America/Mexico_City, GMT-06
2016-04-02,20.881666666666664,12.64,29.27,0.28,18:52:00,18:52:00,America/Mexico_City, GMT-06
2016-04-03,17.51782608695652,7.66,28.23,0.49,19:52:00,19:52:00,America/Mexico_City, GMT-05
2016-04-04,20.089583333333334,9.35,28.42,0.38,19:53:00,19:53:00,America/Mexico_City, GMT-05
2016-04-05,20.45291666666667,9.31,29.67,0.35,19:53:00,19:53:00,America/Mexico_City, GMT-05
2016-04-06,21.082499999999996,12.0,30.44,0.29,19:53:00,19:53:00,America/Mexico_City, GMT-05
2016-04-07,20.860833333333332,11.45,30.55,0.3,19:53:00,19:53:00,America/Mexico_City, GMT-05
2016-04-08,20.153333333333332,10.22,29.84,0.44,19:54:00,19:54:00,America/Mexico_City, GMT-05
2016-04-09,19.474999999999998,11.45,28.17,0.49,19:54:00,19:54:00,America/Mexico_City, GMT-05
2016-04-10,20.68458333333333,14.33,27.35,0.42,19:54:00,19:54:00,America/Mexico_City, GMT-05
2016-04-11,21.020833333333332,11.36,29.58,0.41,19:54:00,19:54:00,America/Mexico_City, GMT-05
2016-04-12,22.064166666666665,13.0,30.43,0.38,19:55:00,19:55:00,America/Mexico_City, GMT-05
2016-04-13,21.851249999999997,12.55,29.06,0.38,19:55:00,19:55:00,America/Mexico_City, GMT-05
2016-04-14,21.45,11.6,29.3,0.45,19:55:00,19:55:00,America/Mexico_City, GMT-05
2016-04-15,21.71166666666666,11.0,29.95,0.25,19:55:00,19:55:00,America/Mexico_City, GMT-05
2016-04-16,21.33,12.29,28.3,0.28,19:56:00,19:56:00,America/Mexico_City, GMT-05
2016-04-17,21.345416666666665,15.33,27.88,0.27,19:56:00,19:56:00,America/Mexico_City, GMT-05
2016-04-18,19.79708333333333,14.04,28.13,0.43,19:56:00,19:56:00,America/Mexico_City, GMT-05
2016-04-19,17.210833333333333,12.39,25.0,0.6,19:57:00,19:57:00,America/Mexico_City, GMT-05
2016-04-20,14.872916666666667,10.36,21.24,0.71,19:57:00,19:57:00,America/Mexico_City, GMT-05
2016-04-21,15.580416666666665,10.65,22.68,0.65,19:57:00,19:57:00,America/Mexico_City, GMT-05
2016-04-22,14.912083333333333,10.63,19.67,0.66,19:58:00,19:58:00,America/Mexico_City, GMT-05
2016-04-23,16.043333333333333,12.32,20.17,0.63,19:58:00,19:58:00,America/Mexico_City, GMT-05
2016-04-24,18.03291666666667,6.31,26.1,0.48,19:58:00,19:58:00,America/Mexico_City, GMT-05
2016-04-25,18.763333333333332,12.18,26.43,0.43,19:59:00,19:59:00,America/Mexico_City, GMT-05
2016-04-26,19.81083333333333,11.0,26.25,0.38,19:59:00,19:59:00,America/Mexico_City, GMT-05
2016-04-27,20.69625,11.27,28.68,0.34,19:59:00,19:59:00,America/Mexico_City, GMT-05
2016-04-28,21.601249999999993,7.37,28.92,0.32,20:00:00,20:00:00,America/Mexico_City, GMT-05
2016-04-29,22.639166666666664,15.67,30.3,0.27,20:00:00,20:00:00,America/Mexico_City, GMT-05
2016-04-30,20.914166666666667,8.36,28.16,0.25,20:00:00,20:00:00,America/Mexico_City, GMT-05
2016-05-01,22.018749999999997,14.13,30.03,0.22,20:01:00,20:01:00,America/Mexico_City, GMT-05
2016-05-02,22.690416666666664,11.45,31.34,0.27,20:01:00,20:01:00,America/Mexico_City, GMT-05
2016-05-03,21.139999999999997,14.32,28.84,0.52,20:01:00,20:01:00,America/Mexico_City, GMT-05
2016-05-04,21.923750000000002,13.42,29.87,0.43,20:02:00,20:02:00,America/Mexico_City, GMT-05
2016-05-05,20.901666666666667,13.5,28.59,0.5,20:02:00,20:02:00,America/Mexico_City, GMT-05
2016-05-06,21.218750000000004,13.37,28.23,0.43,20:03:00,20:03:00,America/Mexico_City, GMT-05
2016-05-07,21.888333333333332,12.23,29.77,0.31,20:03:00,20:03:00,America/Mexico_City, GMT-05
2016-05-08,22.034166666666664,15.54,31.03,0.36,20:03:00,20:03:00,America/Mexico_City, GMT-05
2016-05-09,19.93,14.63,28.35,0.53,20:04:00,20:04:00,America/Mexico_City, GMT-05
2016-05-10,19.801666666666666,12.33,29.41,0.56,20:04:00,20:04:00,America/Mexico_City, GMT-05
2016-05-11,18.149583333333332,12.46,26.72,0.65,20:05:00,20:05:00,America/Mexico_City, GMT-05
2016-05-12,18.09958333333333,13.34,25.04,0.65,20:05:00,20:05:00,America/Mexico_City, GMT-05
2016-05-13,18.513333333333332,13.28,25.32,0.54,20:05:00,20:05:00,America/Mexico_City, GMT-05
2016-05-14,18.70875,13.45,25.15,0.54,20:06:00,20:06:00,America/Mexico_City, GMT-05
2016-05-15,17.34583333333333,14.69,22.29,0.68,20:06:00,20:06:00,America/Mexico_City, GMT-05
2016-05-16,19.589583333333334,15.43,24.4,0.56,20:07:00,20:07:00,America/Mexico_City, GMT-05
2016-05-17,19.0125,14.41,26.34,0.54,20:07:00,20:07:00,America/Mexico_City, GMT-05
2016-05-18,19.227916666666662,13.55,26.37,0.56,20:07:00,20:07:00,America/Mexico_City, GMT-05
2016-05-19,20.41347826086956,14.34,27.28,0.51,20:08:00,20:08:00,America/Mexico_City, GMT-05
2016-05-20,21.87166666666666,15.15,30.08,0.44,20:08:00,20:08:00,America/Mexico_City, GMT-05
2016-05-21,21.322499999999998,16.54,29.43,0.58,20:09:00,20:09:00,America/Mexico_City, GMT-05
2016-05-22,21.765416666666667,15.37,29.97,0.52,20:09:00,20:09:00,America/Mexico_City, GMT-05
2016-05-23,21.49333333333333,16.54,28.31,0.52,20:09:00,20:09:00,America/Mexico_City, GMT-05
2016-05-24,19.9925,13.34,29.36,0.58,20:10:00,20:10:00,America/Mexico_City, GMT-05
2016-05-25,21.317500000000006,13.31,31.16,0.54,20:10:00,20:10:00,America/Mexico_City, GMT-05
2016-05-26,19.537916666666664,14.37,27.33,0.64,20:11:00,20:11:00,America/Mexico_City, GMT-05
2016-05-27,19.026666666666664,13.47,27.3,0.63,20:11:00,20:11:00,America/Mexico_City, GMT-05
2016-05-28,19.36208333333333,13.58,26.45,0.6,20:11:00,20:11:00,America/Mexico_City, GMT-05
2016-05-29,19.155416666666664,14.5,27.53,0.66,20:12:00,20:12:00,America/Mexico_City, GMT-05
2016-05-30,19.267916666666665,14.47,26.94,0.61,20:12:00,20:12:00,America/Mexico_City, GMT-05
2016-05-31,19.074583333333333,14.36,27.49,0.6,20:13:00,20:13:00,America/Mexico_City, GMT-05
2016-06-01,18.29208333333333,13.53,24.92,0.65,20:13:00,20:13:00,America/Mexico_City, GMT-05
2016-06-02,17.936666666666664,12.5,25.31,0.66,20:13:00,20:13:00,America/Mexico_City, GMT-05
2016-06-03,18.325000000000006,14.1,22.35,0.6,20:14:00,20:14:00,America/Mexico_City, GMT-05
2016-06-04,18.745416666666664,14.61,24.11,0.53,20:14:00,20:14:00,America/Mexico_City, GMT-05
2016-06-05,16.07708333333333,11.42,23.56,0.66,20:14:00,20:14:00,America/Mexico_City, GMT-05
2016-06-06,16.841249999999995,12.43,22.27,0.68,20:15:00,20:15:00,America/Mexico_City, GMT-05
2016-06-07,17.437916666666663,13.15,23.34,0.65,20:15:00,20:15:00,America/Mexico_City, GMT-05
2016-06-08,18.051250000000003,12.54,24.69,0.58,20:15:00,20:15:00,America/Mexico_City, GMT-05
2016-06-09,18.627916666666664,12.34,24.13,0.57,20:16:00,20:16:00,America/Mexico_City, GMT-05
2016-06-10,18.669583333333325,15.34,24.42,0.6,20:16:00,20:16:00,America/Mexico_City, GMT-05
2016-06-11,17.196666666666662,13.5,23.19,0.74,20:16:00,20:16:00,America/Mexico_City, GMT-05
2016-06-12,18.37583333333333,13.37,25.1,0.69,20:17:00,20:17:00,America/Mexico_City, GMT-05
2016-06-13,18.52375,13.54,24.69,0.66,20:17:00,20:17:00,America/Mexico_City, GMT-05
2016-06-14,19.187500000000004,13.47,25.06,0.62,20:17:00,20:17:00,America/Mexico_City, GMT-05
2016-06-15,19.749166666666664,15.04,24.98,0.59,20:17:00,20:17:00,America/Mexico_City, GMT-05
2016-06-16,19.7075,14.64,26.36,0.57,20:18:00,20:18:00,America/Mexico_City, GMT-05
2016-06-17,18.907083333333333,13.64,26.48,0.62,20:18:00,20:18:00,America/Mexico_City, GMT-05
2016-06-18,19.057916666666664,14.38,24.82,0.54,20:18:00,20:18:00,America/Mexico_City, GMT-05
2016-06-19,17.920833333333334,13.63,23.79,0.55,20:18:00,20:18:00,America/Mexico_City, GMT-05
2016-06-20,16.8425,14.36,23.68,0.72,20:19:00,20:19:00,America/Mexico_City, GMT-05
2016-06-21,17.14583333333333,13.56,22.35,0.71,20:19:00,20:19:00,America/Mexico_City, GMT-05
2016-06-22,17.52625,13.39,24.49,0.61,20:19:00,20:19:00,America/Mexico_City, GMT-05
2016-06-23,17.30041666666667,12.31,22.88,0.63,20:19:00,20:19:00,America/Mexico_City, GMT-05
2016-06-24,17.444583333333334,13.34,24.6,0.66,20:19:00,20:19:00,America/Mexico_City, GMT-05
2016-06-25,17.907916666666665,14.4,23.26,0.7,20:20:00,20:20:00,America/Mexico_City, GMT-05
2016-06-26,17.65458333333333,14.91,23.61,0.73,20:20:00,20:20:00,America/Mexico_City, GMT-05
2016-06-27,17.608749999999997,13.61,25.23,0.7,20:20:00,20:20:00,America/Mexico_City, GMT-05
2016-06-28,17.919999999999998,13.63,24.42,0.62,20:20:00,20:20:00,America/Mexico_City, GMT-05
2016-06-29,17.148749999999996,13.46,24.5,0.66,20:20:00,20:20:00,America/Mexico_City, GMT-05
2016-06-30,17.380416666666665,12.43,24.2,0.69,20:20:00,20:20:00,America/Mexico_City, GMT-05
2016-07-01,16.708333333333332,13.79,22.39,0.77,20:20:00,20:20:00,America/Mexico_City, GMT-05
2016-07-02,18.185,13.53,24.08,0.69,20:20:00,20:20:00,America/Mexico_City, GMT-05
2016-07-03,18.474583333333335,13.42,26.55,0.61,20:20:00,20:20:00,America/Mexico_City, GMT-05
2016-07-04,18.107499999999998,13.35,24.37,0.65,20:20:00,20:20:00,America/Mexico_City, GMT-05
2016-07-05,17.83125,13.81,24.1,0.64,20:20:00,20:20:00,America/Mexico_City, GMT-05
2016-07-06,17.798750000000002,13.6,24.07,0.63,20:20:00,20:20:00,America/Mexico_City, GMT-05
2016-07-07,18.13791666666667,12.39,25.95,0.66,20:20:00,20:20:00,America/Mexico_City, GMT-05
2016-07-08,19.1175,12.99,26.18,0.62,20:20:00,20:20:00,America/Mexico_City, GMT-05
2016-07-09,19.760833333333334,13.35,27.16,0.56,20:20:00,20:20:00,America/Mexico_City, GMT-05
2016-07-10,18.552916666666665,13.37,24.53,0.61,20:20:00,20:20:00,America/Mexico_City, GMT-05
2016-07-11,17.903333333333336,14.61,21.35,0.66,20:20:00,20:20:00,America/Mexico_City, GMT-05
2016-07-12,17.121666666666663,13.45,23.12,0.66,20:20:00,20:20:00,America/Mexico_City, GMT-05
2016-07-13,17.121666666666666,12.43,23.01,0.65,20:20:00,20:20:00,America/Mexico_City, GMT-05
2016-07-14,17.48125,13.42,23.18,0.67,20:19:00,20:19:00,America/Mexico_City, GMT-05
2016-07-15,18.6125,12.24,24.17,0.54,20:19:00,20:19:00,America/Mexico_City, GMT-05
2016-07-16,17.424166666666668,12.43,25.22,0.62,20:19:00,20:19:00,America/Mexico_City, GMT-05
2016-07-17,16.915000000000003,12.98,23.21,0.7,20:19:00,20:19:00,America/Mexico_City, GMT-05
2016-07-18,17.921249999999997,12.91,25.07,0.68,20:19:00,20:19:00,America/Mexico_City, GMT-05
2016-07-19,18.19208333333333,13.41,24.09,0.6,20:18:00,20:18:00,America/Mexico_City, GMT-05
2016-07-20,17.620416666666664,13.47,23.16,0.58,20:18:00,20:18:00,America/Mexico_City, GMT-05
2016-07-21,17.24625,14.27,22.18,0.66,20:18:00,20:18:00,America/Mexico_City, GMT-05
2016-07-22,17.23458333333333,12.64,24.3,0.72,20:18:00,20:18:00,America/Mexico_City, GMT-05
2016-07-23,18.23708333333333,13.44,23.96,0.64,20:17:00,20:17:00,America/Mexico_City, GMT-05
2016-07-24,18.0525,13.44,24.29,0.66,20:17:00,20:17:00,America/Mexico_City, GMT-05
2016-07-25,18.27958333333333,13.61,25.94,0.68,20:17:00,20:17:00,America/Mexico_City, GMT-05
2016-07-26,17.896666666666672,12.98,24.3,0.68,20:16:00,20:16:00,America/Mexico_City, GMT-05
2016-07-27,17.534583333333334,13.25,25.18,0.71,20:16:00,20:16:00,America/Mexico_City, GMT-05
2016-07-28,16.682916666666664,13.18,23.08,0.68,20:16:00,20:16:00,America/Mexico_City, GMT-05
2016-07-29,18.033749999999998,13.45,24.44,0.64,20:15:00,20:15:00,America/Mexico_City, GMT-05
2016-07-30,17.140416666666663,13.38,22.51,0.7,20:15:00,20:15:00,America/Mexico_City, GMT-05
2016-07-31,17.158333333333335,13.37,23.0,0.7,20:14:00,20:14:00,America/Mexico_City, GMT-05
2016-08-01,17.43791666666667,11.54,24.76,0.66,20:14:00,20:14:00,America/Mexico_City, GMT-05
2016-08-02,17.70833333333334,13.63,25.03,0.67,20:13:00,20:13:00,America/Mexico_City, GMT-05
2016-08-03,18.859166666666663,13.38,26.41,0.63,20:13:00,20:13:00,America/Mexico_City, GMT-05
2016-08-04,19.34875,13.61,25.8,0.59,20:12:00,20:12:00,America/Mexico_City, GMT-05
2016-08-05,18.036086956521736,15.43,22.24,0.64,20:12:00,20:12:00,America/Mexico_City, GMT-05
2016-08-06,17.27875,14.48,22.27,0.76,20:11:00,20:11:00,America/Mexico_City, GMT-05
2016-08-07,18.6925,15.5,24.03,0.7,20:11:00,20:11:00,America/Mexico_City, GMT-05
2016-08-08,17.410416666666663,13.76,21.9,0.74,20:10:00,20:10:00,America/Mexico_City, GMT-05
2016-08-09,18.527499999999996,14.5,25.32,0.72,20:10:00,20:10:00,America/Mexico_City, GMT-05
2016-08-10,18.964166666666664,14.56,23.31,0.64,20:09:00,20:09:00,America/Mexico_City, GMT-05
2016-08-11,18.921666666666667,13.34,25.51,0.63,20:08:00,20:08:00,America/Mexico_City, GMT-05
2016-08-12,18.54875,13.25,25.83,0.61,20:08:00,20:08:00,America/Mexico_City, GMT-05
2016-08-13,19.32541666666667,12.38,26.33,0.55,20:07:00,20:07:00,America/Mexico_City, GMT-05
2016-08-14,19.419166666666666,13.31,25.21,0.5,20:06:00,20:06:00,America/Mexico_City, GMT-05
2016-08-15,18.683749999999996,12.46,25.22,0.59,20:06:00,20:06:00,America/Mexico_City, GMT-05
2016-08-16,18.6025,15.09,23.22,0.64,20:05:00,20:05:00,America/Mexico_City, GMT-05
2016-08-17,18.27875,14.68,24.81,0.7,20:04:00,20:04:00,America/Mexico_City, GMT-05
2016-08-18,19.632916666666663,15.44,23.98,0.56,20:04:00,20:04:00,America/Mexico_City, GMT-05
2016-08-19,18.393333333333334,14.35,25.43,0.64,20:03:00,20:03:00,America/Mexico_City, GMT-05
2016-08-20,17.694999999999997,14.42,24.1,0.7,20:02:00,20:02:00,America/Mexico_City, GMT-05
2016-08-21,17.605416666666667,13.52,24.15,0.67,20:02:00,20:02:00,America/Mexico_City, GMT-05
2016-08-22,17.218749999999996,13.35,22.1,0.63,20:01:00,20:01:00,America/Mexico_City, GMT-05
2016-08-23,16.63375,12.39,23.18,0.67,20:00:00,20:00:00,America/Mexico_City, GMT-05
2016-08-24,16.180416666666662,13.5,23.77,0.76,19:59:00,19:59:00,America/Mexico_City, GMT-05
2016-08-25,16.69791666666666,12.98,23.23,0.68,19:58:00,19:58:00,America/Mexico_City, GMT-05
2016-08-26,17.140000000000004,13.37,24.16,0.68,19:58:00,19:58:00,America/Mexico_City, GMT-05
2016-08-27,18.224999999999998,14.14,25.68,0.66,19:57:00,19:57:00,America/Mexico_City, GMT-05
2016-08-28,18.56416666666667,14.21,25.18,0.65,19:56:00,19:56:00,America/Mexico_City, GMT-05
2016-08-29,18.339583333333334,13.54,24.55,0.68,19:55:00,19:55:00,America/Mexico_City, GMT-05
2016-08-30,18.643333333333334,12.53,25.9,0.63,19:54:00,19:54:00,America/Mexico_City, GMT-05
2016-08-31,18.66083333333333,11.46,26.1,0.56,19:54:00,19:54:00,America/Mexico_City, GMT-05
2016-09-01,18.380416666666665,13.37,23.69,0.64,19:53:00,19:53:00,America/Mexico_City, GMT-05
2016-09-02,18.088749999999997,14.55,25.25,0.65,19:52:00,19:52:00,America/Mexico_City, GMT-05
2016-09-03,17.522499999999997,15.01,22.52,0.7,19:51:00,19:51:00,America/Mexico_City, GMT-05
2016-09-04,17.235416666666662,14.49,20.22,0.73,19:50:00,19:50:00,America/Mexico_City, GMT-05
2016-09-05,17.132083333333338,13.55,20.4,0.73,19:49:00,19:49:00,America/Mexico_City, GMT-05
2016-09-06,18.859166666666667,14.44,25.37,0.62,19:48:00,19:48:00,America/Mexico_City, GMT-05
2016-09-07,17.31083333333333,12.64,24.19,0.64,19:47:00,19:47:00,America/Mexico_City, GMT-05
2016-09-08,18.272916666666667,12.37,25.29,0.57,19:47:00,19:47:00,America/Mexico_City, GMT-05
2016-09-09,17.859583333333337,9.37,25.89,0.57,19:46:00,19:46:00,America/Mexico_City, GMT-05
2016-09-10,18.93625,10.62,26.43,0.53,19:45:00,19:45:00,America/Mexico_City, GMT-05
2016-09-11,18.197083333333335,15.01,24.96,0.6,19:44:00,19:44:00,America/Mexico_City, GMT-05
2016-09-12,18.41458333333333,15.11,24.12,0.64,19:43:00,19:43:00,America/Mexico_City, GMT-05
2016-09-13,18.804166666666664,14.25,24.91,0.63,19:42:00,19:42:00,America/Mexico_City, GMT-05
2016-09-14,18.470000000000002,12.48,25.36,0.57,19:41:00,19:41:00,America/Mexico_City, GMT-05
2016-09-15,19.26791666666666,14.17,26.31,0.56,19:40:00,19:40:00,America/Mexico_City, GMT-05
2016-09-16,18.677500000000002,15.31,25.01,0.61,19:39:00,19:39:00,America/Mexico_City, GMT-05
2016-09-17,19.042500000000004,13.36,25.8,0.66,19:38:00,19:38:00,America/Mexico_City, GMT-05
2016-09-18,19.488333333333333,12.36,25.9,0.59,19:38:00,19:38:00,America/Mexico_City, GMT-05
2016-09-19,19.390416666666663,14.54,25.21,0.55,19:37:00,19:37:00,America/Mexico_City, GMT-05
2016-09-20,17.491666666666664,12.64,24.1,0.58,19:36:00,19:36:00,America/Mexico_City, GMT-05
2016-09-21,16.287083333333328,12.62,21.75,0.66,19:35:00,19:35:00,America/Mexico_City, GMT-05
2016-09-22,17.269166666666667,12.81,23.02,0.59,19:34:00,19:34:00,America/Mexico_City, GMT-05
2016-09-23,16.54695652173913,12.55,23.79,0.69,19:33:00,19:33:00,America/Mexico_City, GMT-05
2016-09-24,16.40791666666666,12.39,23.02,0.73,19:32:00,19:32:00,America/Mexico_City, GMT-05
2016-09-25,17.597083333333327,14.32,23.91,0.7,19:31:00,19:31:00,America/Mexico_City, GMT-05
2016-09-26,17.759166666666665,14.38,23.16,0.7,19:30:00,19:30:00,America/Mexico_City, GMT-05
2016-09-27,16.740416666666665,14.68,20.84,0.71,19:29:00,19:29:00,America/Mexico_City, GMT-05
2016-09-28,16.593478260869563,13.85,21.95,0.78,19:28:00,19:28:00,America/Mexico_City, GMT-05
2016-09-29,17.345000000000002,13.68,23.26,0.75,19:28:00,19:28:00,America/Mexico_City, GMT-05
2016-09-30,16.491666666666664,12.47,23.21,0.73,19:27:00,19:27:00,America/Mexico_City, GMT-05
2016-10-01,16.688333333333333,12.49,23.04,0.7,19:26:00,19:26:00,America/Mexico_City, GMT-05
2016-10-02,17.470416666666665,12.34,24.19,0.68,19:25:00,19:25:00,America/Mexico_City, GMT-05
2016-10-03,18.483750000000004,11.66,25.28,0.62,19:24:00,19:24:00,America/Mexico_City, GMT-05
2016-10-04,19.762916666666666,13.68,25.35,0.6,19:23:00,19:23:00,America/Mexico_City, GMT-05
2016-10-05,19.143333333333334,13.4,26.17,0.59,19:22:00,19:22:00,America/Mexico_City, GMT-05
2016-10-06,19.199166666666667,12.46,26.04,0.5,19:21:00,19:21:00,America/Mexico_City, GMT-05
2016-10-07,18.00375,11.34,24.38,0.55,19:21:00,19:21:00,America/Mexico_City, GMT-05
2016-10-08,17.36583333333333,12.99,22.25,0.58,19:20:00,19:20:00,America/Mexico_City, GMT-05
2016-10-09,15.435833333333333,12.5,18.27,0.71,19:19:00,19:19:00,America/Mexico_City, GMT-05
2016-10-10,15.96818181818182,11.21,21.35,0.61,19:18:00,19:18:00,America/Mexico_City, GMT-05
2016-10-11,17.330833333333334,13.2,24.17,0.62,19:17:00,19:17:00,America/Mexico_City, GMT-05
2016-10-12,17.584166666666665,12.53,25.08,0.65,19:17:00,19:17:00,America/Mexico_City, GMT-05
2016-10-13,18.649166666666666,14.5,25.33,0.56,19:16:00,19:16:00,America/Mexico_City, GMT-05
2016-10-14,16.519583333333333,8.56,25.19,0.56,19:15:00,19:15:00,America/Mexico_City, GMT-05
2016-10-15,16.928333333333338,9.47,25.03,0.57,19:14:00,19:14:00,America/Mexico_City, GMT-05
2016-10-16,16.93791666666667,9.59,25.09,0.59,19:14:00,19:14:00,America/Mexico_City, GMT-05
2016-10-17,17.275000000000002,10.61,24.16,0.62,19:13:00,19:13:00,America/Mexico_City, GMT-05
2016-10-18,18.27958333333334,11.27,25.79,0.6,19:12:00,19:12:00,America/Mexico_City, GMT-05
2016-10-19,17.87541666666667,10.63,25.2,0.55,19:12:00,19:12:00,America/Mexico_City, GMT-05
2016-10-20,16.712083333333332,10.44,24.11,0.59,19:11:00,19:11:00,America/Mexico_City, GMT-05
2016-10-21,15.514999999999995,12.81,19.24,0.62,19:10:00,19:10:00,America/Mexico_City, GMT-05
2016-10-22,15.317083333333334,12.32,19.43,0.64,19:10:00,19:10:00,America/Mexico_City, GMT-05
2016-10-23,16.2925,10.6,23.27,0.65,19:09:00,19:09:00,America/Mexico_City, GMT-05
2016-10-24,17.949583333333333,13.37,24.79,0.56,19:08:00,19:08:00,America/Mexico_City, GMT-05
2016-10-25,15.683333333333332,10.3,22.06,0.59,19:08:00,19:08:00,America/Mexico_City, GMT-05
2016-10-26,15.137083333333331,8.41,22.3,0.6,19:07:00,19:07:00,America/Mexico_City, GMT-05
2016-10-27,14.097916666666665,10.54,18.31,0.61,19:06:00,19:06:00,America/Mexico_City, GMT-05
2016-10-28,12.6025,8.1,17.17,0.57,19:06:00,19:06:00,America/Mexico_City, GMT-05
2016-10-29,14.827500000000002,10.4,21.66,0.56,19:05:00,19:05:00,America/Mexico_City, GMT-05
2016-10-30,14.9724,10.16,22.43,0.62,18:05:00,18:05:00,America/Mexico_City, GMT-06
2016-10-31,15.055833333333332,10.61,20.84,0.7,18:04:00,18:04:00,America/Mexico_City, GMT-06
2016-11-01,16.217500000000005,8.24,24.96,0.62,18:04:00,18:04:00,America/Mexico_City, GMT-06
2016-11-02,16.386249999999997,9.51,25.42,0.66,18:03:00,18:03:00,America/Mexico_City, GMT-06
2016-11-03,16.36083333333333,11.37,23.18,0.67,18:03:00,18:03:00,America/Mexico_City, GMT-06
2016-11-04,16.104999999999997,12.64,21.25,0.62,18:03:00,18:03:00,America/Mexico_City, GMT-06
2016-11-05,16.17583333333333,12.22,21.35,0.62,18:02:00,18:02:00,America/Mexico_City, GMT-06
2016-11-06,17.128333333333334,11.44,23.21,0.59,18:02:00,18:02:00,America/Mexico_City, GMT-06
2016-11-07,17.49291666666667,9.54,24.81,0.55,18:01:00,18:01:00,America/Mexico_City, GMT-06
2016-11-08,15.482499999999996,10.61,22.25,0.68,18:01:00,18:01:00,America/Mexico_City, GMT-06
2016-11-09,12.926249999999996,10.68,16.24,0.83,18:01:00,18:01:00,America/Mexico_City, GMT-06
2016-11-10,12.45875,9.62,16.34,0.83,18:00:00,18:00:00,America/Mexico_City, GMT-06
2016-11-11,13.543749999999998,10.54,17.09,0.75,18:00:00,18:00:00,America/Mexico_City, GMT-06
2016-11-12,14.553333333333335,11.21,20.95,0.74,18:00:00,18:00:00,America/Mexico_City, GMT-06
2016-11-13,14.518750000000002,10.36,19.95,0.72,18:00:00,18:00:00,America/Mexico_City, GMT-06
2016-11-14,15.279166666666669,10.25,21.26,0.66,17:59:00,17:59:00,America/Mexico_City, GMT-06
2016-11-15,15.779583333333333,12.44,20.4,0.68,17:59:00,17:59:00,America/Mexico_City, GMT-06
2016-11-16,13.063749999999999,11.68,15.36,0.83,17:59:00,17:59:00,America/Mexico_City, GMT-06
2016-11-17,14.941250000000004,8.37,21.03,0.69,17:59:00,17:59:00,America/Mexico_City, GMT-06
2016-11-18,15.64333333333333,9.63,22.11,0.64,17:59:00,17:59:00,America/Mexico_City, GMT-06
2016-11-19,12.452083333333333,9.68,15.32,0.68,17:59:00,17:59:00,America/Mexico_City, GMT-06
2016-11-20,12.549999999999999,8.2,18.36,0.64,17:58:00,17:58:00,America/Mexico_City, GMT-06
2016-11-21,13.252083333333337,5.46,21.69,0.61,17:58:00,17:58:00,America/Mexico_City, GMT-06
2016-11-22,14.28875,6.34,21.94,0.54,17:58:00,17:58:00,America/Mexico_City, GMT-06
2016-11-23,14.009583333333333,6.47,21.61,0.52,17:58:00,17:58:00,America/Mexico_City, GMT-06
2016-11-24,13.722500000000002,7.26,22.93,0.57,17:58:00,17:58:00,America/Mexico_City, GMT-06
2016-11-25,12.61,6.38,21.24,0.61,17:58:00,17:58:00,America/Mexico_City, GMT-06
2016-11-26,11.891250000000001,5.63,19.31,0.62,17:58:00,17:58:00,America/Mexico_City, GMT-06
2016-11-27,13.378333333333336,7.29,21.53,0.64,17:58:00,17:58:00,America/Mexico_City, GMT-06
2016-11-28,15.927499999999997,6.37,24.23,0.52,17:58:00,17:58:00,America/Mexico_City, GMT-06
2016-11-29,17.16583333333334,10.2,24.96,0.53,17:59:00,17:59:00,America/Mexico_City, GMT-06
2016-11-30,17.701250000000005,10.25,25.3,0.53,17:59:00,17:59:00,America/Mexico_City, GMT-06
2016-12-01,17.429583333333333,11.2,24.82,0.57,17:59:00,17:59:00,America/Mexico_City, GMT-06
2016-12-02,16.691250000000004,9.37,23.24,0.58,17:59:00,17:59:00,America/Mexico_City, GMT-06
2016-12-03,17.292916666666667,9.22,25.2,0.53,17:59:00,17:59:00,America/Mexico_City, GMT-06
2016-12-04,17.268333333333334,12.02,23.23,0.51,17:59:00,17:59:00,America/Mexico_City, GMT-06
2016-12-05,16.98541666666667,12.02,22.95,0.44,17:59:00,17:59:00,America/Mexico_City, GMT-06
2016-12-06,16.475833333333334,9.92,25.12,0.45,18:00:00,18:00:00,America/Mexico_City, GMT-06
2016-12-07,16.528750000000002,8.63,25.09,0.53,18:00:00,18:00:00,America/Mexico_City, GMT-06
2016-12-08,16.707083333333337,8.27,25.16,0.52,18:00:00,18:00:00,America/Mexico_City, GMT-06
2016-12-09,15.423749999999998,13.12,20.34,0.62,18:00:00,18:00:00,America/Mexico_City, GMT-06
2016-12-10,14.499999999999998,10.11,20.23,0.63,18:01:00,18:01:00,America/Mexico_City, GMT-06
2016-12-11,15.138333333333335,8.19,22.24,0.59,18:01:00,18:01:00,America/Mexico_City, GMT-06
2016-12-12,16.280833333333334,9.22,23.8,0.5,18:01:00,18:01:00,America/Mexico_City, GMT-06
2016-12-13,15.887083333333335,7.62,23.1,0.45,18:02:00,18:02:00,America/Mexico_City, GMT-06
2016-12-14,15.863333333333335,7.07,24.7,0.42,18:02:00,18:02:00,America/Mexico_City, GMT-06
2016-12-15,15.523333333333333,10.13,22.24,0.66,18:03:00,18:03:00,America/Mexico_City, GMT-06
2016-12-16,15.610416666666667,9.39,21.64,0.66,18:03:00,18:03:00,America/Mexico_City, GMT-06
2016-12-17,16.994583333333335,10.63,23.87,0.61,18:03:00,18:03:00,America/Mexico_City, GMT-06
2016-12-18,16.527083333333334,10.6,23.22,0.61,18:04:00,18:04:00,America/Mexico_City, GMT-06
2016-12-19,15.052916666666668,10.34,21.28,0.64,18:04:00,18:04:00,America/Mexico_City, GMT-06
2016-12-20,14.64625,8.06,22.3,0.63,18:05:00,18:05:00,America/Mexico_City, GMT-06
2016-12-21,14.762500000000003,7.29,22.16,0.56,18:05:00,18:05:00,America/Mexico_City, GMT-06
2016-12-22,14.772916666666672,6.32,24.04,0.54,18:06:00,18:06:00,America/Mexico_City, GMT-06
2016-12-23,13.97166666666667,5.39,22.94,0.57,18:06:00,18:06:00,America/Mexico_City, GMT-06
2016-12-24,15.259583333333333,7.18,24.01,0.48,18:07:00,18:07:00,America/Mexico_City, GMT-06
2016-12-25,15.132083333333336,8.01,22.21,0.43,18:07:00,18:07:00,America/Mexico_City, GMT-06
2016-12-26,15.805416666666668,8.02,22.89,0.46,18:08:00,18:08:00,America/Mexico_City, GMT-06
2016-12-27,14.956666666666669,7.27,22.96,0.53,18:08:00,18:08:00,America/Mexico_City, GMT-06
2016-12-28,16.497916666666665,10.0,23.28,0.56,18:09:00,18:09:00,America/Mexico_City, GMT-06
2016-12-29,15.293333333333335,9.19,23.17,0.59,18:09:00,18:09:00,America/Mexico_City, GMT-06
2016-12-30,14.469583333333333,11.24,19.1,0.58,18:10:00,18:10:00,America/Mexico_City, GMT-06
2016-12-31,14.923750000000004,7.1,21.06,0.57,18:11:00,18:11:00,America/Mexico_City, GMT-06
