"climate","tipo","capacity","Freq","capacity<.75","capacity.75","capacity1","capacity1.5","capacity2","capacity>2","capacityunknown","se.capacity<.75","se.capacity.75","se.capacity1","se.capacity1.5","se.capacity2","se.capacity>2","se.capacityunknown"
"Arid","Central","<.75",7763,0.0489825535539641,0.0298261665141812,0.0536454554058744,0.0213711076758053,0.0571095056314478,0.259015048742783,0.530050162475944,0.0172755653753796,0.0174813180713266,0.0221627316783672,0.0123673903326039,0.0205263370241638,0.0500001701473105,0.053734181431349
"Arid","Central",".75",4727,0.0489825535539641,0.0298261665141812,0.0536454554058744,0.0213711076758053,0.0571095056314478,0.259015048742783,0.530050162475944,0.0172755653753796,0.0174813180713266,0.0221627316783672,0.0123673903326039,0.0205263370241638,0.0500001701473105,0.053734181431349
"Arid","Central","1",8502,0.0489825535539641,0.0298261665141812,0.0536454554058744,0.0213711076758053,0.0571095056314478,0.259015048742783,0.530050162475944,0.0172755653753796,0.0174813180713266,0.0221627316783672,0.0123673903326039,0.0205263370241638,0.0500001701473105,0.053734181431349
"Arid","Central","2",9051,0.0489825535539641,0.0298261665141812,0.0536454554058744,0.0213711076758053,0.0571095056314478,0.259015048742783,0.530050162475944,0.0172755653753796,0.0174813180713266,0.0221627316783672,0.0123673903326039,0.0205263370241638,0.0500001701473105,0.053734181431349
"Arid","Central",">2",41050,0.0489825535539641,0.0298261665141812,0.0536454554058744,0.0213711076758053,0.0571095056314478,0.259015048742783,0.530050162475944,0.0172755653753796,0.0174813180713266,0.0221627316783672,0.0123673903326039,0.0205263370241638,0.0500001701473105,0.053734181431349
"Arid","Central","unknown",84005,0.0489825535539641,0.0298261665141812,0.0536454554058744,0.0213711076758053,0.0571095056314478,0.259015048742783,0.530050162475944,0.0172755653753796,0.0174813180713266,0.0221627316783672,0.0123673903326039,0.0205263370241638,0.0500001701473105,0.053734181431349
"Arid","Central","1.5",3387,0.0489825535539641,0.0298261665141812,0.0536454554058744,0.0213711076758053,0.0571095056314478,0.259015048742783,0.530050162475944,0.0172755653753796,0.0174813180713266,0.0221627316783672,0.0123673903326039,0.0205263370241638,0.0500001701473105,0.053734181431349
"Arid","Evaporative","<.75",149231,0.148715996504106,0.05782076668497,0.0631562897685316,0.0223755135964156,0.00942237033154187,0.00433897413257888,0.694170088981856,0.0164049477109558,0.00848952364879884,0.0110939507306166,0.00532328553557179,0.00359667157289208,0.00232895600718657,0.0268136960700867
"Arid","Evaporative",".75",58021,0.148715996504106,0.05782076668497,0.0631562897685316,0.0223755135964156,0.00942237033154187,0.00433897413257888,0.694170088981856,0.0164049477109558,0.00848952364879884,0.0110939507306166,0.00532328553557179,0.00359667157289208,0.00232895600718657,0.0268136960700867
"Arid","Evaporative","1",63375,0.148715996504106,0.05782076668497,0.0631562897685316,0.0223755135964156,0.00942237033154187,0.00433897413257888,0.694170088981856,0.0164049477109558,0.00848952364879884,0.0110939507306166,0.00532328553557179,0.00359667157289208,0.00232895600718657,0.0268136960700867
"Arid","Evaporative","2",9455,0.148715996504106,0.05782076668497,0.0631562897685316,0.0223755135964156,0.00942237033154187,0.00433897413257888,0.694170088981856,0.0164049477109558,0.00848952364879884,0.0110939507306166,0.00532328553557179,0.00359667157289208,0.00232895600718657,0.0268136960700867
"Arid","Evaporative",">2",4354,0.148715996504106,0.05782076668497,0.0631562897685316,0.0223755135964156,0.00942237033154187,0.00433897413257888,0.694170088981856,0.0164049477109558,0.00848952364879884,0.0110939507306166,0.00532328553557179,0.00359667157289208,0.00232895600718657,0.0268136960700867
"Arid","Evaporative","unknown",696574,0.148715996504106,0.05782076668497,0.0631562897685316,0.0223755135964156,0.00942237033154187,0.00433897413257888,0.694170088981856,0.0164049477109558,0.00848952364879884,0.0110939507306166,0.00532328553557179,0.00359667157289208,0.00232895600718657,0.0268136960700867
"Arid","Evaporative","1.5",22453,0.148715996504106,0.05782076668497,0.0631562897685316,0.0223755135964156,0.00942237033154187,0.00433897413257888,0.694170088981856,0.0164049477109558,0.00848952364879884,0.0110939507306166,0.00532328553557179,0.00359667157289208,0.00232895600718657,0.0268136960700867
"Arid","Minisplit_inverter","<.75",14663,0.0177973003644908,0.00943816460712547,0.661341515665338,0.147728638202476,0.116387037574236,0.0106106526485971,0.0366966909377355,0.00677320155474545,0.00366530716567448,0.0236187512605526,0.0154083286357148,0.0160542886038917,0.00649364318996541,0.0100158352086219
"Arid","Minisplit_inverter","1",544872,0.0177973003644908,0.00943816460712547,0.661341515665338,0.147728638202476,0.116387037574236,0.0106106526485971,0.0366966909377355,0.00677320155474545,0.00366530716567448,0.0236187512605526,0.0154083286357148,0.0160542886038917,0.00649364318996541,0.0100158352086219
"Arid","Minisplit_inverter","1.5",121712,0.0177973003644908,0.00943816460712547,0.661341515665338,0.147728638202476,0.116387037574236,0.0106106526485971,0.0366966909377355,0.00677320155474545,0.00366530716567448,0.0236187512605526,0.0154083286357148,0.0160542886038917,0.00649364318996541,0.0100158352086219
"Arid","Minisplit_inverter","2",95890,0.0177973003644908,0.00943816460712547,0.661341515665338,0.147728638202476,0.116387037574236,0.0106106526485971,0.0366966909377355,0.00677320155474545,0.00366530716567448,0.0236187512605526,0.0154083286357148,0.0160542886038917,0.00649364318996541,0.0100158352086219
"Arid","Minisplit_inverter",">2",8742,0.0177973003644908,0.00943816460712547,0.661341515665338,0.147728638202476,0.116387037574236,0.0106106526485971,0.0366966909377355,0.00677320155474545,0.00366530716567448,0.0236187512605526,0.0154083286357148,0.0160542886038917,0.00649364318996541,0.0100158352086219
"Arid","Minisplit_inverter","unknown",30234,0.0177973003644908,0.00943816460712547,0.661341515665338,0.147728638202476,0.116387037574236,0.0106106526485971,0.0366966909377355,0.00677320155474545,0.00366530716567448,0.0236187512605526,0.0154083286357148,0.0160542886038917,0.00649364318996541,0.0100158352086219
"Arid","Minisplit_inverter",".75",7776,0.0177973003644908,0.00943816460712547,0.661341515665338,0.147728638202476,0.116387037574236,0.0106106526485971,0.0366966909377355,0.00677320155474545,0.00366530716567448,0.0236187512605526,0.0154083286357148,0.0160542886038917,0.00649364318996541,0.0100158352086219
"Arid","Minisplit_on/off","<.75",29386,0.0139734643977658,0.0228289679531866,0.637619556192956,0.138425552999402,0.139349477362189,0.00452546997459802,0.0432775111199028,0.00330567334598818,0.00439862442949099,0.0144251037202448,0.0104429017454463,0.0104247099973998,0.00142673816684498,0.00631356965477704
"Arid","Minisplit_on/off","1",1340905,0.0139734643977658,0.0228289679531866,0.637619556192956,0.138425552999402,0.139349477362189,0.00452546997459802,0.0432775111199028,0.00330567334598818,0.00439862442949099,0.0144251037202448,0.0104429017454463,0.0104247099973998,0.00142673816684498,0.00631356965477704
"Arid","Minisplit_on/off","1.5",291107,0.0139734643977658,0.0228289679531866,0.637619556192956,0.138425552999402,0.139349477362189,0.00452546997459802,0.0432775111199028,0.00330567334598818,0.00439862442949099,0.0144251037202448,0.0104429017454463,0.0104247099973998,0.00142673816684498,0.00631356965477704
"Arid","Minisplit_on/off","2",293050,0.0139734643977658,0.0228289679531866,0.637619556192956,0.138425552999402,0.139349477362189,0.00452546997459802,0.0432775111199028,0.00330567334598818,0.00439862442949099,0.0144251037202448,0.0104429017454463,0.0104247099973998,0.00142673816684498,0.00631356965477704
"Arid","Minisplit_on/off",".75",48009,0.0139734643977658,0.0228289679531866,0.637619556192956,0.138425552999402,0.139349477362189,0.00452546997459802,0.0432775111199028,0.00330567334598818,0.00439862442949099,0.0144251037202448,0.0104429017454463,0.0104247099973998,0.00142673816684498,0.00631356965477704
"Arid","Minisplit_on/off","unknown",91012,0.0139734643977658,0.0228289679531866,0.637619556192956,0.138425552999402,0.139349477362189,0.00452546997459802,0.0432775111199028,0.00330567334598818,0.00439862442949099,0.0144251037202448,0.0104429017454463,0.0104247099973998,0.00142673816684498,0.00631356965477704
"Arid","Minisplit_on/off",">2",9517,0.0139734643977658,0.0228289679531866,0.637619556192956,0.138425552999402,0.139349477362189,0.00452546997459802,0.0432775111199028,0.00330567334598818,0.00439862442949099,0.0144251037202448,0.0104429017454463,0.0104247099973998,0.00142673816684498,0.00631356965477704
"Arid","Other","<.75",2352,0.0409734682856297,0.0524711252025155,0.0431858962075153,0.0312353012908733,0.0728533351915405,0,0.759280873821926,0.025719023089228,0.0214798035075579,0.0211843188146342,0.0231883227787176,0.0456678782481625,0,0.0586449362108637
"Arid","Other",".75",3012,0.0409734682856297,0.0524711252025155,0.0431858962075153,0.0312353012908733,0.0728533351915405,0,0.759280873821926,0.025719023089228,0.0214798035075579,0.0211843188146342,0.0231883227787176,0.0456678782481625,0,0.0586449362108637
"Arid","Other","1",2479,0.0409734682856297,0.0524711252025155,0.0431858962075153,0.0312353012908733,0.0728533351915405,0,0.759280873821926,0.025719023089228,0.0214798035075579,0.0211843188146342,0.0231883227787176,0.0456678782481625,0,0.0586449362108637
"Arid","Other","2",4182,0.0409734682856297,0.0524711252025155,0.0431858962075153,0.0312353012908733,0.0728533351915405,0,0.759280873821926,0.025719023089228,0.0214798035075579,0.0211843188146342,0.0231883227787176,0.0456678782481625,0,0.0586449362108637
"Arid","Other",">2",0,0.0409734682856297,0.0524711252025155,0.0431858962075153,0.0312353012908733,0.0728533351915405,0,0.759280873821926,0.025719023089228,0.0214798035075579,0.0211843188146342,0.0231883227787176,0.0456678782481625,0,0.0586449362108637
"Arid","Other","unknown",43585,0.0409734682856297,0.0524711252025155,0.0431858962075153,0.0312353012908733,0.0728533351915405,0,0.759280873821926,0.025719023089228,0.0214798035075579,0.0211843188146342,0.0231883227787176,0.0456678782481625,0,0.0586449362108637
"Arid","Other","1.5",1793,0.0409734682856297,0.0524711252025155,0.0431858962075153,0.0312353012908733,0.0728533351915405,0,0.759280873821926,0.025719023089228,0.0214798035075579,0.0211843188146342,0.0231883227787176,0.0456678782481625,0,0.0586449362108637
"Arid","Portable",".75",0,0.217549656441257,0,0.202192768370067,0.0274096046258401,0.0166334997934893,0,0.536214470769346,0.0900418487364322,0,0.0832031794242463,0.0265203818187757,0.0167378380420861,0,0.106521274564991
"Arid","Portable","1",5385,0.217549656441257,0,0.202192768370067,0.0274096046258401,0.0166334997934893,0,0.536214470769346,0.0900418487364322,0,0.0832031794242463,0.0265203818187757,0.0167378380420861,0,0.106521274564991
"Arid","Portable","1.5",730,0.217549656441257,0,0.202192768370067,0.0274096046258401,0.0166334997934893,0,0.536214470769346,0.0900418487364322,0,0.0832031794242463,0.0265203818187757,0.0167378380420861,0,0.106521274564991
"Arid","Portable","2",443,0.217549656441257,0,0.202192768370067,0.0274096046258401,0.0166334997934893,0,0.536214470769346,0.0900418487364322,0,0.0832031794242463,0.0265203818187757,0.0167378380420861,0,0.106521274564991
"Arid","Portable",">2",0,0.217549656441257,0,0.202192768370067,0.0274096046258401,0.0166334997934893,0,0.536214470769346,0.0900418487364322,0,0.0832031794242463,0.0265203818187757,0.0167378380420861,0,0.106521274564991
"Arid","Portable","unknown",14281,0.217549656441257,0,0.202192768370067,0.0274096046258401,0.0166334997934893,0,0.536214470769346,0.0900418487364322,0,0.0832031794242463,0.0265203818187757,0.0167378380420861,0,0.106521274564991
"Arid","Portable","<.75",5794,0.217549656441257,0,0.202192768370067,0.0274096046258401,0.0166334997934893,0,0.536214470769346,0.0900418487364322,0,0.0832031794242463,0.0265203818187757,0.0167378380420861,0,0.106521274564991
"Arid","Unknown","<.75",0,0,0,0,0,0,0,1,0,0,0,0,0,0,0
"Arid","Unknown",".75",0,0,0,0,0,0,0,1,0,0,0,0,0,0,0
"Arid","Unknown","1",0,0,0,0,0,0,0,1,0,0,0,0,0,0,0
"Arid","Unknown","1.5",0,0,0,0,0,0,0,1,0,0,0,0,0,0,0
"Arid","Unknown","2",0,0,0,0,0,0,0,1,0,0,0,0,0,0,0
"Arid","Unknown",">2",0,0,0,0,0,0,0,1,0,0,0,0,0,0,0
"Arid","Unknown","unknown",7627,0,0,0,0,0,0,1,0,0,0,0,0,0,0
"Arid","Window","<.75",185886,0.130713613663309,0.123424321735816,0.526916093682098,0.0715448995349086,0.0610933515975827,0.00373676416194239,0.0825709556243434,0.0127671614331473,0.0109639729223945,0.0195396927408624,0.00765907843897019,0.00821801123561062,0.00195743355341587,0.0112603087910394
"Arid","Window",".75",175520,0.130713613663309,0.123424321735816,0.526916093682098,0.0715448995349086,0.0610933515975827,0.00373676416194239,0.0825709556243434,0.0127671614331473,0.0109639729223945,0.0195396927408624,0.00765907843897019,0.00821801123561062,0.00195743355341587,0.0112603087910394
"Arid","Window","1",749320,0.130713613663309,0.123424321735816,0.526916093682098,0.0715448995349086,0.0610933515975827,0.00373676416194239,0.0825709556243434,0.0127671614331473,0.0109639729223945,0.0195396927408624,0.00765907843897019,0.00821801123561062,0.00195743355341587,0.0112603087910394
"Arid","Window","1.5",101743,0.130713613663309,0.123424321735816,0.526916093682098,0.0715448995349086,0.0610933515975827,0.00373676416194239,0.0825709556243434,0.0127671614331473,0.0109639729223945,0.0195396927408624,0.00765907843897019,0.00821801123561062,0.00195743355341587,0.0112603087910394
"Arid","Window","2",86880,0.130713613663309,0.123424321735816,0.526916093682098,0.0715448995349086,0.0610933515975827,0.00373676416194239,0.0825709556243434,0.0127671614331473,0.0109639729223945,0.0195396927408624,0.00765907843897019,0.00821801123561062,0.00195743355341587,0.0112603087910394
"Arid","Window","unknown",117423,0.130713613663309,0.123424321735816,0.526916093682098,0.0715448995349086,0.0610933515975827,0.00373676416194239,0.0825709556243434,0.0127671614331473,0.0109639729223945,0.0195396927408624,0.00765907843897019,0.00821801123561062,0.00195743355341587,0.0112603087910394
"Arid","Window",">2",5314,0.130713613663309,0.123424321735816,0.526916093682098,0.0715448995349086,0.0610933515975827,0.00373676416194239,0.0825709556243434,0.0127671614331473,0.0109639729223945,0.0195396927408624,0.00765907843897019,0.00821801123561062,0.00195743355341587,0.0112603087910394
"Temperate","Central",".75",0,0,0,0,0,0,0,1,0,0,0,0,0,0,0
"Temperate","Central","1",0,0,0,0,0,0,0,1,0,0,0,0,0,0,0
"Temperate","Central","1.5",0,0,0,0,0,0,0,1,0,0,0,0,0,0,0
"Temperate","Central","<.75",0,0,0,0,0,0,0,1,0,0,0,0,0,0,0
"Temperate","Central","2",0,0,0,0,0,0,0,1,0,0,0,0,0,0,0
"Temperate","Central",">2",0,0,0,0,0,0,0,1,0,0,0,0,0,0,0
"Temperate","Central","unknown",2031,0,0,0,0,0,0,1,0,0,0,0,0,0,0
"Temperate","Evaporative","<.75",3287,0.256837005782153,0.178856071261135,0.0648538834192843,0,0.0614939834349117,0,0.437959056102516,0.181770131723924,0.156766603464881,0.0647365142602752,0,0.0615894568925624,0,0.16849091549889
"Temperate","Evaporative",".75",2289,0.256837005782153,0.178856071261135,0.0648538834192843,0,0.0614939834349117,0,0.437959056102516,0.181770131723924,0.156766603464881,0.0647365142602752,0,0.0615894568925624,0,0.16849091549889
"Temperate","Evaporative","1.5",0,0.256837005782153,0.178856071261135,0.0648538834192843,0,0.0614939834349117,0,0.437959056102516,0.181770131723924,0.156766603464881,0.0647365142602752,0,0.0615894568925624,0,0.16849091549889
"Temperate","Evaporative","2",787,0.256837005782153,0.178856071261135,0.0648538834192843,0,0.0614939834349117,0,0.437959056102516,0.181770131723924,0.156766603464881,0.0647365142602752,0,0.0615894568925624,0,0.16849091549889
"Temperate","Evaporative",">2",0,0.256837005782153,0.178856071261135,0.0648538834192843,0,0.0614939834349117,0,0.437959056102516,0.181770131723924,0.156766603464881,0.0647365142602752,0,0.0615894568925624,0,0.16849091549889
"Temperate","Evaporative","1",830,0.256837005782153,0.178856071261135,0.0648538834192843,0,0.0614939834349117,0,0.437959056102516,0.181770131723924,0.156766603464881,0.0647365142602752,0,0.0615894568925624,0,0.16849091549889
"Temperate","Evaporative","unknown",5605,0.256837005782153,0.178856071261135,0.0648538834192843,0,0.0614939834349117,0,0.437959056102516,0.181770131723924,0.156766603464881,0.0647365142602752,0,0.0615894568925624,0,0.16849091549889
"Temperate","Minisplit_inverter",".75",6509,0.0653160073015127,0.117637490737561,0.357611465543728,0.0809311236015977,0.127505376732754,0.00525925792051472,0.245739278162332,0.0344397378164746,0.0666869656592455,0.072900094466659,0.0324233201176397,0.0477795508294481,0.00530489289431675,0.0720466976450766
"Temperate","Minisplit_inverter","1",19787,0.0653160073015127,0.117637490737561,0.357611465543728,0.0809311236015977,0.127505376732754,0.00525925792051472,0.245739278162332,0.0344397378164746,0.0666869656592455,0.072900094466659,0.0324233201176397,0.0477795508294481,0.00530489289431675,0.0720466976450766
"Temperate","Minisplit_inverter","1.5",4478,0.0653160073015127,0.117637490737561,0.357611465543728,0.0809311236015977,0.127505376732754,0.00525925792051472,0.245739278162332,0.0344397378164746,0.0666869656592455,0.072900094466659,0.0324233201176397,0.0477795508294481,0.00530489289431675,0.0720466976450766
"Temperate","Minisplit_inverter","<.75",3614,0.0653160073015127,0.117637490737561,0.357611465543728,0.0809311236015977,0.127505376732754,0.00525925792051472,0.245739278162332,0.0344397378164746,0.0666869656592455,0.072900094466659,0.0324233201176397,0.0477795508294481,0.00530489289431675,0.0720466976450766
"Temperate","Minisplit_inverter",">2",291,0.0653160073015127,0.117637490737561,0.357611465543728,0.0809311236015977,0.127505376732754,0.00525925792051472,0.245739278162332,0.0344397378164746,0.0666869656592455,0.072900094466659,0.0324233201176397,0.0477795508294481,0.00530489289431675,0.0720466976450766
"Temperate","Minisplit_inverter","unknown",13597,0.0653160073015127,0.117637490737561,0.357611465543728,0.0809311236015977,0.127505376732754,0.00525925792051472,0.245739278162332,0.0344397378164746,0.0666869656592455,0.072900094466659,0.0324233201176397,0.0477795508294481,0.00530489289431675,0.0720466976450766
"Temperate","Minisplit_inverter","2",7055,0.0653160073015127,0.117637490737561,0.357611465543728,0.0809311236015977,0.127505376732754,0.00525925792051472,0.245739278162332,0.0344397378164746,0.0666869656592455,0.072900094466659,0.0324233201176397,0.0477795508294481,0.00530489289431675,0.0720466976450766
"Temperate","Minisplit_on/off","<.75",14468,0.112419092908149,0.042363069846228,0.388921264675944,0.051811619540471,0.0990465978227931,0.0045611008803624,0.300877254326053,0.0314562546545719,0.0162284080993862,0.065088025986771,0.0193477664051203,0.0500243920443986,0.00460106327010587,0.0523163078188139
"Temperate","Minisplit_on/off",".75",5452,0.112419092908149,0.042363069846228,0.388921264675944,0.051811619540471,0.0990465978227931,0.0045611008803624,0.300877254326053,0.0314562546545719,0.0162284080993862,0.065088025986771,0.0193477664051203,0.0500243920443986,0.00460106327010587,0.0523163078188139
"Temperate","Minisplit_on/off","1",50053,0.112419092908149,0.042363069846228,0.388921264675944,0.051811619540471,0.0990465978227931,0.0045611008803624,0.300877254326053,0.0314562546545719,0.0162284080993862,0.065088025986771,0.0193477664051203,0.0500243920443986,0.00460106327010587,0.0523163078188139
"Temperate","Minisplit_on/off","1.5",6668,0.112419092908149,0.042363069846228,0.388921264675944,0.051811619540471,0.0990465978227931,0.0045611008803624,0.300877254326053,0.0314562546545719,0.0162284080993862,0.065088025986771,0.0193477664051203,0.0500243920443986,0.00460106327010587,0.0523163078188139
"Temperate","Minisplit_on/off","2",12747,0.112419092908149,0.042363069846228,0.388921264675944,0.051811619540471,0.0990465978227931,0.0045611008803624,0.300877254326053,0.0314562546545719,0.0162284080993862,0.065088025986771,0.0193477664051203,0.0500243920443986,0.00460106327010587,0.0523163078188139
"Temperate","Minisplit_on/off",">2",587,0.112419092908149,0.042363069846228,0.388921264675944,0.051811619540471,0.0990465978227931,0.0045611008803624,0.300877254326053,0.0314562546545719,0.0162284080993862,0.065088025986771,0.0193477664051203,0.0500243920443986,0.00460106327010587,0.0523163078188139
"Temperate","Minisplit_on/off","unknown",38722,0.112419092908149,0.042363069846228,0.388921264675944,0.051811619540471,0.0990465978227931,0.0045611008803624,0.300877254326053,0.0314562546545719,0.0162284080993862,0.065088025986771,0.0193477664051203,0.0500243920443986,0.00460106327010587,0.0523163078188139
"Temperate","Portable","<.75",2868,0.288270177907327,0.106543371193085,0.0751834355211579,0,0,0,0.53000301537843,0.165206000161839,0.0568515303369317,0.0582348695165403,0,0,0,0.154146826602611
"Temperate","Portable",".75",1060,0.288270177907327,0.106543371193085,0.0751834355211579,0,0,0,0.53000301537843,0.165206000161839,0.0568515303369317,0.0582348695165403,0,0,0,0.154146826602611
"Temperate","Portable","1.5",0,0.288270177907327,0.106543371193085,0.0751834355211579,0,0,0,0.53000301537843,0.165206000161839,0.0568515303369317,0.0582348695165403,0,0,0,0.154146826602611
"Temperate","Portable","2",0,0.288270177907327,0.106543371193085,0.0751834355211579,0,0,0,0.53000301537843,0.165206000161839,0.0568515303369317,0.0582348695165403,0,0,0,0.154146826602611
"Temperate","Portable",">2",0,0.288270177907327,0.106543371193085,0.0751834355211579,0,0,0,0.53000301537843,0.165206000161839,0.0568515303369317,0.0582348695165403,0,0,0,0.154146826602611
"Temperate","Portable","1",748,0.288270177907327,0.106543371193085,0.0751834355211579,0,0,0,0.53000301537843,0.165206000161839,0.0568515303369317,0.0582348695165403,0,0,0,0.154146826602611
"Temperate","Portable","unknown",5273,0.288270177907327,0.106543371193085,0.0751834355211579,0,0,0,0.53000301537843,0.165206000161839,0.0568515303369317,0.0582348695165403,0,0,0,0.154146826602611
"Temperate","Unknown","<.75",0,0,0,0,0,0,0,1,0,0,0,0,0,0,0
"Temperate","Unknown",".75",0,0,0,0,0,0,0,1,0,0,0,0,0,0,0
"Temperate","Unknown","1",0,0,0,0,0,0,0,1,0,0,0,0,0,0,0
"Temperate","Unknown","1.5",0,0,0,0,0,0,0,1,0,0,0,0,0,0,0
"Temperate","Unknown","2",0,0,0,0,0,0,0,1,0,0,0,0,0,0,0
"Temperate","Unknown",">2",0,0,0,0,0,0,0,1,0,0,0,0,0,0,0
"Temperate","Unknown","unknown",833,0,0,0,0,0,0,1,0,0,0,0,0,0,0
"Temperate","Window",".75",6877,0.206498699296657,0.0828234897388958,0.189541381635996,0.00853887657770498,0.0162949224395414,0,0.496302630311205,0.0493127717441444,0.0305148468889008,0.0467300934782897,0.00853313531804051,0.0162967335395882,0,0.0868680936770516
"Temperate","Window","1",15738,0.206498699296657,0.0828234897388958,0.189541381635996,0.00853887657770498,0.0162949224395414,0,0.496302630311205,0.0493127717441444,0.0305148468889008,0.0467300934782897,0.00853313531804051,0.0162967335395882,0,0.0868680936770516
"Temperate","Window","1.5",709,0.206498699296657,0.0828234897388958,0.189541381635996,0.00853887657770498,0.0162949224395414,0,0.496302630311205,0.0493127717441444,0.0305148468889008,0.0467300934782897,0.00853313531804051,0.0162967335395882,0,0.0868680936770516
"Temperate","Window","<.75",17146,0.206498699296657,0.0828234897388958,0.189541381635996,0.00853887657770498,0.0162949224395414,0,0.496302630311205,0.0493127717441444,0.0305148468889008,0.0467300934782897,0.00853313531804051,0.0162967335395882,0,0.0868680936770516
"Temperate","Window",">2",0,0.206498699296657,0.0828234897388958,0.189541381635996,0.00853887657770498,0.0162949224395414,0,0.496302630311205,0.0493127717441444,0.0305148468889008,0.0467300934782897,0.00853313531804051,0.0162967335395882,0,0.0868680936770516
"Temperate","Window","unknown",41209,0.206498699296657,0.0828234897388958,0.189541381635996,0.00853887657770498,0.0162949224395414,0,0.496302630311205,0.0493127717441444,0.0305148468889008,0.0467300934782897,0.00853313531804051,0.0162967335395882,0,0.0868680936770516
"Temperate","Window","2",1353,0.206498699296657,0.0828234897388958,0.189541381635996,0.00853887657770498,0.0162949224395414,0,0.496302630311205,0.0493127717441444,0.0305148468889008,0.0467300934782897,0.00853313531804051,0.0162967335395882,0,0.0868680936770516
"Tropical","Central","<.75",0,0,0,0,0,0,0,1,0,0,0,0,0,0,0
"Tropical","Central",".75",0,0,0,0,0,0,0,1,0,0,0,0,0,0,0
"Tropical","Central","1",0,0,0,0,0,0,0,1,0,0,0,0,0,0,0
"Tropical","Central","1.5",0,0,0,0,0,0,0,1,0,0,0,0,0,0,0
"Tropical","Central","2",0,0,0,0,0,0,0,1,0,0,0,0,0,0,0
"Tropical","Central",">2",0,0,0,0,0,0,0,1,0,0,0,0,0,0,0
"Tropical","Central","unknown",2202,0,0,0,0,0,0,1,0,0,0,0,0,0,0
"Tropical","Evaporative","<.75",1046,0.108191973520894,0.0502689284236657,0,0,0,0,0.841539098055441,0.107879494440253,0.0529650938633931,0,0,0,0,0.122493080251808
"Tropical","Evaporative",".75",486,0.108191973520894,0.0502689284236657,0,0,0,0,0.841539098055441,0.107879494440253,0.0529650938633931,0,0,0,0,0.122493080251808
"Tropical","Evaporative","1",0,0.108191973520894,0.0502689284236657,0,0,0,0,0.841539098055441,0.107879494440253,0.0529650938633931,0,0,0,0,0.122493080251808
"Tropical","Evaporative","2",0,0.108191973520894,0.0502689284236657,0,0,0,0,0.841539098055441,0.107879494440253,0.0529650938633931,0,0,0,0,0.122493080251808
"Tropical","Evaporative",">2",0,0.108191973520894,0.0502689284236657,0,0,0,0,0.841539098055441,0.107879494440253,0.0529650938633931,0,0,0,0,0.122493080251808
"Tropical","Evaporative","unknown",8136,0.108191973520894,0.0502689284236657,0,0,0,0,0.841539098055441,0.107879494440253,0.0529650938633931,0,0,0,0,0.122493080251808
"Tropical","Evaporative","1.5",0,0.108191973520894,0.0502689284236657,0,0,0,0,0.841539098055441,0.107879494440253,0.0529650938633931,0,0,0,0,0.122493080251808
"Tropical","Minisplit_inverter","<.75",15399,0.0682280382279053,0.0684229881390702,0.37092322074976,0.149982941882773,0.0608908324804275,0.00102791771341477,0.28052406080665,0.035090654239131,0.0206573751338119,0.0430455293675964,0.0363280991921811,0.0172311292722794,0.00103214440220462,0.0483726540597788
"Tropical","Minisplit_inverter","1",83717,0.0682280382279053,0.0684229881390702,0.37092322074976,0.149982941882773,0.0608908324804275,0.00102791771341477,0.28052406080665,0.035090654239131,0.0206573751338119,0.0430455293675964,0.0363280991921811,0.0172311292722794,0.00103214440220462,0.0483726540597788
"Tropical","Minisplit_inverter","1.5",33851,0.0682280382279053,0.0684229881390702,0.37092322074976,0.149982941882773,0.0608908324804275,0.00102791771341477,0.28052406080665,0.035090654239131,0.0206573751338119,0.0430455293675964,0.0363280991921811,0.0172311292722794,0.00103214440220462,0.0483726540597788
"Tropical","Minisplit_inverter","2",13743,0.0682280382279053,0.0684229881390702,0.37092322074976,0.149982941882773,0.0608908324804275,0.00102791771341477,0.28052406080665,0.035090654239131,0.0206573751338119,0.0430455293675964,0.0363280991921811,0.0172311292722794,0.00103214440220462,0.0483726540597788
"Tropical","Minisplit_inverter",">2",232,0.0682280382279053,0.0684229881390702,0.37092322074976,0.149982941882773,0.0608908324804275,0.00102791771341477,0.28052406080665,0.035090654239131,0.0206573751338119,0.0430455293675964,0.0363280991921811,0.0172311292722794,0.00103214440220462,0.0483726540597788
"Tropical","Minisplit_inverter","unknown",63314,0.0682280382279053,0.0684229881390702,0.37092322074976,0.149982941882773,0.0608908324804275,0.00102791771341477,0.28052406080665,0.035090654239131,0.0206573751338119,0.0430455293675964,0.0363280991921811,0.0172311292722794,0.00103214440220462,0.0483726540597788
"Tropical","Minisplit_inverter",".75",15443,0.0682280382279053,0.0684229881390702,0.37092322074976,0.149982941882773,0.0608908324804275,0.00102791771341477,0.28052406080665,0.035090654239131,0.0206573751338119,0.0430455293675964,0.0363280991921811,0.0172311292722794,0.00103214440220462,0.0483726540597788
"Tropical","Minisplit_on/off","<.75",24013,0.0408687394054095,0.0629310168764594,0.522892825292223,0.100547344629691,0.0382783832910117,0.00047994771633388,0.234001742788871,0.00907871835578015,0.0115917354024278,0.0257040568826742,0.0155303241668897,0.00916088357113005,0.000481717744034876,0.027711590870135
"Tropical","Minisplit_on/off",".75",36976,0.0408687394054095,0.0629310168764594,0.522892825292223,0.100547344629691,0.0382783832910117,0.00047994771633388,0.234001742788871,0.00907871835578015,0.0115917354024278,0.0257040568826742,0.0155303241668897,0.00916088357113005,0.000481717744034876,0.027711590870135
"Tropical","Minisplit_on/off","1",307233,0.0408687394054095,0.0629310168764594,0.522892825292223,0.100547344629691,0.0382783832910117,0.00047994771633388,0.234001742788871,0.00907871835578015,0.0115917354024278,0.0257040568826742,0.0155303241668897,0.00916088357113005,0.000481717744034876,0.027711590870135
"Tropical","Minisplit_on/off","1.5",59078,0.0408687394054095,0.0629310168764594,0.522892825292223,0.100547344629691,0.0382783832910117,0.00047994771633388,0.234001742788871,0.00907871835578015,0.0115917354024278,0.0257040568826742,0.0155303241668897,0.00916088357113005,0.000481717744034876,0.027711590870135
"Tropical","Minisplit_on/off","2",22491,0.0408687394054095,0.0629310168764594,0.522892825292223,0.100547344629691,0.0382783832910117,0.00047994771633388,0.234001742788871,0.00907871835578015,0.0115917354024278,0.0257040568826742,0.0155303241668897,0.00916088357113005,0.000481717744034876,0.027711590870135
"Tropical","Minisplit_on/off",">2",282,0.0408687394054095,0.0629310168764594,0.522892825292223,0.100547344629691,0.0382783832910117,0.00047994771633388,0.234001742788871,0.00907871835578015,0.0115917354024278,0.0257040568826742,0.0155303241668897,0.00916088357113005,0.000481717744034876,0.027711590870135
"Tropical","Minisplit_on/off","unknown",137491,0.0408687394054095,0.0629310168764594,0.522892825292223,0.100547344629691,0.0382783832910117,0.00047994771633388,0.234001742788871,0.00907871835578015,0.0115917354024278,0.0257040568826742,0.0155303241668897,0.00916088357113005,0.000481717744034876,0.027711590870135
"Tropical","Portable","<.75",277,0.0266499903790648,0.0627284972099288,0.183567442755436,0,0,0,0.727054069655571,0.0276956145396559,0.0629729988678839,0.125197112445124,0,0,0,0.141554786450511
"Tropical","Portable",".75",652,0.0266499903790648,0.0627284972099288,0.183567442755436,0,0,0,0.727054069655571,0.0276956145396559,0.0629729988678839,0.125197112445124,0,0,0,0.141554786450511
"Tropical","Portable","1",1908,0.0266499903790648,0.0627284972099288,0.183567442755436,0,0,0,0.727054069655571,0.0276956145396559,0.0629729988678839,0.125197112445124,0,0,0,0.141554786450511
"Tropical","Portable","1.5",0,0.0266499903790648,0.0627284972099288,0.183567442755436,0,0,0,0.727054069655571,0.0276956145396559,0.0629729988678839,0.125197112445124,0,0,0,0.141554786450511
"Tropical","Portable","2",0,0.0266499903790648,0.0627284972099288,0.183567442755436,0,0,0,0.727054069655571,0.0276956145396559,0.0629729988678839,0.125197112445124,0,0,0,0.141554786450511
"Tropical","Portable",">2",0,0.0266499903790648,0.0627284972099288,0.183567442755436,0,0,0,0.727054069655571,0.0276956145396559,0.0629729988678839,0.125197112445124,0,0,0,0.141554786450511
"Tropical","Portable","unknown",7557,0.0266499903790648,0.0627284972099288,0.183567442755436,0,0,0,0.727054069655571,0.0276956145396559,0.0629729988678839,0.125197112445124,0,0,0,0.141554786450511
"Tropical","Unknown","<.75",0,0,0,0,0,0,0,1,0,0,0,0,0,0,0
"Tropical","Unknown",".75",0,0,0,0,0,0,0,1,0,0,0,0,0,0,0
"Tropical","Unknown","1",0,0,0,0,0,0,0,1,0,0,0,0,0,0,0
"Tropical","Unknown","1.5",0,0,0,0,0,0,0,1,0,0,0,0,0,0,0
"Tropical","Unknown","2",0,0,0,0,0,0,0,1,0,0,0,0,0,0,0
"Tropical","Unknown",">2",0,0,0,0,0,0,0,1,0,0,0,0,0,0,0
"Tropical","Unknown","unknown",671,0,0,0,0,0,0,1,0,0,0,0,0,0,0
"Tropical","Window","<.75",48146,0.143385550062541,0.137280362141879,0.380808862945977,0.0522157364941331,0.00933647030793972,0,0.276973018047531,0.0216577616113762,0.0193049016299845,0.0302512608282339,0.012448687240758,0.00389485212572803,0,0.0320570066840378
"Tropical","Window","1",127868,0.143385550062541,0.137280362141879,0.380808862945977,0.0522157364941331,0.00933647030793972,0,0.276973018047531,0.0216577616113762,0.0193049016299845,0.0302512608282339,0.012448687240758,0.00389485212572803,0,0.0320570066840378
"Tropical","Window","1.5",17533,0.143385550062541,0.137280362141879,0.380808862945977,0.0522157364941331,0.00933647030793972,0,0.276973018047531,0.0216577616113762,0.0193049016299845,0.0302512608282339,0.012448687240758,0.00389485212572803,0,0.0320570066840378
"Tropical","Window","2",3135,0.143385550062541,0.137280362141879,0.380808862945977,0.0522157364941331,0.00933647030793972,0,0.276973018047531,0.0216577616113762,0.0193049016299845,0.0302512608282339,0.012448687240758,0.00389485212572803,0,0.0320570066840378
"Tropical","Window",".75",46096,0.143385550062541,0.137280362141879,0.380808862945977,0.0522157364941331,0.00933647030793972,0,0.276973018047531,0.0216577616113762,0.0193049016299845,0.0302512608282339,0.012448687240758,0.00389485212572803,0,0.0320570066840378
"Tropical","Window","unknown",93002,0.143385550062541,0.137280362141879,0.380808862945977,0.0522157364941331,0.00933647030793972,0,0.276973018047531,0.0216577616113762,0.0193049016299845,0.0302512608282339,0.012448687240758,0.00389485212572803,0,0.0320570066840378
"Tropical","Window",">2",0,0.143385550062541,0.137280362141879,0.380808862945977,0.0522157364941331,0.00933647030793972,0,0.276973018047531,0.0216577616113762,0.0193049016299845,0.0302512608282339,0.012448687240758,0.00389485212572803,0,0.0320570066840378
