"houseage","year","Rate","se","Freq","total.households"
"11 to 20","2008",0.0185926213256914,0.00250438240231286,142118,7643785
"21 to 30","2008",0.0171267168511353,0.00277574956087063,88206,5150199
"3 to 6","2008",0.0106868431641631,0.0032225072135429,30410,2845555
"31 to 50","2008",0.0233089873834789,0.00419245697844361,80719,3462999
"50+","2008",0.0145391529107678,0.00422082066189898,16830,1157564
"7 to 10","2008",0.0199837555099075,0.00453122198669175,81709,4088771
"less than 3","2008",0.0316936522539098,0.0102954241341792,34451,1087000
NA,"2008",0.0135243259826574,0.00300338335965537,31828,2353389
"11 to 20","2010",0.0273260058509687,0.00418657267264937,209007,7648648
"21 to 30","2010",0.027280074603668,0.00448759614310144,138222,5066775
"3 to 6","2010",0.0218543792756603,0.0060736088253426,61662,2821494
"31 to 50","2010",0.0323391318005901,0.0063372078452544,119006,3679938
"50+","2010",0.00533549746175364,0.00263584029736659,4635,868710
"7 to 10","2010",0.0199250424524984,0.00649011150948248,63456,3184736
"less than 3","2010",0.0104799725947448,0.00447044579855056,17346,1655157
"11 to 20","2012",0.0312066730767023,0.00554439048560377,241895,7751387
"21 to 30","2012",0.0520949379297169,0.00889208196993647,311389,5977337
"3 to 6","2012",0.0291533164970509,0.00830695397247484,86094,2953146
"31 to 50","2012",0.0585820514527979,0.0101978949561574,263918,4505100
"50+","2012",0.028026846779683,0.0108132853071183,27669,987232
"7 to 10","2012",0.0234401629070567,0.00620290395228301,69457,2963162
"less than 3","2012",0.0324481602887555,0.0121522085391095,50217,1547607
"11 to 20","2014",0.0300089004541861,0.0035118058267478,230551,7682754
"21 to 30","2014",0.0296572924259642,0.00464934457026128,158107,5331134
"3 to 6","2014",0.0399470280152431,0.00733138657833012,134293,3361777
"31 to 50","2014",0.0340326202693812,0.0050264764882408,137181,4030868
"50+","2014",0.00966857600444514,0.00411581872375406,9466,979048
"7 to 10","2014",0.0393629781773918,0.00607917632882446,150595,3825803
"less than 3","2014",0.0209441447730125,0.00490127352093952,51847,2475489
"11 to 20","2016",0.029086462361352,0.00205443532617403,239618,8238128
"21 to 30","2016",0.0293692714185135,0.00236629551190124,157806,5373167
"3 to 6","2016",0.0237204497013349,0.00294406563141911,69200,2917314
"31 to 50","2016",0.0257643201219915,0.00301882308334588,116919,4538020
"50+","2016",0.0149160285528877,0.00402969129459618,14366,963125
"7 to 10","2016",0.0329074414019205,0.00312462491662684,121433,3690138
"less than 3","2016",0.0210797756169606,0.00276734425290119,44331,2103011
"11 to 20","2018",0.0331745964526023,0.00208200893245161,290630,8760619
"21 to 30","2018",0.0340486780148337,0.00253233162090228,195634,5745715
"3 to 6","2018",0.0233033524121014,0.00291538991613565,60648,2602544
"31 to 50","2018",0.0305021021992238,0.00254110970244987,162972,5342976
"50+","2018",0.0283881647387767,0.00536778949959501,31109,1095844
"7 to 10","2018",0.0318932767406171,0.00305942472336609,111329,3490673
"less than 3","2018",0.0207802553028921,0.00292342839384443,40904,1968407
