"est_socio","size","tipo_viv","climate","year","Rate","se","Freq","total.households"
"high","Large","house","Arid","2012",0.574577249502961,0.191058109713339,26877,46777
"high","Large","house","Temperate","2012",0.800064900823429,0.138226609859972,19724,24653
"high","Large","house","Tropical","2012",0,0,0,1596
"high","Medium","apartment","Arid","2012",1,0,6345,6345
"high","Medium","apartment","Temperate","2012",0.07144192436277,0.043385384472966,16433,230019
"high","Medium","apartment","Tropical","2012",0,0,0,4351
"high","Medium","house","Arid","2012",0.402583958140083,0.0685544434410414,235665,585381
"high","Medium","house","Temperate","2012",0.0360436714919694,0.0233113351900793,22327,619443
"high","Medium","house","Tropical","2012",0.0730034387010169,0.0553814464774649,3970,54381
"high","Small","apartment","Arid","2012",0.220492975519475,0.087752109436541,7863,35661
"high","Small","apartment","Temperate","2012",0.0664989251043565,0.0600173421831428,13796,207462
"high","Small","apartment","Tropical","2012",0.0414499768292055,0.0453308402232187,805,19421
"high","Small","house","Arid","2012",0.289440065979762,0.0902805030235598,100370,346773
"high","Small","house","Temperate","2012",0.0255288359225367,0.0165364001852065,5998,234950
"high","Small","house","Tropical","2012",0.0387373081179924,0.0381138465486197,1610,41562
"high","Small","other","Temperate","2012",0,0,0,27201
"high","Small","other","Tropical","2012",0,0,0,2670
"low","Large","house","Temperate","2012",0,0,0,9111
"low","Large","house","Tropical","2012",0,0,0,7333
"low","Medium","house","Arid","2012",0.0167437665473801,0.0173604209731348,1151,68742
"low","Medium","house","Temperate","2012",0.00542620786814458,0.00552304760606389,1895,349231
"low","Medium","house","Tropical","2012",0,0,0,324083
"low","Medium","other","Arid","2012",0,0,0,2538
"low","Small","house","Arid","2012",0.0348497525087989,0.0192991707991497,14912,427894
"low","Small","house","Temperate","2012",0,0,0,2372003
"low","Small","house","Tropical","2012",0.00156923856410349,0.00154820055546908,4175,2660526
"low","Small","other","Arid","2012",0,0,0,9831
"low","Small","other","Temperate","2012",0,0,0,23216
"low","Small","other","Tropical","2012",0,0,0,2711
"medium-high","Large","apartment","Temperate","2012",1,0,2965,2965
"medium-high","Large","house","Arid","2012",0.29053416383541,0.230672763507273,6157,21192
"medium-high","Large","house","Temperate","2012",0,0,0,30037
"medium-high","Large","house","Tropical","2012",0,0,0,17893
"medium-high","Medium","apartment","Arid","2012",0.332165683382498,0.256489068245913,10810,32544
"medium-high","Medium","apartment","Temperate","2012",0.147370010336457,0.0865212256028109,25378,172206
"medium-high","Medium","apartment","Tropical","2012",0,0,0,16812
"medium-high","Medium","house","Arid","2012",0.200856253335495,0.0340114839078937,169739,845077
"medium-high","Medium","house","Temperate","2012",0.0443225416525037,0.0254809647153118,49941,1126763
"medium-high","Medium","house","Tropical","2012",0.00608531357242259,0.00613412646616077,1736,285277
"medium-high","Medium","other","Temperate","2012",0,0,0,19743
"medium-high","Small","apartment","Arid","2012",0,0,0,63472
"medium-high","Small","apartment","Temperate","2012",0,0,0,376601
"medium-high","Small","apartment","Tropical","2012",0,0,0,32008
"medium-high","Small","house","Arid","2012",0.101216354296432,0.0276892041860713,108468,1071645
"medium-high","Small","house","Temperate","2012",0.0217036123681099,0.0158261726157554,24801,1142713
"medium-high","Small","house","Tropical","2012",0,0,0,438610
"medium-high","Small","other","Arid","2012",0,0,0,57529
"medium-high","Small","other","Temperate","2012",0,0,0,118594
"medium-high","Small","other","Tropical","2012",0,0,0,82894
"medium-low","Large","house","Arid","2012",0.256645666871543,0.17480247193325,6681,26032
"medium-low","Large","house","Temperate","2012",0.0203932414604295,0.0197871377020876,2566,125826
"medium-low","Large","house","Tropical","2012",0,0,0,10468
"medium-low","Medium","apartment","Arid","2012",0.5,0,5704,11408
"medium-low","Medium","apartment","Temperate","2012",0,0,0,90487
"medium-low","Medium","apartment","Tropical","2012",0.0719624798475744,0.0862133202747646,1964,27292
"medium-low","Medium","house","Arid","2012",0.0954754249881477,0.0247686749977076,95860,1004028
"medium-low","Medium","house","Temperate","2012",0.0128935896730442,0.00581954512383932,35851,2780529
"medium-low","Medium","house","Tropical","2012",0.0401439466835433,0.0250870746771577,24865,619396
"medium-low","Medium","other","Arid","2012",0,0,0,2824
"medium-low","Medium","other","Temperate","2012",0,0,0,32047
"medium-low","Medium","other","Tropical","2012",0,0,0,3335
"medium-low","Small","apartment","Arid","2012",0,0,0,18639
"medium-low","Small","apartment","Temperate","2012",0,0,0,531974
"medium-low","Small","apartment","Tropical","2012",0,0,0,58459
"medium-low","Small","house","Arid","2012",0.0723227948511977,0.0143854585387028,197983,2737491
"medium-low","Small","house","Temperate","2012",0.0026927398823945,0.00150940503768165,15140,5622526
"medium-low","Small","house","Tropical","2012",0.000664832368264094,0.000668025076490928,1429,2149414
"medium-low","Small","other","Arid","2012",0,0,0,78287
"medium-low","Small","other","Temperate","2012",0.012561783479684,0.0124498400935103,9157,728957
"medium-low","Small","other","Tropical","2012",0,0,0,199520
"high","Large","apartment","Temperate","2014",0,0,0,5295
"high","Large","house","Arid","2014",0.41415124030786,0.152676329497052,14475,34951
"high","Large","house","Temperate","2014",0.451620973626603,0.159935478339356,21662,47965
"high","Large","house","Tropical","2014",0,0,0,3697
"high","Large","other","Arid","2014",1,0,2396,2396
"high","Medium","apartment","Arid","2014",0.460838172971276,0.298626510962976,5872,12742
"high","Medium","apartment","Temperate","2014",0.0512335809265518,0.0339605695004636,12657,247045
"high","Medium","apartment","Tropical","2014",0,0,0,1604
"high","Medium","house","Arid","2014",0.327681527518891,0.0371581443033974,186168,568137
"high","Medium","house","Temperate","2014",0.0508982413380119,0.0281443114864574,36336,713895
"high","Medium","house","Tropical","2014",0.0689191954237725,0.0334086122750676,7747,112407
"high","Medium","other","Arid","2014",0,0,0,3955
"high","Medium","other","Temperate","2014",0,0,0,10259
"high","Small","apartment","Arid","2014",0.874381567167695,0.0968871561648974,18557,21223
"high","Small","apartment","Temperate","2014",0,0,0,221456
"high","Small","apartment","Tropical","2014",0.181904042312051,0.0578024590226935,963,5294
"high","Small","house","Arid","2014",0.190512949742791,0.0399679648331953,89587,470241
"high","Small","house","Temperate","2014",0.0255593961820164,0.016979653172032,15728,615351
"high","Small","house","Tropical","2014",0.107845253984455,0.0829848608964932,10989,101896
"high","Small","other","Arid","2014",0,0,0,3103
"high","Small","other","Temperate","2014",0,0,0,8482
"high","Small","other","Tropical","2014",0,0,0,1451
"low","Large","house","Temperate","2014",0,0,0,3762
"low","Large","house","Tropical","2014",0,0,0,8748
"low","Medium","apartment","Temperate","2014",0,0,0,3428
"low","Medium","house","Arid","2014",0,0,0,66875
"low","Medium","house","Temperate","2014",0,0,0,385638
"low","Medium","house","Tropical","2014",0.000770031809032111,0.000776959102239993,298,386997
"low","Medium","other","Temperate","2014",0,0,0,4094
"low","Small","apartment","Temperate","2014",0,0,0,10284
"low","Small","house","Arid","2014",0.0174718050188785,0.0128335944431175,7117,407342
"low","Small","house","Temperate","2014",0.000546459499345641,0.000547313920808857,942,1723824
"low","Small","house","Tropical","2014",0,0,0,2581138
"low","Small","other","Arid","2014",0,0,0,10078
"low","Small","other","Temperate","2014",0,0,0,30318
"low","Small","other","Tropical","2014",0,0,0,3002
"medium-high","Large","apartment","Temperate","2014",0,0,0,1617
"medium-high","Large","house","Arid","2014",0.587735415709692,0.161141836031115,10236,17416
"medium-high","Large","house","Temperate","2014",0,0,0,35496
"medium-high","Large","house","Tropical","2014",0,0,0,7444
"medium-high","Medium","apartment","Arid","2014",0.202732349421619,0.137692085292941,4066,20056
"medium-high","Medium","apartment","Temperate","2014",0,0,0,194402
"medium-high","Medium","apartment","Tropical","2014",0,0,0,15499
"medium-high","Medium","house","Arid","2014",0.179987291417828,0.0213762707014746,157772,876573
"medium-high","Medium","house","Temperate","2014",0.0143089221887022,0.00585419696388606,18479,1291432
"medium-high","Medium","house","Tropical","2014",0.00169725410249876,0.00171155131153277,353,207983
"medium-high","Medium","other","Arid","2014",0.203522406136455,0.135917837681908,4033,19816
"medium-high","Medium","other","Temperate","2014",0,0,0,8578
"medium-high","Medium","other","Tropical","2014",0,0,0,1091
"medium-high","Small","apartment","Arid","2014",0.126130514556643,0.0791754524546235,7768,61587
"medium-high","Small","apartment","Temperate","2014",0,0,0,552531
"medium-high","Small","apartment","Tropical","2014",0.0506024096385542,0.0428202676675234,2247,44405
"medium-high","Small","house","Arid","2014",0.0927468386535744,0.0124811378337115,127986,1379950
"medium-high","Small","house","Temperate","2014",0.004537724462225,0.00230847856727186,7722,1701734
"medium-high","Small","house","Tropical","2014",0.00319375166137632,0.00321763239163494,817,255812
"medium-high","Small","other","Arid","2014",0,0,0,32994
"medium-high","Small","other","Temperate","2014",0,0,0,135343
"medium-high","Small","other","Tropical","2014",0,0,0,17373
"medium-low","Large","house","Arid","2014",0.385635193775251,0.165590387241281,12886,33415
"medium-low","Large","house","Temperate","2014",0.00836588090442837,0.00845004660407671,1026,122641
"medium-low","Large","house","Tropical","2014",0,0,0,22354
"medium-low","Medium","apartment","Arid","2014",0,0,0,2060
"medium-low","Medium","apartment","Temperate","2014",0,0,0,34757
"medium-low","Medium","apartment","Tropical","2014",0,0,0,3986
"medium-low","Medium","house","Arid","2014",0.0877773281489171,0.0193505326403796,69846,795718
"medium-low","Medium","house","Temperate","2014",0.000900234793656709,0.000534030673926908,2261,2511567
"medium-low","Medium","house","Tropical","2014",0.00334394860324667,0.0033446411015598,2413,721602
"medium-low","Medium","other","Arid","2014",0.183051341890315,0.172919863046591,1255,6856
"medium-low","Medium","other","Temperate","2014",0,0,0,27775
"medium-low","Medium","other","Tropical","2014",0,0,0,2208
"medium-low","Small","apartment","Arid","2014",0,0,0,17765
"medium-low","Small","apartment","Temperate","2014",0,0,0,236843
"medium-low","Small","apartment","Tropical","2014",0,0,0,52856
"medium-low","Small","house","Arid","2014",0.0476789361833022,0.00742431575334324,122452,2568262
"medium-low","Small","house","Temperate","2014",0.000712329480032006,0.000574977168897685,4161,5841398
"medium-low","Small","house","Tropical","2014",0.00335241922884672,0.00125302991640924,7961,2374703
"medium-low","Small","other","Arid","2014",0.0581147145906493,0.0405627124706572,4220,72615
"medium-low","Small","other","Temperate","2014",0,0,0,353168
"medium-low","Small","other","Tropical","2014",0,0,0,150948
"high","Large","house","Arid","2016",0.711106445517531,0.0818167124955244,16935,23815
"high","Large","house","Temperate","2016",0.038084970627709,0.0235509145289573,1731,45451
"high","Large","house","Tropical","2016",0,0,0,8613
"high","Large","other","Temperate","2016",0,0,0,217
"high","Medium","apartment","Arid","2016",0.58006718924972,0.187662912954061,4662,8037
"high","Medium","apartment","Temperate","2016",0.0597598260156964,0.0322322009829669,9480,158635
"high","Medium","apartment","Tropical","2016",0,0,0,5803
"high","Medium","house","Arid","2016",0.350631929519933,0.0229473655955465,197086,562088
"high","Medium","house","Temperate","2016",0.0314329300287441,0.0139309271333321,24561,781378
"high","Medium","house","Tropical","2016",0.0207101814724484,0.0123624347469422,2004,96764
"high","Medium","other","Arid","2016",0.344579699031918,0.111336057507135,3595,10433
"high","Medium","other","Temperate","2016",0,0,0,4696
"high","Medium","other","Tropical","2016",0,0,0,1135
"high","Small","apartment","Arid","2016",0.192158676921298,0.0903037737296653,3323,17293
"high","Small","apartment","Temperate","2016",0.0020485581302391,0.00206443301265172,533,260183
"high","Small","apartment","Tropical","2016",0,0,0,5577
"high","Small","house","Arid","2016",0.164017887614832,0.0179435449942343,93234,568438
"high","Small","house","Temperate","2016",0.00504010654864616,0.00324848793260781,3175,629947
"high","Small","house","Tropical","2016",0.00653184273332496,0.00474323385923297,884,135337
"high","Small","other","Arid","2016",0.151076214972249,0.0971639102293638,2232,14774
"high","Small","other","Temperate","2016",0,0,0,33458
"high","Small","other","Tropical","2016",0,0,0,4085
"low","Large","house","Arid","2016",0.272448532632501,0.162568537847068,622,2283
"low","Large","house","Temperate","2016",0,0,0,6780
"low","Large","house","Tropical","2016",0,0,0,1919
"low","Medium","house","Arid","2016",0.0691120887291654,0.0267999552874045,5577,80695
"low","Medium","house","Temperate","2016",0,0,0,352049
"low","Medium","house","Tropical","2016",0,0,0,386448
"low","Medium","other","Arid","2016",0,0,0,621
"low","Medium","other","Temperate","2016",0,0,0,1629
"low","Medium","other","Tropical","2016",0,0,0,526
"low","Small","apartment","Arid","2016",0,0,0,546
"low","Small","apartment","Temperate","2016",0,0,0,1953
"low","Small","apartment","Tropical","2016",0,0,0,1384
"low","Small","house","Arid","2016",0.00753917831427361,0.00207955283784708,3382,448590
"low","Small","house","Temperate","2016",0.000624427448273669,0.000444134906252423,1139,1824071
"low","Small","house","Tropical","2016",0.000292956088125116,0.000224703086809725,836,2853670
"low","Small","other","Arid","2016",0.00443131462333826,0.00456272488415193,54,12186
"low","Small","other","Temperate","2016",0,0,0,34437
"low","Small","other","Tropical","2016",0,0,0,18912
"medium-high","Large","apartment","Arid","2016",1,0,932,932
"medium-high","Large","house","Arid","2016",0.359680316750376,0.0700742344853093,9811,27277
"medium-high","Large","house","Temperate","2016",0.0179659096274612,0.0113682070326985,761,42358
"medium-high","Large","house","Tropical","2016",0,0,0,10906
"medium-high","Large","other","Arid","2016",0,0,0,383
"medium-high","Medium","apartment","Arid","2016",0.113963991833199,0.0646326215825033,1842,16163
"medium-high","Medium","apartment","Temperate","2016",0.0130603705917513,0.0124826841489866,3059,234220
"medium-high","Medium","apartment","Tropical","2016",0,0,0,13155
"medium-high","Medium","house","Arid","2016",0.13329527286707,0.0100036496711031,115806,868793
"medium-high","Medium","house","Temperate","2016",0.00692512238612887,0.00250256072541788,9550,1379037
"medium-high","Medium","house","Tropical","2016",0.0239777397355757,0.013670280191321,4300,179333
"medium-high","Medium","other","Arid","2016",0.213777242361187,0.108916356232038,1952,9131
"medium-high","Medium","other","Temperate","2016",0,0,0,37941
"medium-high","Medium","other","Tropical","2016",0,0,0,3730
"medium-high","Small","apartment","Arid","2016",0.0590056488991889,0.0244501745397514,3259,55232
"medium-high","Small","apartment","Temperate","2016",0.00108085236218773,0.000818830818509541,751,694822
"medium-high","Small","apartment","Tropical","2016",0,0,0,42339
"medium-high","Small","house","Arid","2016",0.0879403219886403,0.00763106347973495,127223,1446697
"medium-high","Small","house","Temperate","2016",0.00770813169118931,0.00278961655853855,13021,1689255
"medium-high","Small","house","Tropical","2016",0.0103558181373964,0.00690553455456329,3730,360184
"medium-high","Small","other","Arid","2016",0.0308470782854085,0.0234137821124859,1268,41106
"medium-high","Small","other","Temperate","2016",0,0,0,174181
"medium-high","Small","other","Tropical","2016",0,0,0,16193
"medium-low","Large","house","Arid","2016",0.165617672466988,0.0702792775643368,2684,16206
"medium-low","Large","house","Temperate","2016",0.00381859586758498,0.00382508713691665,275,72016
"medium-low","Large","house","Tropical","2016",0,0,0,20438
"medium-low","Large","other","Arid","2016",0,0,0,947
"medium-low","Large","other","Temperate","2016",0,0,0,468
"medium-low","Large","other","Tropical","2016",0,0,0,264
"medium-low","Medium","apartment","Arid","2016",0.196829590488771,0.131381592411721,298,1514
"medium-low","Medium","apartment","Temperate","2016",0,0,0,39177
"medium-low","Medium","apartment","Tropical","2016",0,0,0,4802
"medium-low","Medium","house","Arid","2016",0.0786116688041792,0.00823776909805573,58537,744635
"medium-low","Medium","house","Temperate","2016",0.00482690279065307,0.00132492102629629,11627,2408791
"medium-low","Medium","house","Tropical","2016",0.00946000538647994,0.00360893103621641,6463,683192
"medium-low","Medium","other","Arid","2016",0.0991671293725708,0.0853191500153635,893,9005
"medium-low","Medium","other","Temperate","2016",0,0,0,31360
"medium-low","Medium","other","Tropical","2016",0,0,0,6341
"medium-low","Small","apartment","Arid","2016",0.0469259524377635,0.0254698954172936,1180,25146
"medium-low","Small","apartment","Temperate","2016",0.0127854820386258,0.00960401988731019,2611,204216
"medium-low","Small","apartment","Tropical","2016",0.00766543254940815,0.00768504777215245,294,38354
"medium-low","Small","house","Arid","2016",0.0439648652027291,0.00365517305413138,118520,2695789
"medium-low","Small","house","Temperate","2016",0.00108563720907921,0.000319148066448966,6880,6337292
"medium-low","Small","house","Tropical","2016",0.00274776899565496,0.000893946354837536,7165,2607570
"medium-low","Small","other","Arid","2016",0.0172184598637177,0.00950819300353538,1645,95537
"medium-low","Small","other","Temperate","2016",0.002590688369313,0.00245105241483175,1361,525343
"medium-low","Small","other","Tropical","2016",0.00171266895479239,0.00171968327520361,250,145971
"high","Large","apartment","Temperate","2018",0,0,0,1973
"high","Large","house","Arid","2018",0.618011583590913,0.0847225397110593,20594,33323
"high","Large","house","Temperate","2018",0.0662362814719174,0.0527445151499342,3591,54215
"high","Large","house","Tropical","2018",0,0,0,3336
"high","Large","other","Temperate","2018",0,0,0,349
"high","Medium","apartment","Arid","2018",0.398710166919575,0.194590513592083,2102,5272
"high","Medium","apartment","Temperate","2018",0.0594408739026061,0.0302281520137145,8592,144547
"high","Medium","apartment","Tropical","2018",0,0,0,2508
"high","Medium","house","Arid","2018",0.35058272944754,0.0229752525373524,201062,573508
"high","Medium","house","Temperate","2018",0.0334375370012536,0.00934887281147599,27393,819229
"high","Medium","house","Tropical","2018",0.00947542399939898,0.00605537456948137,1009,106486
"high","Medium","other","Arid","2018",0.278788829620333,0.151476807378677,1777,6374
"high","Medium","other","Temperate","2018",0.0173010380622837,0.0189099285880187,200,11560
"high","Medium","other","Tropical","2018",0,0,0,1837
"high","Small","apartment","Arid","2018",0.0975572673829313,0.0913052948405539,1925,19732
"high","Small","apartment","Temperate","2018",0.00131898072319516,0.00134005183963221,335,253984
"high","Small","apartment","Tropical","2018",0.0481432940148536,0.0500395295505571,551,11445
"high","Small","house","Arid","2018",0.184239831203845,0.0175709383800004,106879,580108
"high","Small","house","Temperate","2018",0.0211710207770763,0.00831647752574817,15155,715837
"high","Small","house","Tropical","2018",0.0166182654341911,0.0105276087028286,1814,109157
"high","Small","other","Arid","2018",0.182631049513804,0.111642951808317,1634,8947
"high","Small","other","Temperate","2018",0.00879149717884792,0.00902932207882715,335,38105
"high","Small","other","Tropical","2018",0,0,0,4733
"low","Large","house","Arid","2018",0.662557781201849,0.122240778819906,1720,2596
"low","Large","house","Temperate","2018",0.0204119502690666,0.0209279282745469,110,5389
"low","Large","house","Tropical","2018",0,0,0,3021
"low","Medium","house","Arid","2018",0.0701107011070111,0.0187954221036196,5605,79945
"low","Medium","house","Temperate","2018",0.000269537921361715,0.000270410047401312,113,419236
"low","Medium","house","Tropical","2018",0.00215748071847695,0.00189384988883207,842,390270
"low","Medium","other","Arid","2018",0,0,0,285
"low","Medium","other","Temperate","2018",0,0,0,1026
"low","Medium","other","Tropical","2018",0,0,0,855
"low","Small","apartment","Arid","2018",0,0,0,667
"low","Small","apartment","Temperate","2018",0,0,0,4883
"low","Small","apartment","Tropical","2018",0,0,0,746
"low","Small","house","Arid","2018",0.0191241795663166,0.00619485933004147,9592,501564
"low","Small","house","Temperate","2018",0.000761271720740408,0.000436769172630644,1515,1990091
"low","Small","house","Tropical","2018",0.000520331808283696,0.000268094966707087,1573,3023071
"low","Small","other","Arid","2018",0,0,0,14700
"low","Small","other","Temperate","2018",0,0,0,26768
"low","Small","other","Tropical","2018",0,0,0,26022
"medium-high","Large","apartment","Temperate","2018",0,0,0,1610
"medium-high","Large","house","Arid","2018",0.341146242986734,0.075876862982286,6506,19071
"medium-high","Large","house","Temperate","2018",0.151708841617098,0.0640399283985352,7524,49595
"medium-high","Large","house","Tropical","2018",0,0,0,4864
"medium-high","Medium","apartment","Arid","2018",0.0905026321482657,0.0603541071193815,1255,13867
"medium-high","Medium","apartment","Temperate","2018",0.0185912493108058,0.0106825050195337,4923,264802
"medium-high","Medium","apartment","Tropical","2018",0,0,0,7086
"medium-high","Medium","house","Arid","2018",0.176984467012621,0.0127408570543554,161933,914956
"medium-high","Medium","house","Temperate","2018",0.011456820071913,0.00335627823329352,14093,1230097
"medium-high","Medium","house","Tropical","2018",0.0197657079717219,0.0134362152832129,3685,186434
"medium-high","Medium","other","Arid","2018",0.240323232323232,0.0941604864110515,2974,12375
"medium-high","Medium","other","Temperate","2018",0.0830095457379959,0.0550823619413342,3461,41694
"medium-high","Medium","other","Tropical","2018",0,0,0,2119
"medium-high","Small","apartment","Arid","2018",0.0716540571045624,0.0299514853045842,4063,56703
"medium-high","Small","apartment","Temperate","2018",0.00262797986375694,0.0026177363929893,1812,689503
"medium-high","Small","apartment","Tropical","2018",0,0,0,56017
"medium-high","Small","house","Arid","2018",0.102343585293591,0.0078968424334841,154857,1513109
"medium-high","Small","house","Temperate","2018",0.00500348121633874,0.00164954874144517,8559,1710609
"medium-high","Small","house","Tropical","2018",0.000271043517542539,0.000272298840099981,99,365255
"medium-high","Small","other","Arid","2018",0.0529565382819391,0.0293127051666289,3062,57821
"medium-high","Small","other","Temperate","2018",0.014259234510369,0.0141697165264139,2454,172099
"medium-high","Small","other","Tropical","2018",0,0,0,13634
"medium-low","Large","apartment","Arid","2018",0,0,0,62
"medium-low","Large","house","Arid","2018",0.18604935255314,0.0637072805903168,3046,16372
"medium-low","Large","house","Temperate","2018",0.0123344496354791,0.00666587349911799,895,72561
"medium-low","Large","house","Tropical","2018",0.0608200580281382,0.0586510238166854,1111,18267
"medium-low","Large","other","Temperate","2018",0,0,0,1461
"medium-low","Medium","apartment","Arid","2018",0.332411249423698,0.209491458578528,721,2169
"medium-low","Medium","apartment","Temperate","2018",0,0,0,50660
"medium-low","Medium","apartment","Tropical","2018",0.330923694779116,0.1768896140664,2060,6225
"medium-low","Medium","house","Arid","2018",0.103929555827231,0.00891813211864049,83481,803246
"medium-low","Medium","house","Temperate","2018",0.00656623076725158,0.00184466142502677,16333,2487424
"medium-low","Medium","house","Tropical","2018",0.0102290813224948,0.00380266693165102,6697,654702
"medium-low","Medium","other","Arid","2018",0.0482480278847918,0.0477045006022853,263,5451
"medium-low","Medium","other","Temperate","2018",0,0,0,50885
"medium-low","Medium","other","Tropical","2018",0,0,0,5312
"medium-low","Small","apartment","Arid","2018",0.00369255240583991,0.00363399181011914,130,35206
"medium-low","Small","apartment","Temperate","2018",0,0,0,241405
"medium-low","Small","apartment","Tropical","2018",0.0249884126312395,0.024849425282974,1240,49623
"medium-low","Small","house","Arid","2018",0.0423953084792747,0.00349196646457153,119413,2816656
"medium-low","Small","house","Temperate","2018",0.00189570226635337,0.000528020196714666,12505,6596500
"medium-low","Small","house","Tropical","2018",0.00186372298622914,0.000810215293667134,4973,2668315
"medium-low","Small","other","Arid","2018",0.00574360800988435,0.00574094098805295,516,89839
"medium-low","Small","other","Temperate","2018",0.00444315841173268,0.00398282889541242,2334,525302
"medium-low","Small","other","Tropical","2018",0.0084138304595107,0.0083831574672587,1398,166155
