"climate","year","Rate","urban","est_socio","se","Freq","total.households"
"Arid","2012",0.8,"Rural","high",2.7755575615627e-17,29172,36465
"Arid","2012",0.0323645265607527,"Rural","low",0.0182030990858746,16063,496315
"Arid","2012",0.100792035309055,"Rural","medium-low",0.0459494728961074,50012,496190
"Arid","2012",0.353436156640311,"Urban","high",0.0574704150778342,347948,984472
"Arid","2012",0,"Urban","low",0,0,12690
"Arid","2012",0.141133055919337,"Urban","medium-high",0.0249766123477591,295174,2091459
"Arid","2012",0.0757470985381013,"Urban","medium-low",0.0149456731483425,256216,3382519
"Temperate","2012",0.000966453111979021,"Rural","low",0.000965559590649135,1895,1960778
"Temperate","2012",0.00700838269060442,"Rural","medium-low",0.0061517462696553,8348,1191145
"Temperate","2012",0.0582543490944596,"Urban","high",0.0231422173457435,78278,1343728
"Temperate","2012",0,"Urban","low",0,0,792783
"Temperate","2012",0.034480947758613,"Urban","medium-high",0.0143528752712577,103085,2989622
"Temperate","2012",0.00623377445377076,"Urban","medium-low",0.00262684200456098,54366,8721201
"Tropical","2012",0.0017263694141095,"Rural","low",0.00169311673797162,4175,2418370
"Tropical","2012",0,"Rural","medium-low",0,0,318822
"Tropical","2012",0.0514998265863318,"Urban","high",0.0298318775702191,6385,123981
"Tropical","2012",0,"Urban","low",0,0,576283
"Tropical","2012",0.00198742063482978,"Urban","medium-high",0.00201931433685163,1736,873494
"Tropical","2012",0.0102791424856915,"Urban","medium-low",0.00588273832082769,28258,2749062
"Arid","2014",0.0163991087290633,"Rural","low",0.0120839320306138,7117,433987
"Arid","2014",0.0746566322410719,"Rural","medium-low",0.0334710799567896,41327,553561
"Arid","2014",0.283909171988667,"Urban","high",0.030715550801224,317055,1116748
"Arid","2014",0,"Urban","low",0,0,50308
"Arid","2014",0.129489302405921,"Urban","medium-high",0.0122376765944913,311861,2408392
"Arid","2014",0.0575346654751914,"Urban","medium-low",0.0084034771419765,169332,2943130
"Temperate","2014",0.000542072789672305,"Rural","low",0.000543025823084999,942,1737774
"Temperate","2014",0.00146178019294222,"Rural","medium-low",0.000889567201642683,2290,1566583
"Temperate","2014",0.0462003435757118,"Urban","high",0.0218511963155262,86383,1869748
"Temperate","2014",0,"Urban","low",0,0,423574
"Temperate","2014",0.0066819972696667,"Urban","medium-high",0.00217076100414513,26201,3921133
"Temperate","2014",0.000682133833123985,"Urban","medium-low",0.000463224699382764,5158,7561566
"Tropical","2014",0.000132620505533346,"Rural","low",0.000133427067761524,298,2247013
"Tropical","2014",0.00106555941869481,"Rural","medium-low",0.00109630925661139,426,399790
"Tropical","2014",0.0870293219762402,"Urban","high",0.03967262309509,19699,226349
"Tropical","2014",0,"Urban","low",0,0,732872
"Tropical","2014",0.00621716972309305,"Urban","medium-high",0.0043544249100817,3417,549607
"Tropical","2014",0.00339653524724749,"Urban","medium-low",0.00130619682738487,9948,2928867
"Arid","2016",0.0199867653800597,"Rural","low",0.00633430644436052,9635,482069
"Arid","2016",0.0232380240945682,"Rural","medium-low",0.00332857571877373,12941,556889
"Arid","2016",0.266472622124398,"Urban","high",0.0163968976128557,321067,1204878
"Arid","2016",0,"Urban","low",0,0,62852
"Arid","2016",0.106294971760715,"Urban","medium-high",0.00666774670459839,262093,2465714
"Arid","2016",0.0563397748599059,"Urban","medium-low",0.00397966557104582,170816,3031890
"Temperate","2016",0.000295554080034425,"Rural","low",0.000294376455076456,511,1728956
"Temperate","2016",0.00308351814856394,"Rural","medium-low",0.00132348916453991,4933,1599796
"Temperate","2016",0.0206273364455463,"Urban","high",0.00771606174464962,39480,1913965
"Temperate","2016",0.00127651876258987,"Urban","low",0.00129540235337399,628,491963
"Temperate","2016",0.00638362825843275,"Urban","medium-high",0.00155605046127308,27142,4251814
"Temperate","2016",0.00222238378563954,"Urban","medium-low",0.000529109788817342,17821,8018867
"Tropical","2016",0,"Rural","low",0,0,2462492
"Tropical","2016",0.00779729880992357,"Rural","medium-low",0.00387566626666733,3274,419889
"Tropical","2016",0.0112236411543872,"Urban","high",0.00526901289231817,2888,257314
"Tropical","2016",0.00104452082607104,"Urban","low",0.00079403121414736,836,800367
"Tropical","2016",0.0128307554646555,"Urban","medium-high",0.00545487412102682,8030,625840
"Tropical","2016",0.00353023913175165,"Urban","medium-low",0.000954160837205902,10898,3087043
"Arid","2018",0.0199122536508952,"Rural","low",0.00525149623959964,10525,528569
"Arid","2018",0.0328094537459273,"Rural","medium-low",0.00425166351386019,19757,602174
"Arid","2018",0.273757724499374,"Urban","high",0.0162089369845888,335973,1227264
"Arid","2018",0.0897904141147384,"Urban","low",0.0361760293729291,6392,71188
"Arid","2018",0.129313242928055,"Urban","medium-high",0.00786619907985759,334650,2587902
"Arid","2018",0.0593063656461183,"Urban","medium-low",0.0041878872064481,187813,3166827
"Temperate","2018",0.000890094345903569,"Rural","low",0.000450406477248989,1738,1952602
"Temperate","2018",0.00406667624658715,"Rural","medium-low",0.00159114814014079,7358,1809340
"Temperate","2018",0.027258077879242,"Urban","high",0.00536322860961249,55601,2039799
"Temperate","2018",0,"Urban","low",0,0,494791
"Temperate","2018",0.0102946892662973,"Urban","medium-high",0.00193246340705398,42826,4160009
"Temperate","2018",0.00300711050379598,"Urban","medium-low",0.000667045505942356,24709,8216858
"Tropical","2018",0.000545155118824468,"Rural","low",0.000331734151390487,1437,2635947
"Tropical","2018",0.00230398674256436,"Rural","medium-low",0.0013342308466288,1090,473093
"Tropical","2018",0.0140875650307722,"Urban","high",0.00596637431914755,3374,239502
"Tropical","2018",0.00121033911771476,"Urban","low",0.000808662889783241,978,808038
"Tropical","2018",0.00595521939412253,"Urban","medium-high",0.00418981018456678,3784,635409
"Tropical","2018",0.00529444943734562,"Urban","medium-low",0.00144180150471599,16389,3095506
