"climate","appliance","adopt.rate","se","households","se_total"
"Arid","heater",0.109374182849205,0.00322834118446619,895110,26281.5438140177
"Temperate","heater",0.00708130319498876,0.000799435588377115,132232,14886.3100319363
"Tropical","heater",0.0034297327605279,0.000709404907224863,27052,5603.63054102591
"Arid","air conditioner",0.478919647836417,0.00499224353318765,3919442,43849.0044956212
"Temperate","air conditioner",0.0162630274220564,0.00102433674644399,303686,19035.9670999982
"Tropical","air conditioner",0.134219926605342,0.00451923048466787,1058659,34375.6159314583
"Arid","digital TV",0.756560300413347,0.00363370253689291,6191632,43652.4398220092
"Temperate","digital TV",0.747876805931261,0.00379201599023946,13965402,110251.155125693
"Tropical","digital TV",0.680613807045203,0.00628866596043866,5368338,59600.7242636454
"Arid","energy-saving bulbs",0.72722546194663,0.00341392483486518,5932230.44033395,40668.5422706951
"Temperate","energy-saving bulbs",0.771632041611341,0.00376687772471029,14365225.2531609,103555.634906047
"Tropical","energy-saving bulbs",0.757204341692024,0.00607787152033706,5912108.38831074,58971.3864900443
