"year","num_room","adopt.rate","adopt.rate_sd","mean_bulbs","mean_bulbs_sd","total_bulbs","total_bulbs_sd","tot_ESB","tot_ESB_sd","focos_ahor","mean_ESB_sd","prop_bulbs","prop_bulbs_sd"
2014,"1 room",0.442000060365513,0.0424464577463366,2.14407801739533,0.105789728202506,3409753,396092.175332647,1499589,218844.614332975,0.942952703620422,0.111319805716564,0.408686404775114,0.0418854121912808
2014,"10+ rooms",0.952404071519454,0.0508683718678097,23.158960021429,5.05302412948017,1383331,701436.941830218,1116498,627818.82551517,18.6917899953124,5.43880204149928,0.776358334048218,0.111250285145437
2014,"2-4 rooms",0.683912121141375,0.0163567344367103,5.60035015334716,0.0988290707817525,114664134,6098453.8141239,69289145,4036861.92133073,3.38417480941376,0.125961277439823,0.547116748601966,0.0151303000376426
2014,"5-7 rooms",0.852544784634684,0.0154715652955747,10.0916592279865,0.293025291327986,93439026,6020866.53544028,68882687,4999000.14568608,7.43951038094143,0.325007934892384,0.695528684120111,0.0171875136339364
2014,"8-10 rooms",0.853693493120902,0.0869567609497159,18.7475831840398,1.86971103608159,5389274,1324316.34739643,4055748,1142286.88366611,14.1086671420869,2.56156106600123,0.688763896473434,0.0955785663374763
2016,"1 room",0.716457424745453,0.0223508207616852,2.36128156765015,0.0648998823447083,4150035,275343.525923441,2913395,221087.000514624,1.65765973366107,0.076818289590681,0.673642076842695,0.0231960172464642
2016,"10+ rooms",0.971019306622379,0.0325553717425097,29.7072659331534,7.7509633458846,1430999,600672.237560055,1367725,597198.425892917,28.39370977787,7.9486259104208,0.914061983705174,0.0486406197754413
2016,"2-4 rooms",0.857535913073192,0.00611820038689738,5.70582000708171,0.0563379432919352,127254239,3385127.31989542,99154616,2795151.41917795,4.4458903390032,0.0637001462534355,0.75079291867897,0.00650402534277238
2016,"5-7 rooms",0.938541146247716,0.00537539832704835,10.251512812324,0.170505455866865,93506683,3581574.984383,79323727,3202905.31048041,8.69657844308082,0.177105029739781,0.828151592934596,0.00715106557903169
2016,"8-10 rooms",0.981004105481268,0.0132023833284071,19.2249777995135,1.58747966687981,4481400,778877.401904202,4057343,722248.35661309,17.405794863215,1.5231559131012,0.880553832480039,0.0269290036577156
2018,"1 room",0.71109580197103,0.0214652845983083,2.37175341527362,0.0636918775456422,4272460,299744.878695911,3004165,235249.88205973,1.66768994883404,0.0753235211210248,0.672504744433768,0.0213936008661373
2018,"10+ rooms",0.923745853884888,0.0846185206854423,32.6752711086669,8.52386905663009,1901276,1002275.98174811,1740419,961645.53767593,29.9107876329764,8.87550187501324,0.85640868302869,0.0896884571844891
2018,"2-4 rooms",0.845719922452517,0.00609905602702014,5.73189620243603,0.0527897615279438,133856502,3668218.59630923,103486168,2990785.92953519,4.4314020200816,0.0623412137583627,0.737817501795385,0.00671177703059601
2018,"5-7 rooms",0.925301549851104,0.00643241064741763,10.1814957835803,0.159280751624268,94712774,3529954.97679529,80002453,3107788.1181889,8.60015606654683,0.166464434186026,0.819735797551051,0.00747817315989191
2018,"8-10 rooms",0.981211773201437,0.0158184405085829,19.160315471685,1.62906889637317,4404535,760890.534018646,4004226,713195.144096474,17.4189178607783,1.5257367496283,0.911179253002147,0.0246090864812339
