"year","adopt.rate","adopt.rate_sd","mean_bulbs","mean_bulbs_sd","total_bulbs","total_bulbs_sd","tot_ESB","tot_ES_se","focos_ahor","mean_ES_bulbs_sd","prop_bulbs","prop_bulbs_sd","other_bulbs","other_se"
2014,0.723112138984425,0.013607913890376,6.89228329435235,0.151582295299208,218285518,10445489.7150858,144843667,3832916.90286907,4.57338441644505,0.167604171069215,0.585912376075465,0.0131331284714706,73441851,2174190.27396881
2016,0.873230046274351,0.00497838366445157,6.89795084051752,0.0835023406489167,230823356,5851746.39990221,186816806,2509889.26490731,5.58285420635899,0.0865236652630844,0.769154408071983,0.00547453919018804,44006550,758507.756324067
2018,0.861074131975594,0.00514003186953974,6.8829702029235,0.0800187769486092,239147547,6097974.10649997,192237431,2564150.62045495,5.53283747233904,0.0844545183585452,0.757899727527643,0.00570921131769894,46910116,843741.647032053
