"adopt.rate","se","total.households","year","houseage"
0.127695637697816,0.00803901979709837,7643785,"2008","11 to 20"
0.118523575496791,0.00787878248156799,5150199,"2008","21 to 30"
0.0847068498061011,0.00909516078454104,2845555,"2008","3 to 6"
0.117594027604397,0.0115303440044066,3462999,"2008","31 to 50"
0.098630399701442,0.0163492042406433,1157564,"2008","50+"
0.100398628340888,0.0100970330913746,4088771,"2008","7 to 10"
0.080705611775529,0.0142726882096488,1087000,"2008","less than 3"
0.0872082770846639,0.00870988626371509,2353389,"2008","unknown"
0.147073705052187,0.00885385053751622,7648648,"2010","11 to 20"
0.160548869843243,0.0106021676243606,5066775,"2010","21 to 30"
0.105393809095465,0.0156303003316057,2821494,"2010","3 to 6"
0.158169784382237,0.0147214713278203,3679938,"2010","31 to 50"
0.109765053930541,0.0311499355079436,868710,"2010","50+"
0.103804208574902,0.0106104770433432,3184736,"2010","7 to 10"
0.0549053654728826,0.00903707314659484,1655157,"2010","less than 3"
0.131970188045056,0.011274292708858,7751387,"2012","11 to 20"
0.13725526936159,0.0132745822758326,5977337,"2012","21 to 30"
0.0827354963147775,0.0134693005863907,2953146,"2012","3 to 6"
0.142158220683226,0.01539159732255,4505100,"2012","31 to 50"
0.0809242407053256,0.019982209058803,987232,"2012","50+"
0.109526580051985,0.0147953897365917,2963162,"2012","7 to 10"
0.0852218941888994,0.016211264204359,1547607,"2012","less than 3"
0.158913977982375,0.00870129519669214,7682754,"2014","11 to 20"
0.145990140184058,0.0100392562558145,5331134,"2014","21 to 30"
0.149947780593418,0.0143943399861828,3361777,"2014","3 to 6"
0.137376614664633,0.0112824624188848,4030868,"2014","31 to 50"
0.0741301754357294,0.0125765129064783,979048,"2014","50+"
0.154404447902832,0.0113509288427955,3825803,"2014","7 to 10"
0.0943324733012346,0.00994203076942426,2475489,"2014","less than 3"
0.163285518263372,0.00535522973540302,8238128,"2016","11 to 20"
0.149911960674217,0.00572244631036249,5373167,"2016","21 to 30"
0.121902544600958,0.00685060986282884,2917314,"2016","3 to 6"
0.133041282321365,0.005942487251503,4538020,"2016","31 to 50"
0.0890476314081765,0.00893338395713174,963125,"2016","50+"
0.16295433937701,0.00761497396864618,3690138,"2016","7 to 10"
0.107591448641971,0.00653389372435209,2103011,"2016","less than 3"
0.170012415789341,0.00523462189719967,8760619,"2018","11 to 20"
0.164786279862471,0.00556588220451497,5745715,"2018","21 to 30"
0.118252755765128,0.00626429601970106,2602544,"2018","3 to 6"
0.154097454302621,0.0059566754163692,5342976,"2018","31 to 50"
0.120950609758323,0.0100302313642591,1095844,"2018","50+"
0.148275132044737,0.00677894141660067,3490673,"2018","7 to 10"
0.103038142010265,0.00651920578057192,1968407,"2018","less than 3"
