"adopt.rate","se","total.households","year","state"
0.0107284246750122,0.00609470241499063,274318,"2008","Aguascalientes"
0.336232776920048,0.0665950178949463,805097,"2008","Baja California"
0.356447090077237,0.0780313528900102,162616,"2008","Baja California Sur"
0.165669140531482,0.0315702919723332,204673,"2008","Campeche"
0.0137880127542457,0.00508939954000074,1123077,"2008","Chiapas"
0.373160760279111,0.0359846493055287,971801,"2008","Chihuahua"
0.321248544036642,0.0358543514883014,710011,"2008","Coahuila"
0.0490975174028214,0.0196363597913751,178563,"2008","Colima"
0.0825056355985325,0.0193984850214508,422759,"2008","Durango"
0.0061115816619078,0.00199554819642023,1374276,"2008","Guanajuato"
0.0434822792921575,0.00960353304424191,811480,"2008","Guerrero"
0,0,664071,"2008","Hidalgo"
0.011870092714516,0.00240930304792787,1776313,"2008","Jalisco"
0.0055229350334785,0.00161920727601521,3810655,"2008","Mexico"
0.00890463650017706,0.00278531569481711,2456810,"2008","Mexico City"
0.0111946879793619,0.00501025113845905,1122586,"2008","Michoacan"
0.0060636404094348,0.00433273918144143,503328,"2008","Morelos"
0.053512482538187,0.016692266010319,305667,"2008","Nayarit"
0.179355562802622,0.0368677886509246,1284811,"2008","Nuevo Leon"
0.00880794476617909,0.00324559056882193,999098,"2008","Oaxaca"
0.00524172574414242,0.00332766065324831,1368824,"2008","Puebla"
0.00851094357342238,0.00203917879959254,459996,"2008","Queretaro"
0.187592008412198,0.0335508056882787,342360,"2008","Quintana Roo"
0.0896752129871457,0.0258646127662918,645931,"2008","San Luis Potosi"
0.597295213975898,0.0527045009625485,740761,"2008","Sinaloa"
0.671113339311815,0.0192490989993532,708095,"2008","Sonora"
0.209423018215122,0.0323501340246217,569966,"2008","Tabasco"
0.265261023210555,0.0318510022385997,929017,"2008","Tamaulipas"
0.00431996318094335,0.00304308376806027,286808,"2008","Tlaxcala"
0.0831225374828749,0.0180115624903181,1976636,"2008","Veracruz"
0.148974014653568,0.0121048149040863,509364,"2008","Yucatan"
0,0,418069,"2008","Zacatecas"
0.0210094155218457,0.00867134061002631,290584,"2010","Aguascalientes"
0.282308083491116,0.0498457311429823,880956,"2010","Baja California"
0.350584055372136,0.0557064222338954,179007,"2010","Baja California Sur"
0.207113740841833,0.0350682549571321,222752,"2010","Campeche"
0.0192375894345881,0.00337047959090697,1133510,"2010","Chiapas"
0.321327689838871,0.0349991514071912,1021353,"2010","Chihuahua"
0.388105157109405,0.0434879282281913,734520,"2010","Coahuila"
0.0424124701009744,0.0157857488013478,186879,"2010","Colima"
0.148179208237655,0.0373846622329446,428083,"2010","Durango"
0.00617377100392612,0.00186166294512213,1510908,"2010","Guanajuato"
0.0374195224433551,0.0090746017566899,885340,"2010","Guerrero"
0.000962428174870629,0.000987376380163888,700312,"2010","Hidalgo"
0.00823711735034691,0.00627791378497094,2020974,"2010","Jalisco"
0.00472064505333717,0.00194604081790724,3974245,"2010","Mexico"
0.0100345541324854,0.00245423644201627,2583772,"2010","Mexico City"
0.0169226366811003,0.00622232948111927,1219609,"2010","Michoacan"
0.00398624014820738,0.00282781544451397,505238,"2010","Morelos"
0.0565239544643935,0.0196504133577273,298316,"2010","Nayarit"
0.443598452819193,0.0474271640449054,1328093,"2010","Nuevo Leon"
0.0195552079769295,0.00984694497623479,1022950,"2010","Oaxaca"
0.0136094070101985,0.00597902852520013,1429232,"2010","Puebla"
0.000742212435174448,0.000746568192958738,529498,"2010","Queretaro"
0.188947648417744,0.0321090317901083,411659,"2010","Quintana Roo"
0.0495330247747872,0.016069303451625,725092,"2010","San Luis Potosi"
0.673180489899503,0.0603018702566835,777833,"2010","Sinaloa"
0.737619804406095,0.0387647884165415,716689,"2010","Sonora"
0.181949376808216,0.0336130266936602,583448,"2010","Tabasco"
0.339925228904673,0.0331401066342142,977918,"2010","Tamaulipas"
0.000536023438540418,0.000536821885699465,300360,"2010","Tlaxcala"
0.110039588154039,0.0210851098873524,2105933,"2010","Veracruz"
0.182264053866631,0.012781388158191,536436,"2010","Yucatan"
0,0,457157,"2010","Zacatecas"
0.0161901916270588,0.00826667928571423,324641,"2012","Aguascalientes"
0.275448178654803,0.0599325990450694,953526,"2012","Baja California"
0.395342906465788,0.0605125677934111,203904,"2012","Baja California Sur"
0.244798495007637,0.0378070115958675,240267,"2012","Campeche"
0.0258464888225149,0.0165945942540371,1210648,"2012","Chiapas"
0.402469674636919,0.0587976387408238,1081438,"2012","Chihuahua"
0.265461978285076,0.045765684574938,825331,"2012","Coahuila"
0.0634294257172591,0.0172213947617465,189297,"2012","Colima"
0.0681151949451216,0.031327102469471,451999,"2012","Durango"
0.00643862424359149,0.00642204721333323,1386321,"2012","Guanajuato"
0.027447056314693,0.017165493966302,914415,"2012","Guerrero"
0,0,728446,"2012","Hidalgo"
0.0139364006879968,0.0100669450566896,1881404,"2012","Jalisco"
0,0,4369319,"2012","Mexico"
0.022441882416972,0.0128477058261863,2579641,"2012","Mexico City"
0.0169218489753225,0.00891389235583344,1097516,"2012","Michoacan"
0.0134459414906477,0.00653847495155619,545964,"2012","Morelos"
0.0697935553646977,0.0289468688333754,314370,"2012","Nayarit"
0.335185257328699,0.0425476773386782,1386126,"2012","Nuevo Leon"
0.0168855836257111,0.0107912725400686,1057707,"2012","Oaxaca"
0.0126718334923787,0.0124741698151896,1550920,"2012","Puebla"
0.0194194774878039,0.0091747925877604,572312,"2012","Queretaro"
0.246684546836569,0.0417583616412388,404545,"2012","Quintana Roo"
0.0664281389035365,0.0302954177214228,741493,"2012","San Luis Potosi"
0.640588681994736,0.0520439091202595,779572,"2012","Sinaloa"
0.666290730933428,0.0774517753983547,821949,"2012","Sonora"
0.29175655148645,0.0519665991496828,626728,"2012","Tabasco"
0.414678825412917,0.0560310656414815,996265,"2012","Tamaulipas"
0,0,302618,"2012","Tlaxcala"
0.0774245322324066,0.0234112610692611,2112160,"2012","Veracruz"
0.155439658630876,0.0432330804921544,493542,"2012","Yucatan"
0.0371426161760985,0.0151478966480074,414995,"2012","Zacatecas"
0.0208154301537286,0.00758857858841723,324663,"2014","Aguascalientes"
0.256967326502259,0.0403071358131619,1001209,"2014","Baja California"
0.398469959770494,0.0437403004185083,212282,"2014","Baja California Sur"
0.292788557668991,0.0373133914970662,235057,"2014","Campeche"
0.0390160525687138,0.013037177574011,1188844,"2014","Chiapas"
0.4400722032076,0.037873279988687,1039843,"2014","Chihuahua"
0.355877768256059,0.0382491814024596,786506,"2014","Coahuila"
0.101266575783864,0.0207621619445925,201725,"2014","Colima"
0.10100802659824,0.0222825335800445,462587,"2014","Durango"
0.00793623489163537,0.00399492112332696,1453334,"2014","Guanajuato"
0.0443045269197168,0.0136835826357363,867654,"2014","Guerrero"
0,0,775279,"2014","Hidalgo"
0.017172930473635,0.00657784596349327,2008044,"2014","Jalisco"
0.00928920673782474,0.00923401863761632,4190670,"2014","Mexico"
0.0168533149773276,0.00866892418617956,2574271,"2014","Mexico City"
0.0195972538945518,0.0125808118543718,1164704,"2014","Michoacan"
0.0218645038061873,0.00689596633337802,539779,"2014","Morelos"
0.0850429442392417,0.0166359515114123,337065,"2014","Nayarit"
0.482098753257113,0.0295139926720292,1368927,"2014","Nuevo Leon"
0.00141471694904663,0.0013985508345355,976167,"2014","Oaxaca"
0,0,1527788,"2014","Puebla"
0.0119828854695155,0.0054729808813997,515819,"2014","Queretaro"
0.311351208749041,0.0308219746481085,416960,"2014","Quintana Roo"
0.0368077354379895,0.0121033216275124,701809,"2014","San Luis Potosi"
0.69023363183301,0.0415689849654261,817868,"2014","Sinaloa"
0.769050549349482,0.0367619751560502,826341,"2014","Sonora"
0.332151117226144,0.022758788589102,626507,"2014","Tabasco"
0.458124319200293,0.036005299874684,990563,"2014","Tamaulipas"
0,0,303251,"2014","Tlaxcala"
0.091853127489762,0.017402695760435,2222853,"2014","Veracruz"
0.227518639091953,0.0334737068099181,550456,"2014","Yucatan"
0.00393788526906358,0.0038352871844279,462177,"2014","Zacatecas"
0.0103383623846492,0.00277459755747149,341350,"2016","Aguascalientes"
0.331621061138601,0.027957576695549,1049288,"2016","Baja California"
0.476889699009951,0.0256419472926886,236453,"2016","Baja California Sur"
0.278499021169682,0.0200759508618955,252342,"2016","Campeche"
0.0294849459347311,0.00633165002533007,1311008,"2016","Chiapas"
0.419255070396843,0.0190148929712379,1085418,"2016","Chihuahua"
0.298545514883371,0.0150523815651662,825653,"2016","Coahuila"
0.113184616169628,0.0119228112186926,215577,"2016","Colima"
0.0997987701930685,0.011889056263295,481539,"2016","Durango"
0.0116000285596653,0.00304798700357615,1498617,"2016","Guanajuato"
0.04541352112506,0.00911885530146635,993867,"2016","Guerrero"
0.00154576556278326,0.000898548764585058,770492,"2016","Hidalgo"
0.0225892169465954,0.00491137457650342,2146201,"2016","Jalisco"
0.00474026305713856,0.00253826948015933,4424438,"2016","Mexico"
0.0061931314869148,0.00241762001599448,2734158,"2016","Mexico City"
0.0161488672625631,0.0053389855672594,1260398,"2016","Michoacan"
0.0184666288286385,0.00339128849651161,558521,"2016","Morelos"
0.0947614460562103,0.01263918979929,352960,"2016","Nayarit"
0.419489559825034,0.0169063369031814,1405532,"2016","Nuevo Leon"
0.0195943642244358,0.00482658482038587,1085210,"2016","Oaxaca"
0.00246163711875327,0.000968766343341243,1652965,"2016","Puebla"
0.0176641042307427,0.00526144517552533,550778,"2016","Queretaro"
0.312524674197249,0.0204873539578987,483805,"2016","Quintana Roo"
0.0534705380788325,0.012348983936402,752938,"2016","San Luis Potosi"
0.76472441678559,0.0202073825437157,815652,"2016","Sinaloa"
0.724054320153336,0.0204727587389844,858245,"2016","Sonora"
0.377573855770962,0.0248397039321087,644364,"2016","Tabasco"
0.470974054764781,0.0207214071339822,1046512,"2016","Tamaulipas"
0.00156777503989706,0.0011469095735605,320199,"2016","Tlaxcala"
0.134867625646476,0.0184218062028431,2299388,"2016","Veracruz"
0.227838568960874,0.0173305200575742,582961,"2016","Yucatan"
0.0067853695313656,0.00232628876049771,425769,"2016","Zacatecas"
0.0105756919844063,0.00245514100098679,348346,"2018","Aguascalientes"
0.339077848597746,0.0282894610903239,1078478,"2018","Baja California"
0.497579100145138,0.0292754314444765,258375,"2018","Baja California Sur"
0.274406725217214,0.0211582998715296,255278,"2018","Campeche"
0.0393369183712138,0.00852360491709273,1329972,"2018","Chiapas"
0.442838240417437,0.0171681633336524,1151023,"2018","Chihuahua"
0.338175008737213,0.0154001007667161,846952,"2018","Coahuila"
0.115547396214465,0.0114160082043875,233679,"2018","Colima"
0.124653226545088,0.0119075256105169,491315,"2018","Durango"
0.0063854353261344,0.00179834682748677,1523467,"2018","Guanajuato"
0.0500443917132796,0.00855213597255365,997934,"2018","Guerrero"
0.00414728088670067,0.00141982029680427,848990,"2018","Hidalgo"
0.0263606398380726,0.00432791155655076,2276576,"2018","Jalisco"
0.0046884522534802,0.00172496159114521,4773217,"2018","Mexico"
0.0138721025983105,0.0031875174779909,2653455,"2018","Mexico City"
0.0187801880307581,0.00607669674318339,1310743,"2018","Michoacan"
0.0155603973611565,0.00303091025108481,560397,"2018","Morelos"
0.139053787619998,0.0179648735721733,371777,"2018","Nayarit"
0.452996613656249,0.0169767065690436,1497190,"2018","Nuevo Leon"
0.0218272441529167,0.00489177312765368,1142792,"2018","Oaxaca"
0.0044196340213767,0.00171094568532336,1652173,"2018","Puebla"
0.0155572342003322,0.00308016339532389,578509,"2018","Queretaro"
0.338023505057335,0.0202163045417335,504317,"2018","Quintana Roo"
0.0455162268574058,0.0090841686355723,762717,"2018","San Luis Potosi"
0.771636390531519,0.0196401315902086,865313,"2018","Sinaloa"
0.744432524066651,0.0186976365550546,901351,"2018","Sonora"
0.375040400954569,0.0226275574293677,677583,"2018","Tabasco"
0.503588447858038,0.0190983574773716,1093927,"2018","Tamaulipas"
0.00287033570448022,0.00129817293925344,344559,"2018","Tlaxcala"
0.118013711196071,0.0138718370470672,2371055,"2018","Veracruz"
0.257981083337168,0.0186743541825289,608564,"2018","Yucatan"
0.00807738837242464,0.00261729780701123,434794,"2018","Zacatecas"
