"est_socio","tipo_viv","climate","ac","se","total.households","year"
"high","apartment","Calida.Ext",0.765819168690187,0.0853988101693813,42006,"2012"
"high","house","Calida.Ext",0.691128383920828,0.0492524856191219,978931,"2012"
"high","apartment","Templada",0.0555841282249972,0.0414427720538017,437481,"2012"
"high","house","Templada",0.0704539382875462,0.0301704847543372,898360,"2012"
"high","other","Templada",0,0,27201,"2012"
"high","apartment","Tropical",0.716515227999327,0.120759284923214,23772,"2012"
"high","house","Tropical",0.72751677852349,0.0821359723654578,78225,"2012"
"high","other","Tropical",0,0,2670,"2012"
"low","house","Calida.Ext",0.141425510836911,0.055419946864011,496636,"2012"
"low","other","Calida.Ext",0,0,12369,"2012"
"low","house","Templada",0.00758209705027778,0.00357390614252947,3543215,"2012"
"low","other","Templada",0,0,23216,"2012"
"low","house","Tropical",0.00596354778547932,0.00252951081218768,2179072,"2012"
"low","other","Tropical",0,0,2711,"2012"
"medium-high","apartment","Calida.Ext",0.324362606232295,0.137256548795443,96016,"2012"
"medium-high","house","Calida.Ext",0.476900935748439,0.0371193683037564,1937914,"2012"
"medium-high","other","Calida.Ext",0.109961932242869,0.0778299376292302,57529,"2012"
"medium-high","apartment","Templada",0.0652037728191147,0.0354192914486765,566685,"2012"
"medium-high","house","Templada",0.0520393555794712,0.015915663502614,2639829,"2012"
"medium-high","other","Templada",0.0497070198457132,0.0488360790024487,145573,"2012"
"medium-high","apartment","Tropical",0.222225499159466,0.160768600819724,33907,"2012"
"medium-high","house","Tropical",0.315761811768926,0.0615085745155183,401464,"2012"
"medium-high","other","Tropical",0.118559835047186,0.0802542399042397,75658,"2012"
"medium-low","apartment","Calida.Ext",0.189835923719506,0.0959357565553137,30047,"2012"
"medium-low","house","Calida.Ext",0.318853016190093,0.0274880662336383,3767551,"2012"
"medium-low","other","Calida.Ext",0.068215161938578,0.0430763028797283,81111,"2012"
"medium-low","apartment","Templada",0,0,651565,"2012"
"medium-low","house","Templada",0.0129440431949143,0.00366227450631618,9354805,"2012"
"medium-low","other","Templada",0,0,823487,"2012"
"medium-low","apartment","Tropical",0.207777993538934,0.105464297904949,56647,"2012"
"medium-low","house","Tropical",0.126446614387356,0.0261067904124251,1953354,"2012"
"medium-low","other","Tropical",0.0246060467899581,0.0179778243031454,140372,"2012"
"high","apartment","Calida.Ext",0.850905343736199,0.12243052900608,33965,"2014"
"high","house","Calida.Ext",0.730579347059476,0.0284883454936978,1073329,"2014"
"high","other","Calida.Ext",0.791093716945208,0.185700309609149,9454,"2014"
"high","apartment","Templada",0.0274886237958953,0.0174893548005084,473796,"2014"
"high","house","Templada",0.0840280444234148,0.0300464796483994,1435009,"2014"
"high","other","Templada",0,0,18741,"2014"
"high","apartment","Tropical",0.325311684546245,0.207754421082419,6898,"2014"
"high","house","Tropical",0.706233380357299,0.042465913809866,160202,"2014"
"high","other","Tropical",0,0,1451,"2014"
"low","house","Calida.Ext",0.147149933469277,0.047103250584492,474217,"2014"
"low","other","Calida.Ext",0.104088112720778,0.105355610382724,10078,"2014"
"low","apartment","Templada",0,0,13712,"2014"
"low","house","Templada",0.00400500047111471,0.0018766261744128,2854931,"2014"
"low","other","Templada",0,0,34412,"2014"
"low","house","Tropical",0.0166067459564705,0.00297538644152115,2235176,"2014"
"low","other","Tropical",0,0,3002,"2014"
"medium-high","apartment","Calida.Ext",0.302928603799468,0.102495927885117,81643,"2014"
"medium-high","house","Calida.Ext",0.545241099255521,0.0206416077049059,2273939,"2014"
"medium-high","other","Calida.Ext",0.40604052262829,0.0944182415615775,52810,"2014"
"medium-high","apartment","Templada",0.00463822381605316,0.00345780226601171,758480,"2014"
"medium-high","house","Templada",0.0337436533516255,0.00703687757157593,3192630,"2014"
"medium-high","other","Templada",0.0020844222899323,0.00211216377644596,156878,"2014"
"medium-high","apartment","Tropical",0.127966542602153,0.0665511512785276,49974,"2014"
"medium-high","house","Tropical",0.424390847167484,0.0342352124464478,307271,"2014"
"medium-high","other","Tropical",0.307245324132922,0.227461685062865,5507,"2014"
"medium-low","apartment","Calida.Ext",0.0904918032786885,0.0773772695259988,19825,"2014"
"medium-low","house","Calida.Ext",0.364950204494914,0.0200881839470799,3397395,"2014"
"medium-low","other","Calida.Ext",0.261957191931648,0.0966021657467438,79471,"2014"
"medium-low","apartment","Templada",0.00649787804185835,0.00494905496635166,303022,"2014"
"medium-low","house","Templada",0.0203991770160341,0.00348234435989521,9599701,"2014"
"medium-low","other","Templada",0.00521303518582262,0.00522078940051801,461919,"2014"
"medium-low","apartment","Tropical",0.331353265145555,0.0835900056877288,25420,"2014"
"medium-low","house","Tropical",0.157887638601719,0.013217583600851,1994564,"2014"
"medium-low","other","Tropical",0.0533388750346356,0.0211863378115622,72180,"2014"
"high","apartment","Calida.Ext",0.612672720094749,0.107399628951234,25330,"2016"
"high","house","Calida.Ext",0.698477313029685,0.0155717922567428,1154341,"2016"
"high","other","Calida.Ext",0.712857539572341,0.0940863216345381,25207,"2016"
"high","apartment","Templada",0.0379053929165541,0.015859476981396,421998,"2016"
"high","house","Templada",0.0582575395879414,0.0101723022136408,1505951,"2016"
"high","other","Templada",0.0615829663026765,0.05214173274116,38371,"2016"
"high","apartment","Tropical",0.815121951219512,0.135691520522151,8200,"2016"
"high","house","Tropical",0.653564026125228,0.0406983991657534,191539,"2016"
"high","other","Tropical",0.49904214559387,0.211037657304711,5220,"2016"
"low","apartment","Calida.Ext",0,0,546,"2016"
"low","house","Calida.Ext",0.181463143003341,0.0194728946232266,531568,"2016"
"low","other","Calida.Ext",0.0409932068400094,0.032921716159862,12807,"2016"
"low","apartment","Templada",0,0,1953,"2016"
"low","house","Templada",0.00544464181345964,0.00148342200072071,2965117,"2016"
"low","other","Templada",0,0,38927,"2016"
"low","apartment","Tropical",0.289017341040462,0.248415386362966,1384,"2016"
"low","house","Tropical",0.0287386881966973,0.00401681986807595,2459820,"2016"
"low","other","Tropical",0.0191832056463775,0.0195319602615423,16577,"2016"
"medium-high","apartment","Calida.Ext",0.282467128458252,0.0460081482448588,72327,"2016"
"medium-high","house","Calida.Ext",0.528018364609029,0.0112428974357189,2342767,"2016"
"medium-high","other","Calida.Ext",0.295614381667325,0.0596230999526858,50620,"2016"
"medium-high","apartment","Templada",0.0119165723715976,0.00465200905951631,946497,"2016"
"medium-high","house","Templada",0.0445626568870377,0.00586790651070247,3339186,"2016"
"medium-high","other","Templada",0.0036946858176782,0.00240349686437491,223835,"2016"
"medium-high","apartment","Tropical",0.240437445779332,0.0674296316465718,38039,"2016"
"medium-high","house","Tropical",0.324036074771581,0.0265128978796311,321887,"2016"
"medium-high","other","Tropical",0.290621193666261,0.143226776111661,8210,"2016"
"medium-low","apartment","Calida.Ext",0.115678919729932,0.0448938226179957,26660,"2016"
"medium-low","house","Calida.Ext",0.377898994106977,0.0101174536271356,3456630,"2016"
"medium-low","other","Calida.Ext",0.18471120211586,0.0291554611847002,105489,"2016"
"medium-low","apartment","Templada",0.0129502128223988,0.00786590405911858,248799,"2016"
"medium-low","house","Templada",0.0278585302178746,0.0036343618950116,9969083,"2016"
"medium-low","other","Templada",0.000788388052202198,0.000469556916617828,605032,"2016"
"medium-low","apartment","Tropical",0.212397350993377,0.0615079459354158,37750,"2016"
"medium-low","house","Tropical",0.168266506682665,0.00951408172228589,2160216,"2016"
"medium-low","other","Tropical",0.0899680084037626,0.018519112737757,104715,"2016"
"high","apartment","Calida.Ext",0.588345864661654,0.105334882623614,25004,"2018"
"high","house","Calida.Ext",0.728737534110852,0.015273378975177,1186939,"2018"
"high","other","Calida.Ext",0.819724561059983,0.0738593248496375,15321,"2018"
"high","apartment","Templada",0.0471698582689705,0.015525653464307,401888,"2018"
"high","house","Templada",0.0553547832455065,0.00901385277904882,1633138,"2018"
"high","other","Templada",0.104824332354901,0.0510426513309637,55531,"2018"
"high","apartment","Tropical",0.511576099928395,0.159237952738917,12569,"2018"
"high","house","Tropical",0.713297015794703,0.0377371937736509,175122,"2018"
"high","other","Tropical",0.582146248812915,0.283719253175125,1053,"2018"
"low","apartment","Calida.Ext",0.103448275862069,0.0960647135651625,667,"2018"
"low","house","Calida.Ext",0.216231670675649,0.0195215356642503,584105,"2018"
"low","other","Calida.Ext",0.18284951618285,0.084974944324855,14985,"2018"
"low","apartment","Templada",0,0,4883,"2018"
"low","house","Templada",0.00779423999960322,0.00185135899146381,3225972,"2018"
"low","other","Templada",0,0,29094,"2018"
"low","apartment","Tropical",0,0,746,"2018"
"low","house","Tropical",0.0283113239921907,0.00404769394266344,2605106,"2018"
"low","other","Tropical",0,0,25577,"2018"
"medium-high","apartment","Calida.Ext",0.3676916536772,0.0560427116753456,70570,"2018"
"medium-high","house","Calida.Ext",0.553900151033698,0.010964214105861,2447136,"2018"
"medium-high","other","Calida.Ext",0.327041426861929,0.0517027666444908,70196,"2018"
"medium-high","apartment","Templada",0.0213251039948803,0.0065404575568571,975048,"2018"
"medium-high","house","Templada",0.0386384516180087,0.00531403035809974,3234964,"2018"
"medium-high","other","Templada",0.0116117066789713,0.00729560741668702,223223,"2018"
"medium-high","apartment","Tropical",0.372663179440528,0.0741897809301111,43970,"2018"
"medium-high","house","Tropical",0.399486998621309,0.0268623250440454,311890,"2018"
"medium-high","other","Tropical",0.349043175707734,0.136204582548518,6323,"2018"
"medium-low","apartment","Calida.Ext",0.237545743515773,0.0655565397700757,37437,"2018"
"medium-low","house","Calida.Ext",0.402306866864268,0.0102435828950971,3636274,"2018"
"medium-low","other","Calida.Ext",0.23012907965159,0.0312379829920913,95290,"2018"
"medium-low","apartment","Templada",0.0161242181644524,0.00787548519018261,301534,"2018"
"medium-low","house","Templada",0.0275503997261342,0.00281291789399822,10340830,"2018"
"medium-low","other","Templada",0.00815720572039415,0.00428036050526246,618349,"2018"
"medium-low","apartment","Tropical",0.257163802583066,0.0460151581861379,46379,"2018"
"medium-low","house","Tropical",0.187569050399664,0.00963180789802829,2156939,"2018"
"medium-low","other","Tropical",0.102779009834361,0.0167191778505553,130766,"2018"
