"urban","climate","year","Rate","se","Freq","total.households"
"Rural","Arid","2014",0.26159741096129,0.0453294176416956,258340,987548
"Rural","Temperate","2014",0.00508298588802602,0.00181843721316354,16796,3304357
"Rural","Tropical","2014",0.028764135449446,0.00620636999360165,76133,2646803
"Urban","Arid","2014",0.488071784981326,0.0139495881982808,3181534,6518578
"Urban","Temperate","2014",0.0171200377815917,0.00366029290694022,235846,13776021
"Urban","Tropical","2014",0.168156216233878,0.0126807221846569,746226,4437695
"Rural","Arid","2016",0.253733067169221,0.01662220135009,263618,1038958
"Rural","Temperate","2016",0.0064627824481968,0.00121588721513451,21513,3328752
"Rural","Tropical","2016",0.0447456460474864,0.00954142349305299,128974,2882381
"Urban","Arid","2016",0.483993842728238,0.00722392246866923,3274380,6765334
"Urban","Temperate","2016",0.0158716499158627,0.00146787279435798,232942,14676609
"Urban","Tropical","2016",0.185258388735588,0.00810360406411517,883787,4770564
"Rural","Arid","2018",0.281517550849309,0.0171832421077013,318324,1130743
"Rural","Temperate","2018",0.00851129549578383,0.00144455029516678,32019,3761942
"Rural","Tropical","2018",0.0417514731235365,0.00597128496788253,129807,3109040
"Urban","Arid","2018",0.510566508926965,0.00732698190743461,3601118,7053181
"Urban","Temperate","2018",0.0182186757471118,0.00134526937610777,271667,14911457
"Urban","Tropical","2018",0.194383331013895,0.00823514956267063,928852,4778455
