"adopt.rate","se","Freq","year"
0.0175072222725372,0.0015745068281548,506271,"2008"
0.0226821214071438,0.00227192681514895,695857,"2010"
0.040593669476196,0.00438674813634298,1281111,"2012"
0.0316205341403471,0.00260265999895557,1001454,"2014"
0.0266863021215508,0.00122974818842363,892993,"2016"
0.0303467987657901,0.00126780548537447,1054394,"2018"
