"adopt.rate","se","total.households","year","houseage"
0.0185926213256914,0.00250438240231286,7643785,"2008","11 to 20"
0.0171267168511353,0.00277574956087063,5150199,"2008","21 to 30"
0.0106868431641631,0.0032225072135429,2845555,"2008","3 to 6"
0.0233089873834789,0.00419245697844361,3462999,"2008","31 to 50"
0.0145391529107678,0.00422082066189898,1157564,"2008","50+"
0.0199837555099075,0.00453122198669175,4088771,"2008","7 to 10"
0.0316936522539098,0.0102954241341792,1087000,"2008","less than 3"
0.0135243259826574,0.00300338335965537,2353389,"2008","unknown"
0.0273260058509687,0.00418657267264937,7648648,"2010","11 to 20"
0.027280074603668,0.00448759614310144,5066775,"2010","21 to 30"
0.0218543792756603,0.0060736088253426,2821494,"2010","3 to 6"
0.0323391318005901,0.0063372078452544,3679938,"2010","31 to 50"
0.00533549746175364,0.00263584029736659,868710,"2010","50+"
0.0199250424524984,0.00649011150948248,3184736,"2010","7 to 10"
0.0104799725947448,0.00447044579855056,1655157,"2010","less than 3"
0.0312066730767023,0.00554439048560377,7751387,"2012","11 to 20"
0.0520949379297169,0.00889208196993647,5977337,"2012","21 to 30"
0.0291533164970509,0.00830695397247484,2953146,"2012","3 to 6"
0.0585820514527979,0.0101978949561574,4505100,"2012","31 to 50"
0.028026846779683,0.0108132853071183,987232,"2012","50+"
0.0234401629070567,0.00620290395228301,2963162,"2012","7 to 10"
0.0324481602887555,0.0121522085391095,1547607,"2012","less than 3"
0.0300089004541861,0.0035118058267478,7682754,"2014","11 to 20"
0.0296572924259642,0.00464934457026128,5331134,"2014","21 to 30"
0.0399470280152431,0.00733138657833012,3361777,"2014","3 to 6"
0.0340326202693812,0.0050264764882408,4030868,"2014","31 to 50"
0.00966857600444514,0.00411581872375406,979048,"2014","50+"
0.0393629781773918,0.00607917632882446,3825803,"2014","7 to 10"
0.0209441447730125,0.00490127352093952,2475489,"2014","less than 3"
0.029086462361352,0.00205443532617403,8238128,"2016","11 to 20"
0.0293692714185135,0.00236629551190124,5373167,"2016","21 to 30"
0.0237204497013349,0.00294406563141911,2917314,"2016","3 to 6"
0.0257643201219915,0.00301882308334588,4538020,"2016","31 to 50"
0.0149160285528877,0.00402969129459618,963125,"2016","50+"
0.0329074414019205,0.00312462491662684,3690138,"2016","7 to 10"
0.0210797756169606,0.00276734425290119,2103011,"2016","less than 3"
0.0331745964526023,0.00208200893245161,8760619,"2018","11 to 20"
0.0340486780148337,0.00253233162090228,5745715,"2018","21 to 30"
0.0233033524121014,0.00291538991613565,2602544,"2018","3 to 6"
0.0305021021992238,0.00254110970244987,5342976,"2018","31 to 50"
0.0283881647387767,0.00536778949959501,1095844,"2018","50+"
0.0318932767406171,0.00305942472336609,3490673,"2018","7 to 10"
0.0207802553028921,0.00292342839384443,1968407,"2018","less than 3"
